EESchema Schematic File Version 2
LIBS:pinguino_4550-rescue
LIBS:power
LIBS:device
LIBS:transistors
LIBS:conn
LIBS:linear
LIBS:regul
LIBS:74xx
LIBS:cmos4000
LIBS:adc-dac
LIBS:memory
LIBS:xilinx
LIBS:microcontrollers
LIBS:dsp
LIBS:microchip
LIBS:analog_switches
LIBS:motorola
LIBS:texas
LIBS:intel
LIBS:audio
LIBS:interface
LIBS:digital-audio
LIBS:philips
LIBS:display
LIBS:cypress
LIBS:siliconi
LIBS:opto
LIBS:atmel
LIBS:contrib
LIBS:valves
LIBS:_cenditel
LIBS:microchip_pic18mcu
LIBS:pic18f4x2
LIBS:pic18f2320
LIBS:pic18f4550
LIBS:pic18f4550_tqfp
LIBS:pic18f6680
LIBS:pic18fxx20
LIBS:pic18fxx20-2
LIBS:pic18fxx20-fxx8
LIBS:microchip_pic10mcu
LIBS:microchip_pic12mcu
LIBS:microchip_pic16mcu
LIBS:microchip_pic32mcu
LIBS:microchip-pic18fxx5x
LIBS:sma
LIBS:stm8
LIBS:stm32
LIBS:sw_push_4
LIBS:_st
LIBS:_std
LIBS:pinhead
LIBS:pinhead-1
LIBS:pinguino_4550-cache
EELAYER 25 0
EELAYER END
$Descr USLetter 11000 8500
encoding utf-8
Sheet 1 1
Title "Pinguino_IDE"
Date "2015-10-05"
Rev ""
Comp "Fundación CENDITEL"
Comment1 "Ing. Josemiguel Canelones"
Comment2 ""
Comment3 ""
Comment4 ""
$EndDescr
$Comp
L R R3
U 1 1 56115BCD
P 8400 1500
F 0 "R3" V 8480 1500 50  0000 C CNN
F 1 "1k" V 8400 1500 50  0000 C CNN
F 2 "Resistors_SMD:R_1206" H 8400 1500 60  0001 C CNN
F 3 "" H 8400 1500 60  0000 C CNN
	1    8400 1500
	1    0    0    -1  
$EndComp
$Comp
L GND-RESCUE-pinguino_4550 #PWR01
U 1 1 56115D1F
P 2250 1750
F 0 "#PWR01" H 2250 1500 60  0001 C CNN
F 1 "GND" H 2250 1600 60  0000 C CNN
F 2 "" H 2250 1750 60  0000 C CNN
F 3 "" H 2250 1750 60  0000 C CNN
	1    2250 1750
	1    0    0    -1  
$EndComp
$Comp
L GND-RESCUE-pinguino_4550 #PWR02
U 1 1 56115D39
P 4100 1450
F 0 "#PWR02" H 4100 1200 60  0001 C CNN
F 1 "GND" H 4100 1300 60  0000 C CNN
F 2 "" H 4100 1450 60  0000 C CNN
F 3 "" H 4100 1450 60  0000 C CNN
	1    4100 1450
	-1   0    0    1   
$EndComp
$Comp
L VCC #PWR03
U 1 1 56115D53
P 8800 900
F 0 "#PWR03" H 8800 750 60  0001 C CNN
F 1 "VCC" H 8800 1050 60  0000 C CNN
F 2 "" H 8800 900 60  0000 C CNN
F 3 "" H 8800 900 60  0000 C CNN
	1    8800 900 
	1    0    0    -1  
$EndComp
$Comp
L VCC #PWR04
U 1 1 56115DCD
P 1950 1850
F 0 "#PWR04" H 1950 1700 60  0001 C CNN
F 1 "VCC" H 1950 2000 60  0000 C CNN
F 2 "" H 1950 1850 60  0000 C CNN
F 3 "" H 1950 1850 60  0000 C CNN
	1    1950 1850
	-1   0    0    1   
$EndComp
$Comp
L PIC18F4550_TQFP U1
U 1 1 56130ADC
P 3600 4250
F 0 "U1" H 5150 2150 50  0000 C CNN
F 1 "PIC18F4550_TQFP" H 3600 4250 50  0000 C CNN
F 2 "Housings_QFP:TQFP-44_10x10mm_Pitch0.8mm" H 3600 4250 60  0001 C CNN
F 3 "" H 3600 4250 60  0000 C CNN
	1    3600 4250
	1    0    0    -1  
$EndComp
$Comp
L USB J1
U 1 1 56130EEF
P 2950 1350
F 0 "J1" H 2900 1750 60  0000 C CNN
F 1 "USB" V 2700 1500 60  0000 C CNN
F 2 "Connect:USB_B" H 2950 1350 60  0001 C CNN
F 3 "" H 2950 1350 60  0000 C CNN
	1    2950 1350
	1    0    0    -1  
$EndComp
$Comp
L R R1
U 1 1 56130FFA
P 3550 7300
F 0 "R1" V 3630 7300 50  0000 C CNN
F 1 "10k" V 3550 7300 50  0000 C CNN
F 2 "Resistors_SMD:R_1206" H 3550 7300 60  0001 C CNN
F 3 "" H 3550 7300 60  0000 C CNN
	1    3550 7300
	1    0    0    -1  
$EndComp
$Comp
L R R2
U 1 1 56131060
P 6050 4750
F 0 "R2" V 6130 4750 50  0000 C CNN
F 1 "1k" V 6050 4750 50  0000 C CNN
F 2 "Resistors_SMD:R_1206" H 6050 4750 60  0001 C CNN
F 3 "" H 6050 4750 60  0000 C CNN
	1    6050 4750
	0    1    1    0   
$EndComp
$Comp
L CP1 C4
U 1 1 5613109E
P 8800 1900
F 0 "C4" H 8850 2000 50  0000 L CNN
F 1 "10uf" H 8850 1800 50  0000 L CNN
F 2 "Capacitors_Elko_ThroughHole:Elko_vert_11.2x6.3mm_RM2.5_CopperClear" H 8800 1900 60  0001 C CNN
F 3 "" H 8800 1900 60  0000 C CNN
	1    8800 1900
	1    0    0    -1  
$EndComp
$Comp
L C C5
U 1 1 56131133
P 9200 1850
F 0 "C5" H 9250 1950 50  0000 L CNN
F 1 "100nf" H 9250 1750 50  0000 L CNN
F 2 "Capacitors_SMD:C_1210" H 9200 1850 60  0001 C CNN
F 3 "" H 9200 1850 60  0000 C CNN
	1    9200 1850
	1    0    0    -1  
$EndComp
$Comp
L C C3
U 1 1 5613125F
P 6750 4300
F 0 "C3" H 6800 4400 50  0000 L CNN
F 1 "22pf" H 6800 4200 50  0000 L CNN
F 2 "Capacitors_SMD:C_1210" H 6750 4300 60  0001 C CNN
F 3 "" H 6750 4300 60  0000 C CNN
	1    6750 4300
	0    1    1    0   
$EndComp
$Comp
L C C2
U 1 1 5613128B
P 6750 3700
F 0 "C2" H 6800 3800 50  0000 L CNN
F 1 "22pf" H 6800 3600 50  0000 L CNN
F 2 "Capacitors_SMD:C_1210" H 6750 3700 60  0001 C CNN
F 3 "" H 6750 3700 60  0000 C CNN
	1    6750 3700
	0    1    1    0   
$EndComp
$Comp
L C C1
U 1 1 561312C2
P 4100 1900
F 0 "C1" H 4150 2000 50  0000 L CNN
F 1 "470nf" H 3850 2000 50  0000 L CNN
F 2 "Capacitors_SMD:C_1210" H 4100 1900 60  0001 C CNN
F 3 "" H 4100 1900 60  0000 C CNN
	1    4100 1900
	1    0    0    -1  
$EndComp
$Comp
L LED D1
U 1 1 561312F2
P 6700 4750
F 0 "D1" H 6700 4850 50  0000 C CNN
F 1 "LED" H 6700 4650 50  0000 C CNN
F 2 "LEDs:LED-5MM" H 6700 4750 60  0001 C CNN
F 3 "" H 6700 4750 60  0000 C CNN
	1    6700 4750
	1    0    0    -1  
$EndComp
$Comp
L LED D2
U 1 1 561313BD
P 8400 2050
F 0 "D2" H 8400 2150 50  0000 C CNN
F 1 "LED" H 8400 1950 50  0000 C CNN
F 2 "LEDs:LED-5MM" H 8400 2050 60  0001 C CNN
F 3 "" H 8400 2050 60  0000 C CNN
	1    8400 2050
	0    1    1    0   
$EndComp
$Comp
L SW_PUSH SW1
U 1 1 56131455
P 4250 7350
F 0 "SW1" H 4400 7460 50  0000 C CNN
F 1 "SW_PUSH" H 4250 7270 50  0000 C CNN
F 2 "Buttons_Switches_ThroughHole:SW_PUSH_SMALL" H 4250 7350 60  0001 C CNN
F 3 "" H 4250 7350 60  0000 C CNN
	1    4250 7350
	0    -1   -1   0   
$EndComp
$Comp
L JUMPER3 JP1
U 1 1 561315FD
P 1950 1550
F 0 "JP1" H 2000 1450 40  0000 L CNN
F 1 "JUMPER3" H 1950 1650 40  0000 C CNN
F 2 "Pin_Headers:Pin_Header_Straight_1x03" H 1950 1550 60  0001 C CNN
F 3 "" H 1950 1550 60  0000 C CNN
	1    1950 1550
	1    0    0    -1  
$EndComp
$Comp
L CONN_1 P1
U 1 1 56131818
P 3850 7850
F 0 "P1" V 3930 7850 40  0000 L CNN
F 1 "MCLR" H 3850 7905 30  0001 C CNN
F 2 "Wire_Pads:SolderWirePad_single_0-8mmDrill" H 3850 7850 60  0001 C CNN
F 3 "" H 3850 7850 60  0000 C CNN
	1    3850 7850
	0    1    1    0   
$EndComp
Wire Wire Line
	2550 1550 2200 1550
Wire Wire Line
	1950 1650 1950 1850
NoConn ~ 1700 1550
Wire Wire Line
	2250 1750 2250 1700
Wire Wire Line
	2250 1700 2550 1700
Wire Wire Line
	4100 2100 4100 2350
Wire Wire Line
	4100 1450 4100 1700
$Comp
L GND-RESCUE-pinguino_4550 #PWR05
U 1 1 56132B16
P 8800 2550
F 0 "#PWR05" H 8800 2300 60  0001 C CNN
F 1 "GND" H 8800 2400 60  0000 C CNN
F 2 "" H 8800 2550 60  0000 C CNN
F 3 "" H 8800 2550 60  0000 C CNN
	1    8800 2550
	1    0    0    -1  
$EndComp
Wire Wire Line
	8800 900  8800 1700
Wire Wire Line
	8400 1050 9200 1050
Wire Wire Line
	8400 1250 8400 1050
Wire Wire Line
	8400 2350 9200 2350
Wire Wire Line
	8800 2100 8800 2550
Wire Wire Line
	8400 1750 8400 1850
Wire Wire Line
	8400 2250 8400 2350
$Comp
L CRYSTAL X1
U 1 1 56133255
P 6300 4000
F 0 "X1" H 6300 4150 60  0000 C CNN
F 1 "20Mhz" H 6300 3850 60  0000 C CNN
F 2 "Crystals:Crystal_HC49-U_Vertical" H 6300 4000 60  0001 C CNN
F 3 "" H 6300 4000 60  0000 C CNN
	1    6300 4000
	0    1    1    0   
$EndComp
Wire Wire Line
	6000 3700 6550 3700
Wire Wire Line
	6000 4300 6550 4300
Wire Wire Line
	6950 4300 7200 4300
Wire Wire Line
	7200 4300 7200 3700
Wire Wire Line
	7200 3700 6950 3700
Wire Wire Line
	6000 3700 6000 3950
Wire Wire Line
	6000 3950 5500 3950
Connection ~ 6300 3700
Wire Wire Line
	5500 4050 6000 4050
Wire Wire Line
	6000 4050 6000 4300
Connection ~ 6300 4300
$Comp
L GND-RESCUE-pinguino_4550 #PWR06
U 1 1 561337A8
P 7400 4050
F 0 "#PWR06" H 7400 3800 60  0001 C CNN
F 1 "GND" H 7400 3900 60  0000 C CNN
F 2 "" H 7400 4050 60  0000 C CNN
F 3 "" H 7400 4050 60  0000 C CNN
	1    7400 4050
	1    0    0    -1  
$EndComp
Wire Wire Line
	7400 4000 7400 4050
Wire Wire Line
	7200 4000 7400 4000
Connection ~ 7200 4000
$Comp
L VCC #PWR07
U 1 1 56133FF9
P 3550 7750
F 0 "#PWR07" H 3550 7600 60  0001 C CNN
F 1 "VCC" H 3550 7900 60  0000 C CNN
F 2 "" H 3550 7750 60  0000 C CNN
F 3 "" H 3550 7750 60  0000 C CNN
	1    3550 7750
	-1   0    0    1   
$EndComp
$Comp
L GND-RESCUE-pinguino_4550 #PWR08
U 1 1 56134252
P 4250 7750
F 0 "#PWR08" H 4250 7500 60  0001 C CNN
F 1 "GND" H 4250 7600 60  0000 C CNN
F 2 "" H 4250 7750 60  0000 C CNN
F 3 "" H 4250 7750 60  0000 C CNN
	1    4250 7750
	1    0    0    -1  
$EndComp
Wire Wire Line
	3850 6400 3850 7700
Wire Wire Line
	3550 7050 3550 7000
Wire Wire Line
	3550 7000 4250 7000
Connection ~ 3850 7000
Wire Wire Line
	3550 7550 3550 7750
Wire Wire Line
	4250 7650 4250 7750
Wire Wire Line
	4250 7000 4250 7050
NoConn ~ 2600 6400
NoConn ~ 2350 6400
Wire Wire Line
	5800 4750 5500 4750
Wire Wire Line
	6500 4750 6300 4750
$Comp
L GND-RESCUE-pinguino_4550 #PWR09
U 1 1 56134A1F
P 7150 4750
F 0 "#PWR09" H 7150 4500 60  0001 C CNN
F 1 "GND" H 7150 4600 60  0000 C CNN
F 2 "" H 7150 4750 60  0000 C CNN
F 3 "" H 7150 4750 60  0000 C CNN
	1    7150 4750
	1    0    0    -1  
$EndComp
Wire Wire Line
	7150 4750 6900 4750
$Comp
L GND-RESCUE-pinguino_4550 #PWR010
U 1 1 56134C1B
P 5800 4150
F 0 "#PWR010" H 5800 3900 60  0001 C CNN
F 1 "GND" V 5850 4200 60  0000 C CNN
F 2 "" H 5800 4150 60  0000 C CNN
F 3 "" H 5800 4150 60  0000 C CNN
	1    5800 4150
	0    -1   -1   0   
$EndComp
$Comp
L VCC #PWR011
U 1 1 56134CE8
P 5750 4250
F 0 "#PWR011" H 5750 4100 60  0001 C CNN
F 1 "VCC" V 5700 4200 60  0000 C CNN
F 2 "" H 5750 4250 60  0000 C CNN
F 3 "" H 5750 4250 60  0000 C CNN
	1    5750 4250
	0    1    1    0   
$EndComp
$Comp
L VCC #PWR012
U 1 1 56134FC2
P 1250 4350
F 0 "#PWR012" H 1250 4200 60  0001 C CNN
F 1 "VCC" V 1300 4350 60  0000 C CNN
F 2 "" H 1250 4350 60  0000 C CNN
F 3 "" H 1250 4350 60  0000 C CNN
	1    1250 4350
	0    -1   -1   0   
$EndComp
$Comp
L GND-RESCUE-pinguino_4550 #PWR013
U 1 1 5613500D
P 1050 4250
F 0 "#PWR013" H 1050 4000 60  0001 C CNN
F 1 "GND" V 1000 4300 60  0000 C CNN
F 2 "" H 1050 4250 60  0000 C CNN
F 3 "" H 1050 4250 60  0000 C CNN
	1    1050 4250
	0    1    1    0   
$EndComp
Wire Wire Line
	9200 1050 9200 1650
Connection ~ 8800 1050
Wire Wire Line
	9200 2350 9200 2050
Connection ~ 8800 2350
NoConn ~ 5500 3750
NoConn ~ 4850 2350
$Comp
L CONN_17 P2
U 1 1 56136A36
P 9350 4000
F 0 "P2" V 9310 4000 60  0000 C CNN
F 1 "CONECTOR_2" V 9430 4000 60  0000 C CNN
F 2 "Pin_Headers:Pin_Header_Straight_1x17" H 9350 4000 60  0001 C CNN
F 3 "" H 9350 4000 60  0000 C CNN
	1    9350 4000
	1    0    0    -1  
$EndComp
$Comp
L CONN_17 P3
U 1 1 56136BE6
P 9350 5750
F 0 "P3" V 9310 5750 60  0000 C CNN
F 1 "CONECTOR_1" V 9430 5750 60  0000 C CNN
F 2 "Pin_Headers:Pin_Header_Straight_1x17" H 9350 5750 60  0001 C CNN
F 3 "" H 9350 5750 60  0000 C CNN
	1    9350 5750
	1    0    0    -1  
$EndComp
Text GLabel 8500 3300 0    60   Input ~ 0
RA0
Text GLabel 4100 6600 3    60   Input ~ 0
RA0
Wire Wire Line
	8500 3300 9000 3300
$Comp
L GND-RESCUE-pinguino_4550 #PWR014
U 1 1 56137F54
P 8650 4800
F 0 "#PWR014" H 8650 4550 60  0001 C CNN
F 1 "GND" V 8650 4600 60  0000 C CNN
F 2 "" H 8650 4800 60  0000 C CNN
F 3 "" H 8650 4800 60  0000 C CNN
	1    8650 4800
	0    1    1    0   
$EndComp
$Comp
L GND-RESCUE-pinguino_4550 #PWR015
U 1 1 5613806D
P 8650 6650
F 0 "#PWR015" H 8650 6400 60  0001 C CNN
F 1 "GND" H 8750 6650 60  0000 C CNN
F 2 "" H 8650 6650 60  0000 C CNN
F 3 "" H 8650 6650 60  0000 C CNN
	1    8650 6650
	1    0    0    -1  
$EndComp
$Comp
L VCC #PWR016
U 1 1 561382C5
P 8700 3150
F 0 "#PWR016" H 8700 3000 60  0001 C CNN
F 1 "VCC" H 8700 3300 60  0000 C CNN
F 2 "" H 8700 3150 60  0000 C CNN
F 3 "" H 8700 3150 60  0000 C CNN
	1    8700 3150
	1    0    0    -1  
$EndComp
Wire Wire Line
	9000 3200 8700 3200
Wire Wire Line
	8700 3200 8700 3150
$Comp
L VCC #PWR017
U 1 1 56138441
P 8650 4950
F 0 "#PWR017" H 8650 4800 60  0001 C CNN
F 1 "VCC" V 8650 5150 60  0000 C CNN
F 2 "" H 8650 4950 60  0000 C CNN
F 3 "" H 8650 4950 60  0000 C CNN
	1    8650 4950
	0    -1   -1   0   
$EndComp
Text GLabel 2350 2200 1    60   Input ~ 0
RC6
Text GLabel 3100 2200 1    60   Input ~ 0
RD3
Text GLabel 2600 2200 1    60   Input ~ 0
D+
Text GLabel 2850 2200 1    60   Input ~ 0
D-
Text GLabel 3350 2200 1    60   Input ~ 0
RD2
Text GLabel 3600 2200 1    60   Input ~ 0
RD1
Text GLabel 3850 2200 1    60   Input ~ 0
RD0
Text GLabel 4350 2200 1    60   Input ~ 0
RC2
Text GLabel 4600 2200 1    60   Input ~ 0
RC1
Text GLabel 3500 1550 2    60   Input ~ 0
D+
Text GLabel 3500 1750 2    60   Input ~ 0
D-
Wire Wire Line
	3500 1550 3300 1550
Wire Wire Line
	3500 1750 3400 1750
Wire Wire Line
	3400 1750 3400 1700
Wire Wire Line
	3400 1700 3300 1700
Wire Wire Line
	2350 2200 2350 2350
Wire Wire Line
	2600 2200 2600 2350
Wire Wire Line
	2850 2200 2850 2350
Wire Wire Line
	3100 2200 3100 2350
Wire Wire Line
	3350 2200 3350 2350
Wire Wire Line
	3600 2200 3600 2350
Wire Wire Line
	3850 2200 3850 2350
Wire Wire Line
	4350 2200 4350 2350
Wire Wire Line
	4600 2200 4600 2350
Text GLabel 5650 3850 2    60   Input ~ 0
RC0
Wire Wire Line
	5650 3850 5500 3850
Wire Wire Line
	5500 4150 5800 4150
Wire Wire Line
	5750 4250 5500 4250
Text GLabel 5650 4350 2    60   Input ~ 0
RE2
Text GLabel 5650 4450 2    60   Input ~ 0
RE1
Text GLabel 5650 4550 2    60   Input ~ 0
RE0
Text GLabel 5650 4650 2    60   Input ~ 0
RA5
Wire Wire Line
	5650 4350 5500 4350
Wire Wire Line
	5650 4450 5500 4450
Wire Wire Line
	5650 4550 5500 4550
Wire Wire Line
	5650 4650 5500 4650
Text GLabel 5650 4900 2    60   Input ~ 0
RA4
Wire Wire Line
	5650 4900 5550 4900
Wire Wire Line
	5550 4900 5550 4750
Connection ~ 5550 4750
Text GLabel 2850 6600 3    60   Input ~ 0
RB4
Text GLabel 3100 6600 3    60   Input ~ 0
RB5
Text GLabel 3350 6600 3    60   Input ~ 0
RB6
Text GLabel 3600 6600 3    60   Input ~ 0
RB7
Text GLabel 4350 6600 3    60   Input ~ 0
RA1
Text GLabel 4600 6600 3    60   Input ~ 0
RA2
Text GLabel 4850 6600 3    60   Input ~ 0
RA3
Wire Wire Line
	4850 6400 4850 6600
Wire Wire Line
	4600 6400 4600 6600
Wire Wire Line
	4350 6400 4350 6600
Wire Wire Line
	4100 6400 4100 6600
Wire Wire Line
	3600 6400 3600 6600
Wire Wire Line
	3350 6400 3350 6600
Wire Wire Line
	3100 6600 3100 6400
Wire Wire Line
	2850 6600 2850 6400
Wire Wire Line
	1050 4250 1700 4250
Wire Wire Line
	1700 4350 1250 4350
Text GLabel 1550 3750 0    60   Input ~ 0
RC7
Text GLabel 1550 3850 0    60   Input ~ 0
RD4
Text GLabel 1550 3950 0    60   Input ~ 0
RD5
Text GLabel 1550 4050 0    60   Input ~ 0
RD6
Text GLabel 1550 4150 0    60   Input ~ 0
RD7
Text GLabel 1550 4450 0    60   Input ~ 0
RB0
Text GLabel 1550 4550 0    60   Input ~ 0
RB1
Text GLabel 1550 4650 0    60   Input ~ 0
RB2
Text GLabel 1550 4750 0    60   Input ~ 0
RB3
Wire Wire Line
	1700 3750 1550 3750
Wire Wire Line
	1700 3850 1550 3850
Wire Wire Line
	1700 3950 1550 3950
Wire Wire Line
	1700 4050 1550 4050
Wire Wire Line
	1700 4150 1550 4150
Wire Wire Line
	1550 4450 1700 4450
Wire Wire Line
	1700 4550 1550 4550
Wire Wire Line
	1550 4650 1700 4650
Wire Wire Line
	1700 4750 1550 4750
Wire Wire Line
	8650 4950 9000 4950
Wire Wire Line
	8650 4800 9000 4800
Text GLabel 8750 3400 0    60   Input ~ 0
RA1
Wire Wire Line
	8750 3400 9000 3400
Text GLabel 8500 3500 0    60   Input ~ 0
RA2
Text GLabel 8750 3600 0    60   Input ~ 0
RA3
Text GLabel 8750 3800 0    60   Input ~ 0
RA5
Text GLabel 8500 3700 0    60   Input ~ 0
RA4
Text GLabel 8500 3900 0    60   Input ~ 0
RE0
Text GLabel 8750 4000 0    60   Input ~ 0
RE1
Text GLabel 8500 4100 0    60   Input ~ 0
RE2
Text GLabel 8750 4200 0    60   Input ~ 0
RC0
Wire Wire Line
	9000 3500 8500 3500
Wire Wire Line
	8750 3600 9000 3600
Wire Wire Line
	9000 3700 8500 3700
Wire Wire Line
	9000 3800 8750 3800
Wire Wire Line
	9000 3900 8500 3900
Wire Wire Line
	8750 4000 9000 4000
Wire Wire Line
	9000 4100 8500 4100
Wire Wire Line
	8750 4200 9000 4200
Text GLabel 8500 4300 0    60   Input ~ 0
RC1
Text GLabel 8750 4400 0    60   Input ~ 0
RC2
Wire Wire Line
	9000 4300 8500 4300
Wire Wire Line
	8750 4400 9000 4400
Text GLabel 8500 4500 0    60   Input ~ 0
RC6
Text GLabel 8750 4600 0    60   Input ~ 0
RC7
Wire Wire Line
	8500 4500 9000 4500
Wire Wire Line
	9000 4600 8750 4600
Text GLabel 8500 4700 0    60   Input ~ 0
RD0
Wire Wire Line
	8500 4700 9000 4700
Text GLabel 8500 5050 0    60   Input ~ 0
RD1
Wire Wire Line
	8500 5050 9000 5050
Text GLabel 8750 5150 0    60   Input ~ 0
RD2
Text GLabel 8500 5250 0    60   Input ~ 0
RD3
Text GLabel 8750 5350 0    60   Input ~ 0
RD4
Text GLabel 8500 5450 0    60   Input ~ 0
RD5
Text GLabel 8750 5550 0    60   Input ~ 0
RD6
Text GLabel 8500 5650 0    60   Input ~ 0
RD7
Text GLabel 8750 5750 0    60   Input ~ 0
RB0
Text GLabel 8500 5850 0    60   Input ~ 0
RB1
Text GLabel 8750 5950 0    60   Input ~ 0
RB2
Text GLabel 8500 6050 0    60   Input ~ 0
RB3
Text GLabel 8750 6150 0    60   Input ~ 0
RB4
Text GLabel 8500 6250 0    60   Input ~ 0
RB5
Text GLabel 8750 6350 0    60   Input ~ 0
RB6
Text GLabel 8500 6450 0    60   Input ~ 0
RB7
Wire Wire Line
	8650 6550 9000 6550
Wire Wire Line
	8650 6550 8650 6650
Wire Wire Line
	8500 6450 9000 6450
Wire Wire Line
	9000 6350 8750 6350
Wire Wire Line
	8500 6250 9000 6250
Wire Wire Line
	9000 6150 8750 6150
Wire Wire Line
	8500 6050 9000 6050
Wire Wire Line
	9000 5950 8750 5950
Wire Wire Line
	8500 5850 9000 5850
Wire Wire Line
	8750 5750 9000 5750
Wire Wire Line
	8500 5650 9000 5650
Wire Wire Line
	8750 5550 9000 5550
Wire Wire Line
	9000 5450 8500 5450
Wire Wire Line
	8750 5350 9000 5350
Wire Wire Line
	9000 5250 8500 5250
Wire Wire Line
	9000 5150 8750 5150
Wire Wire Line
	2550 1800 2550 1900
Wire Wire Line
	2550 1900 3300 1900
Wire Wire Line
	3300 1900 3300 1800
Wire Wire Line
	2450 1700 2450 1850
Wire Wire Line
	2450 1850 2550 1850
Connection ~ 2550 1850
Connection ~ 2450 1700
$EndSCHEMATC
