<?xml version="1.0" encoding="UTF-8" standalone="no"?>
<svg
   xmlns:dc="http://purl.org/dc/elements/1.1/"
   xmlns:cc="http://creativecommons.org/ns#"
   xmlns:rdf="http://www.w3.org/1999/02/22-rdf-syntax-ns#"
   xmlns:svg="http://www.w3.org/2000/svg"
   xmlns="http://www.w3.org/2000/svg"
   xmlns:sodipodi="http://sodipodi.sourceforge.net/DTD/sodipodi-0.dtd"
   xmlns:inkscape="http://www.inkscape.org/namespaces/inkscape"
   version="1.1"
   width="27.94cm"
   height="21.59cm"
   viewBox="0 0 110000 85000 "
   id="svg2"
   inkscape:version="0.48.3.1 r9886"
   sodipodi:docname="mascaras.pdf">
  <metadata
     id="metadata248">
    <rdf:RDF>
      <cc:Work
         rdf:about="">
        <dc:format>image/svg+xml</dc:format>
        <dc:type
           rdf:resource="http://purl.org/dc/dcmitype/StillImage" />
        <dc:title>SVG Picture created as pinguino_4550-Dwgs_User.svg date 2015/10/08 07:44:37 </dc:title>
      </cc:Work>
    </rdf:RDF>
  </metadata>
  <defs
     id="defs246" />
  <sodipodi:namedview
     pagecolor="#ffffff"
     bordercolor="#666666"
     borderopacity="1"
     objecttolerance="10"
     gridtolerance="10"
     guidetolerance="10"
     inkscape:pageopacity="0"
     inkscape:pageshadow="2"
     inkscape:window-width="640"
     inkscape:window-height="480"
     id="namedview244"
     showgrid="false"
     inkscape:zoom="0.61699346"
     inkscape:cx="358.22017"
     inkscape:cy="451.77946"
     inkscape:window-x="0"
     inkscape:window-y="27"
     inkscape:window-maximized="0"
     inkscape:current-layer="svg2" />
  <title
     id="title4">SVG Picture created as pinguino_4550-Dwgs_User.svg date 2015/10/08 07:44:37 </title>
  <desc
     id="desc6">Picture generated by PCBNEW </desc>
  <g
     style="fill:#000000; fill-opacity:1;stroke:#000000; stroke-opacity:1; stroke-linecap:round; stroke-linejoin:round; "
     transform="translate(0 0) scale(1 1)"
     id="g8" />
  <g
     style="fill:#000000; fill-opacity:0.0;  stroke:#000000; stroke-width:-0.000393701; stroke-opacity:1;  stroke-linecap:round; stroke-linejoin:round;"
     id="g10" />
  <g
     style="fill:#000000; fill-opacity:1.0;  stroke:#000000; stroke-width:39.3701; stroke-opacity:1;  stroke-linecap:round; stroke-linejoin:round;"
     id="g12">
    <rect
       x="34992.1"
       y="24899.6"
       width="15289.6"
       height="32608.3"
       rx="0"
       id="rect14" />
  </g>
  <g
     style="fill:#FFFFFF; fill-opacity:1.0;  stroke:#FFFFFF; stroke-width:39.3701; stroke-opacity:1;  stroke-linecap:round; stroke-linejoin:round;"
     id="g16" />
  <g
     style="fill:#FFFFFF; fill-opacity:0.0;  stroke:#FFFFFF; stroke-width:39.3701; stroke-opacity:1;  stroke-linecap:round; stroke-linejoin:round;"
     id="g18" />
  <g
     style="fill:#FFFFFF; fill-opacity:0.0;  stroke:#FFFFFF; stroke-width:118.11; stroke-opacity:1;  stroke-linecap:round; stroke-linejoin:round;"
     id="g20">
    <path
       d="M43120 34901 L43120 35294 "
       id="path22" />
    <path
       d="M42867 34901 L42867 35210 L42895 35266 L42951 35294 L43035 35294 L43092 35266 L43120 35238 "
       id="path24" />
    <path
       d="M43373 35266 L43429 35294 L43542 35294 L43598 35266 L43626 35210 L43626 35182 L43598 35125 L43542 35097 L43457 35097 L43401 35069 L43373 35013 L43373 34985 L43401 34929 L43457 34901 L43542 34901 L43598 34929 "
       id="path26" />
    <path
       d="M43879 35294 L43879 34704 "
       id="path28" />
    <path
       d="M43879 34929 L43935 34901 L44048 34901 L44104 34929 L44132 34957 L44160 35013 L44160 35182 L44132 35238 L44104 35266 L44048 35294 L43935 35294 L43879 35266 "
       id="path30" />
    <path
       d="M39359 52763 L39314 52741 L39247 52741 L39179 52763 L39134 52808 L39112 52853 L39089 52943 L39089 53011 L39112 53101 L39134 53146 L39179 53191 L39247 53213 L39292 53213 L39359 53191 L39382 53168 L39382 53011 L39292 53011 "
       id="path32" />
    <path
       d="M39584 53213 L39584 52741 L39854 53213 L39854 52741 "
       id="path34" />
    <path
       d="M40079 53213 L40079 52741 L40192 52741 L40259 52763 L40304 52808 L40327 52853 L40349 52943 L40349 53011 L40327 53101 L40304 53146 L40259 53191 L40192 53213 L40079 53213 "
       id="path36" />
    <path
       d="M45421 39168 L45398 39191 L45331 39213 L45286 39213 L45218 39191 L45173 39146 L45151 39101 L45128 39011 L45128 38943 L45151 38853 L45173 38808 L45218 38763 L45286 38741 L45331 38741 L45398 38763 L45421 38786 "
       id="path38" />
    <path
       d="M45578 38741 L45893 38741 L45691 39213 "
       id="path40" />
    <path
       d="M45140 36763 L45095 36741 L45027 36741 L44960 36763 L44915 36808 L44892 36853 L44870 36943 L44870 37011 L44892 37101 L44915 37146 L44960 37191 L45027 37213 L45072 37213 L45140 37191 L45162 37168 L45162 37011 L45072 37011 "
       id="path42" />
    <path
       d="M45365 37213 L45365 36741 L45634 37213 L45634 36741 "
       id="path44" />
    <path
       d="M45859 37213 L45859 36741 L45972 36741 L46039 36763 L46084 36808 L46107 36853 L46129 36943 L46129 37011 L46107 37101 L46084 37146 L46039 37191 L45972 37213 L45859 37213 "
       id="path46" />
    <path
       d="M39308 45966 L39376 45988 L39398 46011 L39421 46056 L39421 46123 L39398 46168 L39376 46191 L39331 46213 L39151 46213 L39151 45741 L39308 45741 L39353 45763 L39376 45786 L39398 45831 L39398 45876 L39376 45921 L39353 45943 L39308 45966 L39151 45966 "
       id="path48" />
    <path
       d="M39871 46213 L39601 46213 "
       id="path50" />
    <path
       d="M39736 46213 L39736 45741 L39691 45808 L39646 45853 L39601 45876 "
       id="path52" />
    <path
       d="M41813 52713 L41656 52488 "
       id="path54" />
    <path
       d="M41543 52713 L41543 52241 L41723 52241 L41768 52263 L41791 52286 L41813 52331 L41813 52398 L41791 52443 L41768 52466 L41723 52488 L41543 52488 "
       id="path56" />
    <path
       d="M42016 52466 L42173 52466 "
       id="path58" />
    <path
       d="M42241 52713 L42016 52713 L42016 52241 L42241 52241 "
       id="path60" />
    <path
       d="M42421 52691 L42488 52713 L42601 52713 L42646 52691 L42668 52668 L42691 52623 L42691 52578 L42668 52533 L42646 52511 L42601 52488 L42511 52466 L42466 52443 L42443 52421 L42421 52376 L42421 52331 L42443 52286 L42466 52263 L42511 52241 L42623 52241 L42691 52263 "
       id="path62" />
    <path
       d="M42893 52466 L43051 52466 "
       id="path64" />
    <path
       d="M43118 52713 L42893 52713 L42893 52241 L43118 52241 "
       id="path66" />
    <path
       d="M43253 52241 L43523 52241 "
       id="path68" />
    <path
       d="M43388 52713 L43388 52241 "
       id="path70" />
    <path
       d="M40957 44267 L40901 44239 L40873 44210 L40845 44154 L40845 43985 L40873 43929 L40901 43901 L40957 43873 L41042 43873 L41098 43901 L41126 43929 L41154 43985 L41154 44154 L41126 44210 L41098 44239 L41042 44267 L40957 44267 "
       id="path72" />
    <path
       d="M38021 35267 L37965 35239 L37937 35210 L37909 35154 L37909 34985 L37937 34929 L37965 34901 L38021 34873 L38106 34873 L38162 34901 L38190 34929 L38218 34985 L38218 35154 L38190 35210 L38162 35239 L38106 35267 L38021 35267 "
       id="path74" />
    <path
       d="M38724 34873 L38724 35267 "
       id="path76" />
    <path
       d="M38471 34873 L38471 35182 L38500 35239 L38556 35267 L38640 35267 L38696 35239 L38724 35210 "
       id="path78" />
    <path
       d="M38921 34873 L39146 34873 "
       id="path80" />
    <path
       d="M39006 34676 L39006 35182 L39034 35239 L39090 35267 L39146 35267 "
       id="path82" />
    <path
       d="M39151 39213 L39151 38741 L39263 38741 L39331 38763 L39376 38808 L39398 38853 L39421 38943 L39421 39011 L39398 39101 L39376 39146 L39331 39191 L39263 39213 L39151 39213 "
       id="path84" />
    <path
       d="M39601 38786 L39623 38763 L39668 38741 L39781 38741 L39826 38763 L39848 38786 L39871 38831 L39871 38876 L39848 38943 L39578 39213 L39871 39213 "
       id="path86" />
    <path
       d="M39151 40213 L39151 39741 L39263 39741 L39331 39763 L39376 39808 L39398 39853 L39421 39943 L39421 40011 L39398 40101 L39376 40146 L39331 40191 L39263 40213 L39151 40213 "
       id="path88" />
    <path
       d="M39578 39741 L39871 39741 L39713 39921 L39781 39921 L39826 39943 L39848 39966 L39871 40011 L39871 40123 L39848 40168 L39826 40191 L39781 40213 L39646 40213 L39601 40191 L39578 40168 "
       id="path90" />
    <path
       d="M39151 41213 L39151 40741 L39263 40741 L39331 40763 L39376 40808 L39398 40853 L39421 40943 L39421 41011 L39398 41101 L39376 41146 L39331 41191 L39263 41213 L39151 41213 "
       id="path92" />
    <path
       d="M39826 40898 L39826 41213 "
       id="path94" />
    <path
       d="M39713 40718 L39601 41056 L39893 41056 "
       id="path96" />
    <path
       d="M39151 42213 L39151 41741 L39263 41741 L39331 41763 L39376 41808 L39398 41853 L39421 41943 L39421 42011 L39398 42101 L39376 42146 L39331 42191 L39263 42213 L39151 42213 "
       id="path98" />
    <path
       d="M39848 41741 L39623 41741 L39601 41966 L39623 41943 L39668 41921 L39781 41921 L39826 41943 L39848 41966 L39871 42011 L39871 42123 L39848 42168 L39826 42191 L39781 42213 L39668 42213 L39623 42191 L39601 42168 "
       id="path100" />
    <path
       d="M39151 43213 L39151 42741 L39263 42741 L39331 42763 L39376 42808 L39398 42853 L39421 42943 L39421 43011 L39398 43101 L39376 43146 L39331 43191 L39263 43213 L39151 43213 "
       id="path102" />
    <path
       d="M39826 42741 L39736 42741 L39691 42763 L39668 42786 L39623 42853 L39601 42943 L39601 43123 L39623 43168 L39646 43191 L39691 43213 L39781 43213 L39826 43191 L39848 43168 L39871 43123 L39871 43011 L39848 42966 L39826 42943 L39781 42921 L39691 42921 L39646 42943 L39623 42966 L39601 43011 "
       id="path104" />
    <path
       d="M39308 46966 L39376 46988 L39398 47011 L39421 47056 L39421 47123 L39398 47168 L39376 47191 L39331 47213 L39151 47213 L39151 46741 L39308 46741 L39353 46763 L39376 46786 L39398 46831 L39398 46876 L39376 46921 L39353 46943 L39308 46966 L39151 46966 "
       id="path106" />
    <path
       d="M39601 46786 L39623 46763 L39668 46741 L39781 46741 L39826 46763 L39848 46786 L39871 46831 L39871 46876 L39848 46943 L39578 47213 L39871 47213 "
       id="path108" />
    <path
       d="M39308 47966 L39376 47988 L39398 48011 L39421 48056 L39421 48123 L39398 48168 L39376 48191 L39331 48213 L39151 48213 L39151 47741 L39308 47741 L39353 47763 L39376 47786 L39398 47831 L39398 47876 L39376 47921 L39353 47943 L39308 47966 L39151 47966 "
       id="path110" />
    <path
       d="M39578 47741 L39871 47741 L39713 47921 L39781 47921 L39826 47943 L39848 47966 L39871 48011 L39871 48123 L39848 48168 L39826 48191 L39781 48213 L39646 48213 L39601 48191 L39578 48168 "
       id="path112" />
    <path
       d="M39308 48966 L39376 48988 L39398 49011 L39421 49056 L39421 49123 L39398 49168 L39376 49191 L39331 49213 L39151 49213 L39151 48741 L39308 48741 L39353 48763 L39376 48786 L39398 48831 L39398 48876 L39376 48921 L39353 48943 L39308 48966 L39151 48966 "
       id="path114" />
    <path
       d="M39826 48898 L39826 49213 "
       id="path116" />
    <path
       d="M39713 48718 L39601 49056 L39893 49056 "
       id="path118" />
    <path
       d="M39308 49966 L39376 49988 L39398 50011 L39421 50056 L39421 50123 L39398 50168 L39376 50191 L39331 50213 L39151 50213 L39151 49741 L39308 49741 L39353 49763 L39376 49786 L39398 49831 L39398 49876 L39376 49921 L39353 49943 L39308 49966 L39151 49966 "
       id="path120" />
    <path
       d="M39848 49741 L39623 49741 L39601 49966 L39623 49943 L39668 49921 L39781 49921 L39826 49943 L39848 49966 L39871 50011 L39871 50123 L39848 50168 L39826 50191 L39781 50213 L39668 50213 L39623 50191 L39601 50168 "
       id="path122" />
    <path
       d="M39308 50966 L39376 50988 L39398 51011 L39421 51056 L39421 51123 L39398 51168 L39376 51191 L39331 51213 L39151 51213 L39151 50741 L39308 50741 L39353 50763 L39376 50786 L39398 50831 L39398 50876 L39376 50921 L39353 50943 L39308 50966 L39151 50966 "
       id="path124" />
    <path
       d="M39826 50741 L39736 50741 L39691 50763 L39668 50786 L39623 50853 L39601 50943 L39601 51123 L39623 51168 L39646 51191 L39691 51213 L39781 51213 L39826 51191 L39848 51168 L39871 51123 L39871 51011 L39848 50966 L39826 50943 L39781 50921 L39691 50921 L39646 50943 L39623 50966 L39601 51011 "
       id="path126" />
    <path
       d="M45410 52741 L45185 52741 L45162 52966 L45185 52943 L45230 52921 L45342 52921 L45387 52943 L45410 52966 L45432 53011 L45432 53123 L45410 53168 L45387 53191 L45342 53213 L45230 53213 L45185 53191 L45162 53168 "
       id="path128" />
    <path
       d="M45567 52741 L45724 53213 L45882 52741 "
       id="path130" />
  </g>
  <g
     style="fill:#FFFFFF; fill-opacity:0.0;  stroke:#FFFFFF; stroke-width:108.268; stroke-opacity:1;  stroke-linecap:round; stroke-linejoin:round;"
     id="g132">
    <path
       d="M45162 52078 L45387 52078 "
       id="path134" />
    <path
       d="M45117 52213 L45275 51741 L45432 52213 "
       id="path136" />
    <path
       d="M45679 51741 L45724 51741 L45769 51763 L45792 51786 L45814 51831 L45837 51921 L45837 52033 L45814 52123 L45792 52168 L45769 52191 L45724 52213 L45679 52213 L45634 52191 L45612 52168 L45589 52123 L45567 52033 L45567 51921 L45589 51831 L45612 51786 L45634 51763 L45679 51741 "
       id="path138" />
  </g>
  <g
     style="fill:#FFFFFF; fill-opacity:0.0;  stroke:#FFFFFF; stroke-width:118.11; stroke-opacity:1;  stroke-linecap:round; stroke-linejoin:round;"
     id="g140">
    <path
       d="M45162 51078 L45387 51078 "
       id="path142" />
    <path
       d="M45117 51213 L45275 50741 L45432 51213 "
       id="path144" />
    <path
       d="M45837 51213 L45567 51213 "
       id="path146" />
    <path
       d="M45702 51213 L45702 50741 L45657 50808 L45612 50853 L45567 50876 "
       id="path148" />
    <path
       d="M45162 50078 L45387 50078 "
       id="path150" />
    <path
       d="M45117 50213 L45275 49741 L45432 50213 "
       id="path152" />
    <path
       d="M45567 49786 L45589 49763 L45634 49741 L45747 49741 L45792 49763 L45814 49786 L45837 49831 L45837 49876 L45814 49943 L45544 50213 L45837 50213 "
       id="path154" />
    <path
       d="M45162 49078 L45387 49078 "
       id="path156" />
    <path
       d="M45117 49213 L45275 48741 L45432 49213 "
       id="path158" />
    <path
       d="M45544 48741 L45837 48741 L45679 48921 L45747 48921 L45792 48943 L45814 48966 L45837 49011 L45837 49123 L45814 49168 L45792 49191 L45747 49213 L45612 49213 L45567 49191 L45544 49168 "
       id="path160" />
    <path
       d="M45162 48078 L45387 48078 "
       id="path162" />
    <path
       d="M45117 48213 L45275 47741 L45432 48213 "
       id="path164" />
    <path
       d="M45792 47898 L45792 48213 "
       id="path166" />
    <path
       d="M45679 47718 L45567 48056 L45859 48056 "
       id="path168" />
    <path
       d="M45162 47078 L45387 47078 "
       id="path170" />
    <path
       d="M45117 47213 L45275 46741 L45432 47213 "
       id="path172" />
    <path
       d="M45814 46741 L45589 46741 L45567 46966 L45589 46943 L45634 46921 L45747 46921 L45792 46943 L45814 46966 L45837 47011 L45837 47123 L45814 47168 L45792 47191 L45747 47213 L45634 47213 L45589 47191 L45567 47168 "
       id="path174" />
    <path
       d="M45173 45966 L45331 45966 "
       id="path176" />
    <path
       d="M45398 46213 L45173 46213 L45173 45741 L45398 45741 "
       id="path178" />
    <path
       d="M45691 45741 L45736 45741 L45781 45763 L45803 45786 L45826 45831 L45848 45921 L45848 46033 L45826 46123 L45803 46168 L45781 46191 L45736 46213 L45691 46213 L45646 46191 L45623 46168 L45601 46123 L45578 46033 L45578 45921 L45601 45831 L45623 45786 L45646 45763 L45691 45741 "
       id="path180" />
    <path
       d="M45173 44966 L45331 44966 "
       id="path182" />
    <path
       d="M45398 45213 L45173 45213 L45173 44741 L45398 44741 "
       id="path184" />
    <path
       d="M45848 45213 L45578 45213 "
       id="path186" />
    <path
       d="M45713 45213 L45713 44741 L45668 44808 L45623 44853 L45578 44876 "
       id="path188" />
    <path
       d="M45173 43966 L45331 43966 "
       id="path190" />
    <path
       d="M45398 44213 L45173 44213 L45173 43741 L45398 43741 "
       id="path192" />
    <path
       d="M45578 43786 L45601 43763 L45646 43741 L45758 43741 L45803 43763 L45826 43786 L45848 43831 L45848 43876 L45826 43943 L45556 44213 L45848 44213 "
       id="path194" />
    <path
       d="M45421 43168 L45398 43191 L45331 43213 L45286 43213 L45218 43191 L45173 43146 L45151 43101 L45128 43011 L45128 42943 L45151 42853 L45173 42808 L45218 42763 L45286 42741 L45331 42741 L45398 42763 L45421 42786 "
       id="path196" />
    <path
       d="M45713 42741 L45758 42741 L45803 42763 L45826 42786 L45848 42831 L45871 42921 L45871 43033 L45848 43123 L45826 43168 L45803 43191 L45758 43213 L45713 43213 L45668 43191 L45646 43168 L45623 43123 L45601 43033 L45601 42921 L45623 42831 L45646 42786 L45668 42763 L45713 42741 "
       id="path198" />
    <path
       d="M45421 42168 L45398 42191 L45331 42213 L45286 42213 L45218 42191 L45173 42146 L45151 42101 L45128 42011 L45128 41943 L45151 41853 L45173 41808 L45218 41763 L45286 41741 L45331 41741 L45398 41763 L45421 41786 "
       id="path200" />
    <path
       d="M45871 42213 L45601 42213 "
       id="path202" />
    <path
       d="M45736 42213 L45736 41741 L45691 41808 L45646 41853 L45601 41876 "
       id="path204" />
    <path
       d="M45421 41168 L45398 41191 L45331 41213 L45286 41213 L45218 41191 L45173 41146 L45151 41101 L45128 41011 L45128 40943 L45151 40853 L45173 40808 L45218 40763 L45286 40741 L45331 40741 L45398 40763 L45421 40786 "
       id="path206" />
    <path
       d="M45601 40786 L45623 40763 L45668 40741 L45781 40741 L45826 40763 L45848 40786 L45871 40831 L45871 40876 L45848 40943 L45578 41213 L45871 41213 "
       id="path208" />
    <path
       d="M45421 40168 L45398 40191 L45331 40213 L45286 40213 L45218 40191 L45173 40146 L45151 40101 L45128 40011 L45128 39943 L45151 39853 L45173 39808 L45218 39763 L45286 39741 L45331 39741 L45398 39763 L45421 39786 "
       id="path210" />
    <path
       d="M45826 39741 L45736 39741 L45691 39763 L45668 39786 L45623 39853 L45601 39943 L45601 40123 L45623 40168 L45646 40191 L45691 40213 L45781 40213 L45826 40191 L45848 40168 L45871 40123 L45871 40011 L45848 39966 L45826 39943 L45781 39921 L45691 39921 L45646 39943 L45623 39966 L45601 40011 "
       id="path212" />
    <path
       d="M45151 38213 L45151 37741 L45263 37741 L45331 37763 L45376 37808 L45398 37853 L45421 37943 L45421 38011 L45398 38101 L45376 38146 L45331 38191 L45263 38213 L45151 38213 "
       id="path214" />
    <path
       d="M45713 37741 L45758 37741 L45803 37763 L45826 37786 L45848 37831 L45871 37921 L45871 38033 L45848 38123 L45826 38168 L45803 38191 L45758 38213 L45713 38213 L45668 38191 L45646 38168 L45623 38123 L45601 38033 L45601 37921 L45623 37831 L45646 37786 L45668 37763 L45713 37741 "
       id="path216" />
    <path
       d="M39308 51966 L39376 51988 L39398 52011 L39421 52056 L39421 52123 L39398 52168 L39376 52191 L39331 52213 L39151 52213 L39151 51741 L39308 51741 L39353 51763 L39376 51786 L39398 51831 L39398 51876 L39376 51921 L39353 51943 L39308 51966 L39151 51966 "
       id="path218" />
    <path
       d="M39578 51741 L39893 51741 L39691 52213 "
       id="path220" />
    <path
       d="M39308 44966 L39376 44988 L39398 45011 L39421 45056 L39421 45123 L39398 45168 L39376 45191 L39331 45213 L39151 45213 L39151 44741 L39308 44741 L39353 44763 L39376 44786 L39398 44831 L39398 44876 L39376 44921 L39353 44943 L39308 44966 L39151 44966 "
       id="path222" />
    <path
       d="M39713 44741 L39758 44741 L39803 44763 L39826 44786 L39848 44831 L39871 44921 L39871 45033 L39848 45123 L39826 45168 L39803 45191 L39758 45213 L39713 45213 L39668 45191 L39646 45168 L39623 45123 L39601 45033 L39601 44921 L39623 44831 L39646 44786 L39668 44763 L39713 44741 "
       id="path224" />
    <path
       d="M39151 44213 L39151 43741 L39263 43741 L39331 43763 L39376 43808 L39398 43853 L39421 43943 L39421 44011 L39398 44101 L39376 44146 L39331 44191 L39263 44213 L39151 44213 "
       id="path226" />
    <path
       d="M39578 43741 L39893 43741 L39691 44213 "
       id="path228" />
  </g>
  <g
     style="fill:#FFFFFF; fill-opacity:0.0;  stroke:#FFFFFF; stroke-width:98.4252; stroke-opacity:1;  stroke-linecap:round; stroke-linejoin:round;"
     id="g230">
    <path
       d="M39112 38213 L39112 37741 L39224 37741 L39292 37763 L39337 37808 L39359 37853 L39382 37943 L39382 38011 L39359 38101 L39337 38146 L39292 38191 L39224 38213 L39112 38213 "
       id="path232" />
    <path
       d="M39832 38213 L39562 38213 "
       id="path234" />
    <path
       d="M39697 38213 L39697 37741 L39652 37808 L39607 37853 L39562 37876 "
       id="path236" />
  </g>
  <g
     style="fill:#FFFFFF; fill-opacity:0.0;  stroke:#FFFFFF; stroke-width:118.11; stroke-opacity:1;  stroke-linecap:round; stroke-linejoin:round;"
     id="g238">
    <path
       d="M39410 36741 L39185 36741 L39162 36966 L39185 36943 L39230 36921 L39342 36921 L39387 36943 L39410 36966 L39432 37011 L39432 37123 L39410 37168 L39387 37191 L39342 37213 L39230 37213 L39185 37191 L39162 37168 "
       id="path240" />
    <path
       d="M39567 36741 L39724 37213 L39882 36741 "
       id="path242" />
  </g>
  <g
     id="g3680"
     transform="translate(58825.407,27248.194)">
    <g
       id="g3468"
       style="fill:#000000;fill-opacity:1;stroke:#000000;stroke-linecap:round;stroke-linejoin:round;stroke-opacity:1" />
    <g
       id="g3470"
       style="fill:#000000;fill-opacity:0;stroke:#000000;stroke-width:-0.0003937;stroke-linecap:round;stroke-linejoin:round;stroke-opacity:1" />
    <g
       id="g3472"
       style="fill:#000000;fill-opacity:1;stroke:#000000;stroke-width:0;stroke-linecap:round;stroke-linejoin:round;stroke-opacity:1">
      <circle
         id="circle3474"
         r="374.23999"
         cy="8131.8901"
         cx="9539.3701"
         sodipodi:cx="9539.3701"
         sodipodi:cy="8131.8901"
         sodipodi:rx="374.23999"
         sodipodi:ry="374.23999"
         d="m 9913.6101,8131.8901 c 0,206.6871 -167.5529,374.24 -374.24,374.24 -206.687,0 -374.24,-167.5529 -374.24,-374.24 0,-206.687 167.553,-374.24 374.24,-374.24 206.6871,0 374.24,167.553 374.24,374.24 z" />
    </g>
    <g
       id="g3476"
       style="fill:#000000;fill-opacity:1;stroke:#000000;stroke-width:39.37009811;stroke-linecap:round;stroke-linejoin:round;stroke-opacity:1" />
    <g
       id="g3478"
       style="fill:#000000;fill-opacity:1;stroke:#000000;stroke-width:0;stroke-linecap:round;stroke-linejoin:round;stroke-opacity:1">
      <circle
         id="circle3480"
         r="374.23999"
         cy="8131.8901"
         cx="8539.3701"
         sodipodi:cx="8539.3701"
         sodipodi:cy="8131.8901"
         sodipodi:rx="374.23999"
         sodipodi:ry="374.23999"
         d="m 8913.6101,8131.8901 c 0,206.6871 -167.5529,374.24 -374.24,374.24 -206.687,0 -374.24,-167.5529 -374.24,-374.24 0,-206.687 167.553,-374.24 374.24,-374.24 206.6871,0 374.24,167.553 374.24,374.24 z" />
    </g>
    <g
       id="g3482"
       style="fill:#000000;fill-opacity:1;stroke:#000000;stroke-width:39.37009811;stroke-linecap:round;stroke-linejoin:round;stroke-opacity:1" />
    <g
       id="g3484"
       style="fill:#000000;fill-opacity:1;stroke:#000000;stroke-width:0;stroke-linecap:round;stroke-linejoin:round;stroke-opacity:1">
      <polyline
         id="polyline3486"
         points="10011,5679 10011,6584 9066,6584 9066,5679 10011,5679 "
         style="fill-rule:evenodd" />
      <circle
         id="circle3488"
         r="452.75601"
         cy="5131.8901"
         cx="9539.3701"
         sodipodi:cx="9539.3701"
         sodipodi:cy="5131.8901"
         sodipodi:rx="452.75601"
         sodipodi:ry="452.75601"
         d="m 9992.1261,5131.8901 c 0,250.0503 -202.7057,452.756 -452.756,452.756 -250.0502,0 -452.756,-202.7057 -452.756,-452.756 0,-250.0502 202.7058,-452.756 452.756,-452.756 250.0503,0 452.756,202.7058 452.756,452.756 z" />
    </g>
    <g
       id="g3490"
       style="fill:#000000;fill-opacity:1;stroke:#000000;stroke-width:39.37009811;stroke-linecap:round;stroke-linejoin:round;stroke-opacity:1" />
    <g
       id="g3492"
       style="fill:#000000;fill-opacity:1;stroke:#000000;stroke-width:0;stroke-linecap:round;stroke-linejoin:round;stroke-opacity:1">
      <polyline
         id="polyline3494"
         points="10011,2679 10011,3584 9066,3584 9066,2679 10011,2679 "
         style="fill-rule:evenodd" />
      <circle
         id="circle3496"
         r="452.75601"
         cy="2131.8899"
         cx="9539.3701"
         sodipodi:cx="9539.3701"
         sodipodi:cy="2131.8899"
         sodipodi:rx="452.75601"
         sodipodi:ry="452.75601"
         d="m 9992.1261,2131.8899 c 0,250.0502 -202.7057,452.756 -452.756,452.756 -250.0502,0 -452.756,-202.7058 -452.756,-452.756 0,-250.0502 202.7058,-452.756 452.756,-452.756 250.0503,0 452.756,202.7058 452.756,452.756 z" />
    </g>
    <g
       id="g3498"
       style="fill:#000000;fill-opacity:1;stroke:#000000;stroke-width:39.37009811;stroke-linecap:round;stroke-linejoin:round;stroke-opacity:1" />
    <g
       id="g3500"
       style="fill:#000000;fill-opacity:1;stroke:#000000;stroke-width:0;stroke-linecap:round;stroke-linejoin:round;stroke-opacity:1">
      <circle
         id="circle3502"
         r="378.73999"
         cy="6131.8901"
         cx="4039.3701"
         sodipodi:cx="4039.3701"
         sodipodi:cy="6131.8901"
         sodipodi:rx="378.73999"
         sodipodi:ry="378.73999"
         d="m 4418.1101,6131.8901 c 0,209.1724 -169.5677,378.74 -378.74,378.74 -209.1723,0 -378.74,-169.5676 -378.74,-378.74 0,-209.1723 169.5677,-378.74 378.74,-378.74 209.1723,0 378.74,169.5677 378.74,378.74 z" />
    </g>
    <g
       id="g3504"
       style="fill:#000000;fill-opacity:1;stroke:#000000;stroke-width:39.37009811;stroke-linecap:round;stroke-linejoin:round;stroke-opacity:1" />
    <g
       id="g3506"
       style="fill:#000000;fill-opacity:1;stroke:#000000;stroke-width:0;stroke-linecap:round;stroke-linejoin:round;stroke-opacity:1">
      <circle
         id="circle3508"
         r="378.73999"
         cy="6131.8901"
         cx="3039.3701"
         sodipodi:cx="3039.3701"
         sodipodi:cy="6131.8901"
         sodipodi:rx="378.73999"
         sodipodi:ry="378.73999"
         d="m 3418.1101,6131.8901 c 0,209.1724 -169.5677,378.74 -378.74,378.74 -209.1723,0 -378.74,-169.5676 -378.74,-378.74 0,-209.1723 169.5677,-378.74 378.74,-378.74 209.1723,0 378.74,169.5677 378.74,378.74 z" />
    </g>
    <g
       id="g3510"
       style="fill:#000000;fill-opacity:1;stroke:#000000;stroke-width:39.37009811;stroke-linecap:round;stroke-linejoin:round;stroke-opacity:1" />
    <g
       id="g3512"
       style="fill:#000000;fill-opacity:1;stroke:#000000;stroke-width:0;stroke-linecap:round;stroke-linejoin:round;stroke-opacity:1">
      <circle
         id="circle3514"
         r="378.73999"
         cy="5344.8901"
         cx="3039.3701"
         sodipodi:cx="3039.3701"
         sodipodi:cy="5344.8901"
         sodipodi:rx="378.73999"
         sodipodi:ry="378.73999"
         d="m 3418.1101,5344.8901 c 0,209.1724 -169.5677,378.74 -378.74,378.74 -209.1723,0 -378.74,-169.5676 -378.74,-378.74 0,-209.1723 169.5677,-378.74 378.74,-378.74 209.1723,0 378.74,169.5677 378.74,378.74 z" />
    </g>
    <g
       id="g3516"
       style="fill:#000000;fill-opacity:1;stroke:#000000;stroke-width:39.37009811;stroke-linecap:round;stroke-linejoin:round;stroke-opacity:1" />
    <g
       id="g3518"
       style="fill:#000000;fill-opacity:1;stroke:#000000;stroke-width:0;stroke-linecap:round;stroke-linejoin:round;stroke-opacity:1">
      <circle
         id="circle3520"
         r="378.73999"
         cy="5344.8901"
         cx="4039.3701"
         sodipodi:cx="4039.3701"
         sodipodi:cy="5344.8901"
         sodipodi:rx="378.73999"
         sodipodi:ry="378.73999"
         d="m 4418.1101,5344.8901 c 0,209.1724 -169.5677,378.74 -378.74,378.74 -209.1723,0 -378.74,-169.5676 -378.74,-378.74 0,-209.1723 169.5677,-378.74 378.74,-378.74 209.1723,0 378.74,169.5677 378.74,378.74 z" />
    </g>
    <g
       id="g3522"
       style="fill:#000000;fill-opacity:1;stroke:#000000;stroke-width:39.37009811;stroke-linecap:round;stroke-linejoin:round;stroke-opacity:1" />
    <g
       id="g3524"
       style="fill:#000000;fill-opacity:1;stroke:#000000;stroke-width:0;stroke-linecap:round;stroke-linejoin:round;stroke-opacity:1">
      <circle
         id="circle3526"
         r="610.23999"
         cy="4281.8901"
         cx="5901.3701"
         sodipodi:cx="5901.3701"
         sodipodi:cy="4281.8901"
         sodipodi:rx="610.23999"
         sodipodi:ry="610.23999"
         d="m 6511.6101,4281.8901 c 0,337.0263 -273.2137,610.24 -610.24,610.24 -337.0262,0 -610.24,-273.2137 -610.24,-610.24 0,-337.0262 273.2138,-610.24 610.24,-610.24 337.0263,0 610.24,273.2138 610.24,610.24 z" />
    </g>
    <g
       id="g3528"
       style="fill:#000000;fill-opacity:1;stroke:#000000;stroke-width:39.37009811;stroke-linecap:round;stroke-linejoin:round;stroke-opacity:1" />
    <g
       id="g3530"
       style="fill:#000000;fill-opacity:1;stroke:#000000;stroke-width:0;stroke-linecap:round;stroke-linejoin:round;stroke-opacity:1">
      <circle
         id="circle3532"
         r="610.23999"
         cy="4281.8901"
         cx="1177.37"
         sodipodi:cx="1177.37"
         sodipodi:cy="4281.8901"
         sodipodi:rx="610.23999"
         sodipodi:ry="610.23999"
         d="m 1787.61,4281.8901 c 0,337.0263 -273.2138,610.24 -610.24,610.24 -337.02625,0 -610.24,-273.2137 -610.24,-610.24 0,-337.0262 273.21375,-610.24 610.24,-610.24 337.0262,0 610.24,273.2138 610.24,610.24 z" />
    </g>
    <g
       id="g3534"
       style="fill:#000000;fill-opacity:1;stroke:#000000;stroke-width:39.37009811;stroke-linecap:round;stroke-linejoin:round;stroke-opacity:1" />
    <g
       id="g3536"
       style="fill:#000000;fill-opacity:1;stroke:#000000;stroke-width:0;stroke-linecap:round;stroke-linejoin:round;stroke-opacity:1">
      <polyline
         id="polyline3538"
         points="3458,8610 2620,8610 2620,7653 3458,7653 3458,8610 "
         style="fill-rule:evenodd" />
    </g>
    <g
       id="g3540"
       style="fill:#000000;fill-opacity:1;stroke:#000000;stroke-width:837.47998047;stroke-linecap:round;stroke-linejoin:round;stroke-opacity:1" />
    <g
       id="g3542"
       style="fill:#000000;fill-opacity:0;stroke:#000000;stroke-width:837.47998047;stroke-linecap:round;stroke-linejoin:round;stroke-opacity:1">
      <path
         id="path3544"
         d="m 4039,8191 0,-120"
         inkscape:connector-curvature="0" />
      <path
         id="path3546"
         d="m 5039,8191 0,-120"
         inkscape:connector-curvature="0" />
    </g>
    <g
       id="g3548"
       style="fill:#000000;fill-opacity:0;stroke:#000000;stroke-width:0;stroke-linecap:round;stroke-linejoin:round;stroke-opacity:1" />
    <g
       id="g3550"
       style="fill:#000000;fill-opacity:1;stroke:#000000;stroke-width:0;stroke-linecap:round;stroke-linejoin:round;stroke-opacity:1">
      <polyline
         id="polyline3552"
         points="10518,25713 10518,26550 9560,26550 9560,25713 10518,25713 "
         style="fill-rule:evenodd" />
    </g>
    <g
       id="g3554"
       style="fill:#000000;fill-opacity:1;stroke:#000000;stroke-width:837.47998047;stroke-linecap:round;stroke-linejoin:round;stroke-opacity:1" />
    <g
       id="g3556"
       style="fill:#000000;fill-opacity:0;stroke:#000000;stroke-width:837.47998047;stroke-linecap:round;stroke-linejoin:round;stroke-opacity:1">
      <path
         id="path3558"
         d="m 10099,25131 -120,0"
         inkscape:connector-curvature="0" />
      <path
         id="path3560"
         d="m 10099,24131 -120,0"
         inkscape:connector-curvature="0" />
      <path
         id="path3562"
         d="m 10099,23131 -120,0"
         inkscape:connector-curvature="0" />
      <path
         id="path3564"
         d="m 10099,22131 -120,0"
         inkscape:connector-curvature="0" />
      <path
         id="path3566"
         d="m 10099,21131 -120,0"
         inkscape:connector-curvature="0" />
      <path
         id="path3568"
         d="m 10099,20131 -120,0"
         inkscape:connector-curvature="0" />
      <path
         id="path3570"
         d="m 10099,19131 -120,0"
         inkscape:connector-curvature="0" />
      <path
         id="path3572"
         d="m 10099,18131 -120,0"
         inkscape:connector-curvature="0" />
      <path
         id="path3574"
         d="m 10099,17131 -120,0"
         inkscape:connector-curvature="0" />
      <path
         id="path3576"
         d="m 10099,16131 -120,0"
         inkscape:connector-curvature="0" />
      <path
         id="path3578"
         d="m 10099,15131 -120,0"
         inkscape:connector-curvature="0" />
      <path
         id="path3580"
         d="m 10099,14131 -120,0"
         inkscape:connector-curvature="0" />
      <path
         id="path3582"
         d="m 10099,13131 -120,0"
         inkscape:connector-curvature="0" />
      <path
         id="path3584"
         d="m 10099,12131 -120,0"
         inkscape:connector-curvature="0" />
      <path
         id="path3586"
         d="m 10099,11131 -120,0"
         inkscape:connector-curvature="0" />
      <path
         id="path3588"
         d="m 10099,10131 -120,0"
         inkscape:connector-curvature="0" />
    </g>
    <g
       id="g3590"
       style="fill:#000000;fill-opacity:0;stroke:#000000;stroke-width:0;stroke-linecap:round;stroke-linejoin:round;stroke-opacity:1" />
    <g
       id="g3592"
       style="fill:#000000;fill-opacity:1;stroke:#000000;stroke-width:0;stroke-linecap:round;stroke-linejoin:round;stroke-opacity:1">
      <polyline
         id="polyline3594"
         points="560,10550 560,9713 1518,9713 1518,10550 560,10550 "
         style="fill-rule:evenodd" />
    </g>
    <g
       id="g3596"
       style="fill:#000000;fill-opacity:1;stroke:#000000;stroke-width:837.47998047;stroke-linecap:round;stroke-linejoin:round;stroke-opacity:1" />
    <g
       id="g3598"
       style="fill:#000000;fill-opacity:0;stroke:#000000;stroke-width:837.47998047;stroke-linecap:round;stroke-linejoin:round;stroke-opacity:1">
      <path
         id="path3600"
         d="m 979,11131 120,0"
         inkscape:connector-curvature="0" />
      <path
         id="path3602"
         d="m 979,12131 120,0"
         inkscape:connector-curvature="0" />
      <path
         id="path3604"
         d="m 979,13131 120,0"
         inkscape:connector-curvature="0" />
      <path
         id="path3606"
         d="m 979,14131 120,0"
         inkscape:connector-curvature="0" />
      <path
         id="path3608"
         d="m 979,15131 120,0"
         inkscape:connector-curvature="0" />
      <path
         id="path3610"
         d="m 979,16131 120,0"
         inkscape:connector-curvature="0" />
      <path
         id="path3612"
         d="m 979,17131 120,0"
         inkscape:connector-curvature="0" />
      <path
         id="path3614"
         d="m 979,18131 120,0"
         inkscape:connector-curvature="0" />
      <path
         id="path3616"
         d="m 979,19131 120,0"
         inkscape:connector-curvature="0" />
      <path
         id="path3618"
         d="m 979,20131 120,0"
         inkscape:connector-curvature="0" />
      <path
         id="path3620"
         d="m 979,21131 120,0"
         inkscape:connector-curvature="0" />
      <path
         id="path3622"
         d="m 979,22131 120,0"
         inkscape:connector-curvature="0" />
      <path
         id="path3624"
         d="m 979,23131 120,0"
         inkscape:connector-curvature="0" />
      <path
         id="path3626"
         d="m 979,24131 120,0"
         inkscape:connector-curvature="0" />
      <path
         id="path3628"
         d="m 979,25131 120,0"
         inkscape:connector-curvature="0" />
      <path
         id="path3630"
         d="m 979,26131 120,0"
         inkscape:connector-curvature="0" />
    </g>
    <g
       id="g3632"
       style="fill:#000000;fill-opacity:1;stroke:#000000;stroke-width:0;stroke-linecap:round;stroke-linejoin:round;stroke-opacity:1">
      <circle
         id="circle3634"
         r="353.73999"
         cy="24631.9"
         cx="4039.3701"
         sodipodi:cx="4039.3701"
         sodipodi:cy="24631.9"
         sodipodi:rx="353.73999"
         sodipodi:ry="353.73999"
         d="m 4393.1101,24631.9 c 0,195.366 -158.3748,353.74 -353.74,353.74 -195.3652,0 -353.74,-158.374 -353.74,-353.74 0,-195.365 158.3748,-353.74 353.74,-353.74 195.3652,0 353.74,158.375 353.74,353.74 z" />
    </g>
    <g
       id="g3636"
       style="fill:#000000;fill-opacity:1;stroke:#000000;stroke-width:39.37009811;stroke-linecap:round;stroke-linejoin:round;stroke-opacity:1" />
    <g
       id="g3638"
       style="fill:#000000;fill-opacity:1;stroke:#000000;stroke-width:0;stroke-linecap:round;stroke-linejoin:round;stroke-opacity:1">
      <circle
         id="circle3640"
         r="353.73999"
         cy="22631.9"
         cx="4039.3701"
         sodipodi:cx="4039.3701"
         sodipodi:cy="22631.9"
         sodipodi:rx="353.73999"
         sodipodi:ry="353.73999"
         d="m 4393.1101,22631.9 c 0,195.366 -158.3748,353.74 -353.74,353.74 -195.3652,0 -353.74,-158.374 -353.74,-353.74 0,-195.365 158.3748,-353.74 353.74,-353.74 195.3652,0 353.74,158.375 353.74,353.74 z" />
    </g>
    <g
       id="g3642"
       style="fill:#000000;fill-opacity:1;stroke:#000000;stroke-width:39.37009811;stroke-linecap:round;stroke-linejoin:round;stroke-opacity:1" />
    <g
       id="g3644"
       style="fill:#000000;fill-opacity:1;stroke:#000000;stroke-width:0;stroke-linecap:round;stroke-linejoin:round;stroke-opacity:1">
      <circle
         id="circle3646"
         r="353.73999"
         cy="24631.9"
         cx="7039.3701"
         sodipodi:cx="7039.3701"
         sodipodi:cy="24631.9"
         sodipodi:rx="353.73999"
         sodipodi:ry="353.73999"
         d="m 7393.1101,24631.9 c 0,195.366 -158.3748,353.74 -353.74,353.74 -195.3652,0 -353.74,-158.374 -353.74,-353.74 0,-195.365 158.3748,-353.74 353.74,-353.74 195.3652,0 353.74,158.375 353.74,353.74 z" />
    </g>
    <g
       id="g3648"
       style="fill:#000000;fill-opacity:1;stroke:#000000;stroke-width:39.37009811;stroke-linecap:round;stroke-linejoin:round;stroke-opacity:1" />
    <g
       id="g3650"
       style="fill:#000000;fill-opacity:1;stroke:#000000;stroke-width:0;stroke-linecap:round;stroke-linejoin:round;stroke-opacity:1">
      <circle
         id="circle3652"
         r="353.73999"
         cy="22631.9"
         cx="7039.3701"
         sodipodi:cx="7039.3701"
         sodipodi:cy="22631.9"
         sodipodi:rx="353.73999"
         sodipodi:ry="353.73999"
         d="m 7393.1101,22631.9 c 0,195.366 -158.3748,353.74 -353.74,353.74 -195.3652,0 -353.74,-158.374 -353.74,-353.74 0,-195.365 158.3748,-353.74 353.74,-353.74 195.3652,0 353.74,158.375 353.74,353.74 z" />
    </g>
    <g
       id="g3654"
       style="fill:#000000;fill-opacity:1;stroke:#000000;stroke-width:39.37009811;stroke-linecap:round;stroke-linejoin:round;stroke-opacity:1" />
    <g
       id="g3656"
       style="fill:#000000;fill-opacity:1;stroke:#000000;stroke-width:0;stroke-linecap:round;stroke-linejoin:round;stroke-opacity:1">
      <circle
         id="circle3658"
         r="374.23999"
         cy="13722.4"
         cx="6480.6899"
         sodipodi:cx="6480.6899"
         sodipodi:cy="13722.4"
         sodipodi:rx="374.23999"
         sodipodi:ry="374.23999"
         d="m 6854.9299,13722.4 c 0,206.687 -167.5529,374.24 -374.24,374.24 -206.687,0 -374.2399,-167.553 -374.2399,-374.24 0,-206.687 167.5529,-374.24 374.2399,-374.24 206.6871,0 374.24,167.553 374.24,374.24 z" />
    </g>
    <g
       id="g3660"
       style="fill:#000000;fill-opacity:1;stroke:#000000;stroke-width:39.37009811;stroke-linecap:round;stroke-linejoin:round;stroke-opacity:1" />
    <g
       id="g3662"
       style="fill:#000000;fill-opacity:1;stroke:#000000;stroke-width:0;stroke-linecap:round;stroke-linejoin:round;stroke-opacity:1">
      <circle
         id="circle3664"
         r="374.23999"
         cy="13722.4"
         cx="4558.6899"
         sodipodi:cx="4558.6899"
         sodipodi:cy="13722.4"
         sodipodi:rx="374.23999"
         sodipodi:ry="374.23999"
         d="m 4932.9299,13722.4 c 0,206.687 -167.5529,374.24 -374.24,374.24 -206.687,0 -374.2399,-167.553 -374.2399,-374.24 0,-206.687 167.5529,-374.24 374.2399,-374.24 206.6871,0 374.24,167.553 374.24,374.24 z" />
    </g>
    <g
       id="g3666"
       style="fill:#000000;fill-opacity:1;stroke:#000000;stroke-width:39.37009811;stroke-linecap:round;stroke-linejoin:round;stroke-opacity:1" />
    <g
       id="g3668"
       style="fill:#000000;fill-opacity:1;stroke:#000000;stroke-width:0;stroke-linecap:round;stroke-linejoin:round;stroke-opacity:1">
      <circle
         id="circle3670"
         r="472.23999"
         cy="27631.9"
         cx="10039.4"
         sodipodi:cx="10039.4"
         sodipodi:cy="27631.9"
         sodipodi:rx="472.23999"
         sodipodi:ry="472.23999"
         d="m 10511.64,27631.9 c 0,260.811 -211.429,472.24 -472.24,472.24 -260.8106,0 -472.2396,-211.429 -472.2396,-472.24 0,-260.811 211.429,-472.24 472.2396,-472.24 260.811,0 472.24,211.429 472.24,472.24 z" />
    </g>
    <g
       id="g3672"
       style="fill:#000000;fill-opacity:1;stroke:#000000;stroke-width:39.37009811;stroke-linecap:round;stroke-linejoin:round;stroke-opacity:1" />
  </g>
  <g
     id="g4946"
     transform="translate(78634.729,26888.024)">
    <g
       id="g4614"
       style="fill:#000000;fill-opacity:1;stroke:#000000;stroke-linecap:round;stroke-linejoin:round;stroke-opacity:1" />
    <g
       id="g4616"
       style="fill:#000000;fill-opacity:0;stroke:#000000;stroke-width:-0.0003937;stroke-linecap:round;stroke-linejoin:round;stroke-opacity:1" />
    <g
       id="g4618"
       style="fill:#000000;fill-opacity:0;stroke:#000000;stroke-width:0;stroke-linecap:round;stroke-linejoin:round;stroke-opacity:1" />
    <g
       id="g4620"
       style="fill:#000000;fill-opacity:1;stroke:#000000;stroke-width:0;stroke-linecap:round;stroke-linejoin:round;stroke-opacity:1">
      <polyline
         id="polyline4622"
         points="8405,26561 8405,27702 7854,27702 7854,26561 8405,26561 "
         style="fill-rule:evenodd" />
      <polyline
         id="polyline4624"
         points="7224,26561 7224,27702 6673,27702 6673,26561 7224,26561 "
         style="fill-rule:evenodd" />
      <polyline
         id="polyline4626"
         points="5830,9753 6972,9753 6972,10305 5830,10305 5830,9753 "
         style="fill-rule:evenodd" />
      <polyline
         id="polyline4628"
         points="5830,10935 6972,10935 6972,11486 5830,11486 5830,10935 "
         style="fill-rule:evenodd" />
      <polyline
         id="polyline4630"
         points="3972,9753 5114,9753 5114,10305 3972,10305 3972,9753 "
         style="fill-rule:evenodd" />
      <polyline
         id="polyline4632"
         points="3972,10935 5114,10935 5114,11486 3972,11486 3972,10935 "
         style="fill-rule:evenodd" />
      <circle
         id="circle4634"
         r="374.23999"
         cy="8131.8901"
         cx="9539.3701"
         sodipodi:cx="9539.3701"
         sodipodi:cy="8131.8901"
         sodipodi:rx="374.23999"
         sodipodi:ry="374.23999"
         d="m 9913.6101,8131.8901 c 0,206.6871 -167.5529,374.24 -374.24,374.24 -206.687,0 -374.24,-167.5529 -374.24,-374.24 0,-206.687 167.553,-374.24 374.24,-374.24 206.6871,0 374.24,167.553 374.24,374.24 z" />
    </g>
    <g
       id="g4636"
       style="fill:#000000;fill-opacity:1;stroke:#000000;stroke-width:39.37009811;stroke-linecap:round;stroke-linejoin:round;stroke-opacity:1" />
    <g
       id="g4638"
       style="fill:#000000;fill-opacity:1;stroke:#000000;stroke-width:0;stroke-linecap:round;stroke-linejoin:round;stroke-opacity:1">
      <circle
         id="circle4640"
         r="374.23999"
         cy="8131.8901"
         cx="8539.3701"
         sodipodi:cx="8539.3701"
         sodipodi:cy="8131.8901"
         sodipodi:rx="374.23999"
         sodipodi:ry="374.23999"
         d="m 8913.6101,8131.8901 c 0,206.6871 -167.5529,374.24 -374.24,374.24 -206.687,0 -374.24,-167.5529 -374.24,-374.24 0,-206.687 167.553,-374.24 374.24,-374.24 206.6871,0 374.24,167.553 374.24,374.24 z" />
    </g>
    <g
       id="g4642"
       style="fill:#000000;fill-opacity:1;stroke:#000000;stroke-width:39.37009811;stroke-linecap:round;stroke-linejoin:round;stroke-opacity:1" />
    <g
       id="g4644"
       style="fill:#000000;fill-opacity:1;stroke:#000000;stroke-width:0;stroke-linecap:round;stroke-linejoin:round;stroke-opacity:1">
      <polyline
         id="polyline4646"
         points="4405,26561 4405,27702 3854,27702 3854,26561 4405,26561 "
         style="fill-rule:evenodd" />
      <polyline
         id="polyline4648"
         points="3224,26561 3224,27702 2673,27702 2673,26561 3224,26561 "
         style="fill-rule:evenodd" />
      <polyline
         id="polyline4650"
         points="10011,5679 10011,6584 9066,6584 9066,5679 10011,5679 "
         style="fill-rule:evenodd" />
      <circle
         id="circle4652"
         r="452.75601"
         cy="5131.8901"
         cx="9539.3701"
         sodipodi:cx="9539.3701"
         sodipodi:cy="5131.8901"
         sodipodi:rx="452.75601"
         sodipodi:ry="452.75601"
         d="m 9992.1261,5131.8901 c 0,250.0503 -202.7057,452.756 -452.756,452.756 -250.0502,0 -452.756,-202.7057 -452.756,-452.756 0,-250.0502 202.7058,-452.756 452.756,-452.756 250.0503,0 452.756,202.7058 452.756,452.756 z" />
    </g>
    <g
       id="g4654"
       style="fill:#000000;fill-opacity:1;stroke:#000000;stroke-width:39.37009811;stroke-linecap:round;stroke-linejoin:round;stroke-opacity:1" />
    <g
       id="g4656"
       style="fill:#000000;fill-opacity:1;stroke:#000000;stroke-width:0;stroke-linecap:round;stroke-linejoin:round;stroke-opacity:1">
      <polyline
         id="polyline4658"
         points="10011,2679 10011,3584 9066,3584 9066,2679 10011,2679 "
         style="fill-rule:evenodd" />
      <circle
         id="circle4660"
         r="452.75601"
         cy="2131.8899"
         cx="9539.3701"
         sodipodi:cx="9539.3701"
         sodipodi:cy="2131.8899"
         sodipodi:rx="452.75601"
         sodipodi:ry="452.75601"
         d="m 9992.1261,2131.8899 c 0,250.0502 -202.7057,452.756 -452.756,452.756 -250.0502,0 -452.756,-202.7058 -452.756,-452.756 0,-250.0502 202.7058,-452.756 452.756,-452.756 250.0503,0 452.756,202.7058 452.756,452.756 z" />
    </g>
    <g
       id="g4662"
       style="fill:#000000;fill-opacity:1;stroke:#000000;stroke-width:39.37009811;stroke-linecap:round;stroke-linejoin:round;stroke-opacity:1" />
    <g
       id="g4664"
       style="fill:#000000;fill-opacity:1;stroke:#000000;stroke-width:0;stroke-linecap:round;stroke-linejoin:round;stroke-opacity:1">
      <circle
         id="circle4666"
         r="378.73999"
         cy="6131.8901"
         cx="4039.3701"
         sodipodi:cx="4039.3701"
         sodipodi:cy="6131.8901"
         sodipodi:rx="378.73999"
         sodipodi:ry="378.73999"
         d="m 4418.1101,6131.8901 c 0,209.1724 -169.5677,378.74 -378.74,378.74 -209.1723,0 -378.74,-169.5676 -378.74,-378.74 0,-209.1723 169.5677,-378.74 378.74,-378.74 209.1723,0 378.74,169.5677 378.74,378.74 z" />
    </g>
    <g
       id="g4668"
       style="fill:#000000;fill-opacity:1;stroke:#000000;stroke-width:39.37009811;stroke-linecap:round;stroke-linejoin:round;stroke-opacity:1" />
    <g
       id="g4670"
       style="fill:#000000;fill-opacity:1;stroke:#000000;stroke-width:0;stroke-linecap:round;stroke-linejoin:round;stroke-opacity:1">
      <circle
         id="circle4672"
         r="378.73999"
         cy="6131.8901"
         cx="3039.3701"
         sodipodi:cx="3039.3701"
         sodipodi:cy="6131.8901"
         sodipodi:rx="378.73999"
         sodipodi:ry="378.73999"
         d="m 3418.1101,6131.8901 c 0,209.1724 -169.5677,378.74 -378.74,378.74 -209.1723,0 -378.74,-169.5676 -378.74,-378.74 0,-209.1723 169.5677,-378.74 378.74,-378.74 209.1723,0 378.74,169.5677 378.74,378.74 z" />
    </g>
    <g
       id="g4674"
       style="fill:#000000;fill-opacity:1;stroke:#000000;stroke-width:39.37009811;stroke-linecap:round;stroke-linejoin:round;stroke-opacity:1" />
    <g
       id="g4676"
       style="fill:#000000;fill-opacity:1;stroke:#000000;stroke-width:0;stroke-linecap:round;stroke-linejoin:round;stroke-opacity:1">
      <circle
         id="circle4678"
         r="378.73999"
         cy="5344.8901"
         cx="3039.3701"
         sodipodi:cx="3039.3701"
         sodipodi:cy="5344.8901"
         sodipodi:rx="378.73999"
         sodipodi:ry="378.73999"
         d="m 3418.1101,5344.8901 c 0,209.1724 -169.5677,378.74 -378.74,378.74 -209.1723,0 -378.74,-169.5676 -378.74,-378.74 0,-209.1723 169.5677,-378.74 378.74,-378.74 209.1723,0 378.74,169.5677 378.74,378.74 z" />
    </g>
    <g
       id="g4680"
       style="fill:#000000;fill-opacity:1;stroke:#000000;stroke-width:39.37009811;stroke-linecap:round;stroke-linejoin:round;stroke-opacity:1" />
    <g
       id="g4682"
       style="fill:#000000;fill-opacity:1;stroke:#000000;stroke-width:0;stroke-linecap:round;stroke-linejoin:round;stroke-opacity:1">
      <circle
         id="circle4684"
         r="378.73999"
         cy="5344.8901"
         cx="4039.3701"
         sodipodi:cx="4039.3701"
         sodipodi:cy="5344.8901"
         sodipodi:rx="378.73999"
         sodipodi:ry="378.73999"
         d="m 4418.1101,5344.8901 c 0,209.1724 -169.5677,378.74 -378.74,378.74 -209.1723,0 -378.74,-169.5676 -378.74,-378.74 0,-209.1723 169.5677,-378.74 378.74,-378.74 209.1723,0 378.74,169.5677 378.74,378.74 z" />
    </g>
    <g
       id="g4686"
       style="fill:#000000;fill-opacity:1;stroke:#000000;stroke-width:39.37009811;stroke-linecap:round;stroke-linejoin:round;stroke-opacity:1" />
    <g
       id="g4688"
       style="fill:#000000;fill-opacity:1;stroke:#000000;stroke-width:0;stroke-linecap:round;stroke-linejoin:round;stroke-opacity:1">
      <circle
         id="circle4690"
         r="610.23999"
         cy="4281.8901"
         cx="5901.3701"
         sodipodi:cx="5901.3701"
         sodipodi:cy="4281.8901"
         sodipodi:rx="610.23999"
         sodipodi:ry="610.23999"
         d="m 6511.6101,4281.8901 c 0,337.0263 -273.2137,610.24 -610.24,610.24 -337.0262,0 -610.24,-273.2137 -610.24,-610.24 0,-337.0262 273.2138,-610.24 610.24,-610.24 337.0263,0 610.24,273.2138 610.24,610.24 z" />
    </g>
    <g
       id="g4692"
       style="fill:#000000;fill-opacity:1;stroke:#000000;stroke-width:39.37009811;stroke-linecap:round;stroke-linejoin:round;stroke-opacity:1" />
    <g
       id="g4694"
       style="fill:#000000;fill-opacity:1;stroke:#000000;stroke-width:0;stroke-linecap:round;stroke-linejoin:round;stroke-opacity:1">
      <circle
         id="circle4696"
         r="610.23999"
         cy="4281.8901"
         cx="1177.37"
         sodipodi:cx="1177.37"
         sodipodi:cy="4281.8901"
         sodipodi:rx="610.23999"
         sodipodi:ry="610.23999"
         d="m 1787.61,4281.8901 c 0,337.0263 -273.2138,610.24 -610.24,610.24 -337.02625,0 -610.24,-273.2137 -610.24,-610.24 0,-337.0262 273.21375,-610.24 610.24,-610.24 337.0262,0 610.24,273.2138 610.24,610.24 z" />
    </g>
    <g
       id="g4698"
       style="fill:#000000;fill-opacity:1;stroke:#000000;stroke-width:39.37009811;stroke-linecap:round;stroke-linejoin:round;stroke-opacity:1" />
    <g
       id="g4700"
       style="fill:#000000;fill-opacity:1;stroke:#000000;stroke-width:0;stroke-linecap:round;stroke-linejoin:round;stroke-opacity:1">
      <polyline
         id="polyline4702"
         points="3458,8610 2620,8610 2620,7653 3458,7653 3458,8610 "
         style="fill-rule:evenodd" />
    </g>
    <g
       id="g4704"
       style="fill:#000000;fill-opacity:1;stroke:#000000;stroke-width:837.47998047;stroke-linecap:round;stroke-linejoin:round;stroke-opacity:1" />
    <g
       id="g4706"
       style="fill:#000000;fill-opacity:0;stroke:#000000;stroke-width:837.47998047;stroke-linecap:round;stroke-linejoin:round;stroke-opacity:1">
      <path
         id="path4708"
         d="m 4039,8191 0,-120"
         inkscape:connector-curvature="0" />
      <path
         id="path4710"
         d="m 5039,8191 0,-120"
         inkscape:connector-curvature="0" />
    </g>
    <g
       id="g4712"
       style="fill:#000000;fill-opacity:0;stroke:#000000;stroke-width:0;stroke-linecap:round;stroke-linejoin:round;stroke-opacity:1" />
    <g
       id="g4714"
       style="fill:#000000;fill-opacity:1;stroke:#000000;stroke-width:0;stroke-linecap:round;stroke-linejoin:round;stroke-opacity:1">
      <polyline
         id="polyline4716"
         points="10518,25713 10518,26550 9560,26550 9560,25713 10518,25713 "
         style="fill-rule:evenodd" />
    </g>
    <g
       id="g4718"
       style="fill:#000000;fill-opacity:1;stroke:#000000;stroke-width:837.47998047;stroke-linecap:round;stroke-linejoin:round;stroke-opacity:1" />
    <g
       id="g4720"
       style="fill:#000000;fill-opacity:0;stroke:#000000;stroke-width:837.47998047;stroke-linecap:round;stroke-linejoin:round;stroke-opacity:1">
      <path
         id="path4722"
         d="m 10099,25131 -120,0"
         inkscape:connector-curvature="0" />
      <path
         id="path4724"
         d="m 10099,24131 -120,0"
         inkscape:connector-curvature="0" />
      <path
         id="path4726"
         d="m 10099,23131 -120,0"
         inkscape:connector-curvature="0" />
      <path
         id="path4728"
         d="m 10099,22131 -120,0"
         inkscape:connector-curvature="0" />
      <path
         id="path4730"
         d="m 10099,21131 -120,0"
         inkscape:connector-curvature="0" />
      <path
         id="path4732"
         d="m 10099,20131 -120,0"
         inkscape:connector-curvature="0" />
      <path
         id="path4734"
         d="m 10099,19131 -120,0"
         inkscape:connector-curvature="0" />
      <path
         id="path4736"
         d="m 10099,18131 -120,0"
         inkscape:connector-curvature="0" />
      <path
         id="path4738"
         d="m 10099,17131 -120,0"
         inkscape:connector-curvature="0" />
      <path
         id="path4740"
         d="m 10099,16131 -120,0"
         inkscape:connector-curvature="0" />
      <path
         id="path4742"
         d="m 10099,15131 -120,0"
         inkscape:connector-curvature="0" />
      <path
         id="path4744"
         d="m 10099,14131 -120,0"
         inkscape:connector-curvature="0" />
      <path
         id="path4746"
         d="m 10099,13131 -120,0"
         inkscape:connector-curvature="0" />
      <path
         id="path4748"
         d="m 10099,12131 -120,0"
         inkscape:connector-curvature="0" />
      <path
         id="path4750"
         d="m 10099,11131 -120,0"
         inkscape:connector-curvature="0" />
      <path
         id="path4752"
         d="m 10099,10131 -120,0"
         inkscape:connector-curvature="0" />
    </g>
    <g
       id="g4754"
       style="fill:#000000;fill-opacity:0;stroke:#000000;stroke-width:0;stroke-linecap:round;stroke-linejoin:round;stroke-opacity:1" />
    <g
       id="g4756"
       style="fill:#000000;fill-opacity:1;stroke:#000000;stroke-width:0;stroke-linecap:round;stroke-linejoin:round;stroke-opacity:1">
      <polyline
         id="polyline4758"
         points="560,10550 560,9713 1518,9713 1518,10550 560,10550 "
         style="fill-rule:evenodd" />
    </g>
    <g
       id="g4760"
       style="fill:#000000;fill-opacity:1;stroke:#000000;stroke-width:837.47998047;stroke-linecap:round;stroke-linejoin:round;stroke-opacity:1" />
    <g
       id="g4762"
       style="fill:#000000;fill-opacity:0;stroke:#000000;stroke-width:837.47998047;stroke-linecap:round;stroke-linejoin:round;stroke-opacity:1">
      <path
         id="path4764"
         d="m 979,11131 120,0"
         inkscape:connector-curvature="0" />
      <path
         id="path4766"
         d="m 979,12131 120,0"
         inkscape:connector-curvature="0" />
      <path
         id="path4768"
         d="m 979,13131 120,0"
         inkscape:connector-curvature="0" />
      <path
         id="path4770"
         d="m 979,14131 120,0"
         inkscape:connector-curvature="0" />
      <path
         id="path4772"
         d="m 979,15131 120,0"
         inkscape:connector-curvature="0" />
      <path
         id="path4774"
         d="m 979,16131 120,0"
         inkscape:connector-curvature="0" />
      <path
         id="path4776"
         d="m 979,17131 120,0"
         inkscape:connector-curvature="0" />
      <path
         id="path4778"
         d="m 979,18131 120,0"
         inkscape:connector-curvature="0" />
      <path
         id="path4780"
         d="m 979,19131 120,0"
         inkscape:connector-curvature="0" />
      <path
         id="path4782"
         d="m 979,20131 120,0"
         inkscape:connector-curvature="0" />
      <path
         id="path4784"
         d="m 979,21131 120,0"
         inkscape:connector-curvature="0" />
      <path
         id="path4786"
         d="m 979,22131 120,0"
         inkscape:connector-curvature="0" />
      <path
         id="path4788"
         d="m 979,23131 120,0"
         inkscape:connector-curvature="0" />
      <path
         id="path4790"
         d="m 979,24131 120,0"
         inkscape:connector-curvature="0" />
      <path
         id="path4792"
         d="m 979,25131 120,0"
         inkscape:connector-curvature="0" />
      <path
         id="path4794"
         d="m 979,26131 120,0"
         inkscape:connector-curvature="0" />
    </g>
    <g
       id="g4796"
       style="fill:#000000;fill-opacity:0;stroke:#000000;stroke-width:0;stroke-linecap:round;stroke-linejoin:round;stroke-opacity:1" />
    <g
       id="g4798"
       style="fill:#000000;fill-opacity:1;stroke:#000000;stroke-width:0;stroke-linecap:round;stroke-linejoin:round;stroke-opacity:1">
      <polyline
         id="polyline4800"
         points="4712,27545 4712,26718 5224,26718 5224,27545 4712,27545 "
         style="fill-rule:evenodd" />
      <polyline
         id="polyline4802"
         points="5854,27545 5854,26718 6366,26718 6366,27545 5854,27545 "
         style="fill-rule:evenodd" />
      <polyline
         id="polyline4804"
         points="7952,6458 7125,6458 7125,5946 7952,5946 7952,6458 "
         style="fill-rule:evenodd" />
      <polyline
         id="polyline4806"
         points="7952,5316 7125,5316 7125,4805 7952,4805 7952,5316 "
         style="fill-rule:evenodd" />
      <polyline
         id="polyline4808"
         points="7952,3458 7125,3458 7125,2946 7952,2946 7952,3458 "
         style="fill-rule:evenodd" />
      <polyline
         id="polyline4810"
         points="7952,2316 7125,2316 7125,1805 7952,1805 7952,2316 "
         style="fill-rule:evenodd" />
      <circle
         id="circle4812"
         r="353.73999"
         cy="24631.9"
         cx="4039.3701"
         sodipodi:cx="4039.3701"
         sodipodi:cy="24631.9"
         sodipodi:rx="353.73999"
         sodipodi:ry="353.73999"
         d="m 4393.1101,24631.9 c 0,195.366 -158.3748,353.74 -353.74,353.74 -195.3652,0 -353.74,-158.374 -353.74,-353.74 0,-195.365 158.3748,-353.74 353.74,-353.74 195.3652,0 353.74,158.375 353.74,353.74 z" />
    </g>
    <g
       id="g4814"
       style="fill:#000000;fill-opacity:1;stroke:#000000;stroke-width:39.37009811;stroke-linecap:round;stroke-linejoin:round;stroke-opacity:1" />
    <g
       id="g4816"
       style="fill:#000000;fill-opacity:1;stroke:#000000;stroke-width:0;stroke-linecap:round;stroke-linejoin:round;stroke-opacity:1">
      <circle
         id="circle4818"
         r="353.73999"
         cy="22631.9"
         cx="4039.3701"
         sodipodi:cx="4039.3701"
         sodipodi:cy="22631.9"
         sodipodi:rx="353.73999"
         sodipodi:ry="353.73999"
         d="m 4393.1101,22631.9 c 0,195.366 -158.3748,353.74 -353.74,353.74 -195.3652,0 -353.74,-158.374 -353.74,-353.74 0,-195.365 158.3748,-353.74 353.74,-353.74 195.3652,0 353.74,158.375 353.74,353.74 z" />
    </g>
    <g
       id="g4820"
       style="fill:#000000;fill-opacity:1;stroke:#000000;stroke-width:39.37009811;stroke-linecap:round;stroke-linejoin:round;stroke-opacity:1" />
    <g
       id="g4822"
       style="fill:#000000;fill-opacity:1;stroke:#000000;stroke-width:0;stroke-linecap:round;stroke-linejoin:round;stroke-opacity:1">
      <circle
         id="circle4824"
         r="353.73999"
         cy="24631.9"
         cx="7039.3701"
         sodipodi:cx="7039.3701"
         sodipodi:cy="24631.9"
         sodipodi:rx="353.73999"
         sodipodi:ry="353.73999"
         d="m 7393.1101,24631.9 c 0,195.366 -158.3748,353.74 -353.74,353.74 -195.3652,0 -353.74,-158.374 -353.74,-353.74 0,-195.365 158.3748,-353.74 353.74,-353.74 195.3652,0 353.74,158.375 353.74,353.74 z" />
    </g>
    <g
       id="g4826"
       style="fill:#000000;fill-opacity:1;stroke:#000000;stroke-width:39.37009811;stroke-linecap:round;stroke-linejoin:round;stroke-opacity:1" />
    <g
       id="g4828"
       style="fill:#000000;fill-opacity:1;stroke:#000000;stroke-width:0;stroke-linecap:round;stroke-linejoin:round;stroke-opacity:1">
      <circle
         id="circle4830"
         r="353.73999"
         cy="22631.9"
         cx="7039.3701"
         sodipodi:cx="7039.3701"
         sodipodi:cy="22631.9"
         sodipodi:rx="353.73999"
         sodipodi:ry="353.73999"
         d="m 7393.1101,22631.9 c 0,195.366 -158.3748,353.74 -353.74,353.74 -195.3652,0 -353.74,-158.374 -353.74,-353.74 0,-195.365 158.3748,-353.74 353.74,-353.74 195.3652,0 353.74,158.375 353.74,353.74 z" />
    </g>
    <g
       id="g4832"
       style="fill:#000000;fill-opacity:1;stroke:#000000;stroke-width:39.37009811;stroke-linecap:round;stroke-linejoin:round;stroke-opacity:1" />
    <g
       id="g4834"
       style="fill:#000000;fill-opacity:1;stroke:#000000;stroke-width:0;stroke-linecap:round;stroke-linejoin:round;stroke-opacity:1">
      <polyline
         id="polyline4836"
         points="2921,17244 2921,16870 3669,16870 3669,17244 2921,17244 "
         style="fill-rule:evenodd" />
      <polyline
         id="polyline4838"
         points="2921,17559 2921,17185 3669,17185 3669,17559 2921,17559 "
         style="fill-rule:evenodd" />
      <polyline
         id="polyline4840"
         points="2921,17874 2921,17500 3669,17500 3669,17874 2921,17874 "
         style="fill-rule:evenodd" />
      <polyline
         id="polyline4842"
         points="2921,18188 2921,17814 3669,17814 3669,18188 2921,18188 "
         style="fill-rule:evenodd" />
      <polyline
         id="polyline4844"
         points="2921,18503 2921,18129 3669,18129 3669,18503 2921,18503 "
         style="fill-rule:evenodd" />
      <polyline
         id="polyline4846"
         points="2921,18818 2921,18444 3669,18444 3669,18818 2921,18818 "
         style="fill-rule:evenodd" />
      <polyline
         id="polyline4848"
         points="2921,19133 2921,18759 3669,18759 3669,19133 2921,19133 "
         style="fill-rule:evenodd" />
      <polyline
         id="polyline4850"
         points="2921,19448 2921,19074 3669,19074 3669,19448 2921,19448 "
         style="fill-rule:evenodd" />
      <polyline
         id="polyline4852"
         points="2921,19763 2921,19389 3669,19389 3669,19763 2921,19763 "
         style="fill-rule:evenodd" />
      <polyline
         id="polyline4854"
         points="2921,20078 2921,19704 3669,19704 3669,20078 2921,20078 "
         style="fill-rule:evenodd" />
      <polyline
         id="polyline4856"
         points="2921,20393 2921,20019 3669,20019 3669,20393 2921,20393 "
         style="fill-rule:evenodd" />
      <polyline
         id="polyline4858"
         points="4151,21250 3777,21250 3777,20501 4151,20501 4151,21250 "
         style="fill-rule:evenodd" />
      <polyline
         id="polyline4860"
         points="4466,21250 4092,21250 4092,20501 4466,20501 4466,21250 "
         style="fill-rule:evenodd" />
      <polyline
         id="polyline4862"
         points="4781,21250 4407,21250 4407,20501 4781,20501 4781,21250 "
         style="fill-rule:evenodd" />
      <polyline
         id="polyline4864"
         points="5096,21250 4722,21250 4722,20501 5096,20501 5096,21250 "
         style="fill-rule:evenodd" />
      <polyline
         id="polyline4866"
         points="5411,21250 5037,21250 5037,20501 5411,20501 5411,21250 "
         style="fill-rule:evenodd" />
      <polyline
         id="polyline4868"
         points="5726,21250 5352,21250 5352,20501 5726,20501 5726,21250 "
         style="fill-rule:evenodd" />
      <polyline
         id="polyline4870"
         points="6041,21250 5667,21250 5667,20501 6041,20501 6041,21250 "
         style="fill-rule:evenodd" />
      <polyline
         id="polyline4872"
         points="6356,21250 5982,21250 5982,20501 6356,20501 6356,21250 "
         style="fill-rule:evenodd" />
      <polyline
         id="polyline4874"
         points="6671,21250 6297,21250 6297,20501 6671,20501 6671,21250 "
         style="fill-rule:evenodd" />
      <polyline
         id="polyline4876"
         points="6986,21250 6612,21250 6612,20501 6986,20501 6986,21250 "
         style="fill-rule:evenodd" />
      <polyline
         id="polyline4878"
         points="7301,21250 6927,21250 6927,20501 7301,20501 7301,21250 "
         style="fill-rule:evenodd" />
      <polyline
         id="polyline4880"
         points="7409,20393 7409,20019 8157,20019 8157,20393 7409,20393 "
         style="fill-rule:evenodd" />
      <polyline
         id="polyline4882"
         points="7409,20078 7409,19704 8157,19704 8157,20078 7409,20078 "
         style="fill-rule:evenodd" />
      <polyline
         id="polyline4884"
         points="7409,19763 7409,19389 8157,19389 8157,19763 7409,19763 "
         style="fill-rule:evenodd" />
      <polyline
         id="polyline4886"
         points="7409,19448 7409,19074 8157,19074 8157,19448 7409,19448 "
         style="fill-rule:evenodd" />
      <polyline
         id="polyline4888"
         points="7409,19133 7409,18759 8157,18759 8157,19133 7409,19133 "
         style="fill-rule:evenodd" />
      <polyline
         id="polyline4890"
         points="7409,18818 7409,18444 8157,18444 8157,18818 7409,18818 "
         style="fill-rule:evenodd" />
      <polyline
         id="polyline4892"
         points="7409,18503 7409,18129 8157,18129 8157,18503 7409,18503 "
         style="fill-rule:evenodd" />
      <polyline
         id="polyline4894"
         points="7409,18188 7409,17814 8157,17814 8157,18188 7409,18188 "
         style="fill-rule:evenodd" />
      <polyline
         id="polyline4896"
         points="7409,17874 7409,17500 8157,17500 8157,17874 7409,17874 "
         style="fill-rule:evenodd" />
      <polyline
         id="polyline4898"
         points="7409,17559 7409,17185 8157,17185 8157,17559 7409,17559 "
         style="fill-rule:evenodd" />
      <polyline
         id="polyline4900"
         points="7409,17244 7409,16870 8157,16870 8157,17244 7409,17244 "
         style="fill-rule:evenodd" />
      <polyline
         id="polyline4902"
         points="7301,16761 6927,16761 6927,16013 7301,16013 7301,16761 "
         style="fill-rule:evenodd" />
      <polyline
         id="polyline4904"
         points="6986,16761 6612,16761 6612,16013 6986,16013 6986,16761 "
         style="fill-rule:evenodd" />
      <polyline
         id="polyline4906"
         points="6671,16761 6297,16761 6297,16013 6671,16013 6671,16761 "
         style="fill-rule:evenodd" />
      <polyline
         id="polyline4908"
         points="6356,16761 5982,16761 5982,16013 6356,16013 6356,16761 "
         style="fill-rule:evenodd" />
      <polyline
         id="polyline4910"
         points="6041,16761 5667,16761 5667,16013 6041,16013 6041,16761 "
         style="fill-rule:evenodd" />
      <polyline
         id="polyline4912"
         points="5726,16761 5352,16761 5352,16013 5726,16013 5726,16761 "
         style="fill-rule:evenodd" />
      <polyline
         id="polyline4914"
         points="5411,16761 5037,16761 5037,16013 5411,16013 5411,16761 "
         style="fill-rule:evenodd" />
      <polyline
         id="polyline4916"
         points="5096,16761 4722,16761 4722,16013 5096,16013 5096,16761 "
         style="fill-rule:evenodd" />
      <polyline
         id="polyline4918"
         points="4781,16761 4407,16761 4407,16013 4781,16013 4781,16761 "
         style="fill-rule:evenodd" />
      <polyline
         id="polyline4920"
         points="4466,16761 4092,16761 4092,16013 4466,16013 4466,16761 "
         style="fill-rule:evenodd" />
      <polyline
         id="polyline4922"
         points="4151,16761 3777,16761 3777,16013 4151,16013 4151,16761 "
         style="fill-rule:evenodd" />
      <circle
         id="circle4924"
         r="374.23999"
         cy="13722.4"
         cx="6480.6899"
         sodipodi:cx="6480.6899"
         sodipodi:cy="13722.4"
         sodipodi:rx="374.23999"
         sodipodi:ry="374.23999"
         d="m 6854.9299,13722.4 c 0,206.687 -167.5529,374.24 -374.24,374.24 -206.687,0 -374.2399,-167.553 -374.2399,-374.24 0,-206.687 167.5529,-374.24 374.2399,-374.24 206.6871,0 374.24,167.553 374.24,374.24 z" />
    </g>
    <g
       id="g4926"
       style="fill:#000000;fill-opacity:1;stroke:#000000;stroke-width:39.37009811;stroke-linecap:round;stroke-linejoin:round;stroke-opacity:1" />
    <g
       id="g4928"
       style="fill:#000000;fill-opacity:1;stroke:#000000;stroke-width:0;stroke-linecap:round;stroke-linejoin:round;stroke-opacity:1">
      <circle
         id="circle4930"
         r="374.23999"
         cy="13722.4"
         cx="4558.6899"
         sodipodi:cx="4558.6899"
         sodipodi:cy="13722.4"
         sodipodi:rx="374.23999"
         sodipodi:ry="374.23999"
         d="m 4932.9299,13722.4 c 0,206.687 -167.5529,374.24 -374.24,374.24 -206.687,0 -374.2399,-167.553 -374.2399,-374.24 0,-206.687 167.5529,-374.24 374.2399,-374.24 206.6871,0 374.24,167.553 374.24,374.24 z" />
    </g>
    <g
       id="g4932"
       style="fill:#000000;fill-opacity:1;stroke:#000000;stroke-width:39.37009811;stroke-linecap:round;stroke-linejoin:round;stroke-opacity:1" />
    <g
       id="g4934"
       style="fill:#000000;fill-opacity:1;stroke:#000000;stroke-width:0;stroke-linecap:round;stroke-linejoin:round;stroke-opacity:1">
      <circle
         id="circle4936"
         r="472.23999"
         cy="27631.9"
         cx="10039.4"
         sodipodi:cx="10039.4"
         sodipodi:cy="27631.9"
         sodipodi:rx="472.23999"
         sodipodi:ry="472.23999"
         d="m 10511.64,27631.9 c 0,260.811 -211.429,472.24 -472.24,472.24 -260.8106,0 -472.2396,-211.429 -472.2396,-472.24 0,-260.811 211.429,-472.24 472.2396,-472.24 260.811,0 472.24,211.429 472.24,472.24 z" />
    </g>
    <g
       id="g4938"
       style="fill:#000000;fill-opacity:1;stroke:#000000;stroke-width:39.37009811;stroke-linecap:round;stroke-linejoin:round;stroke-opacity:1" />
  </g>
</svg>
