G04 #@! TF.FileFunction,Copper,L1,Top,Signal*
%FSLAX46Y46*%
G04 Gerber Fmt 4.6, Leading zero omitted, Abs format (unit mm)*
G04 Created by KiCad (PCBNEW (2015-10-04 BZR 6243)-product) date jue 08 oct 2015 05:42:16 VET*
%MOMM*%
G01*
G04 APERTURE LIST*
%ADD10C,0.100000*%
%ADD11R,1.000000X2.500000*%
%ADD12R,2.500000X1.000000*%
%ADD13C,1.501140*%
%ADD14R,2.000000X1.900000*%
%ADD15C,1.900000*%
%ADD16C,1.524000*%
%ADD17C,2.700020*%
%ADD18R,1.727200X2.032000*%
%ADD19O,1.727200X2.032000*%
%ADD20R,2.032000X1.727200*%
%ADD21O,2.032000X1.727200*%
%ADD22R,0.900000X1.700000*%
%ADD23R,1.700000X0.900000*%
%ADD24C,1.397000*%
%ADD25R,1.500000X0.550000*%
%ADD26R,0.550000X1.500000*%
%ADD27C,1.998980*%
%ADD28C,0.800000*%
%ADD29C,0.350000*%
%ADD30C,0.250000*%
G04 APERTURE END LIST*
D10*
D11*
X114530000Y-137160000D03*
X111530000Y-137160000D03*
D12*
X110140000Y-93720000D03*
X110140000Y-96720000D03*
X105420000Y-93720000D03*
X105420000Y-96720000D03*
D13*
X118110000Y-88900000D03*
X115570000Y-88900000D03*
D11*
X104370000Y-137160000D03*
X101370000Y-137160000D03*
D14*
X118110000Y-83820000D03*
D15*
X118110000Y-81280000D03*
D14*
X118110000Y-76200000D03*
D15*
X118110000Y-73660000D03*
D16*
X104140000Y-83820000D03*
X101600000Y-83820000D03*
X101600000Y-81821020D03*
X104140000Y-81821020D03*
D17*
X108869480Y-79121000D03*
X96870520Y-79121000D03*
D18*
X101600000Y-88900000D03*
D19*
X104140000Y-88900000D03*
X106680000Y-88900000D03*
D20*
X119380000Y-134620000D03*
D21*
X119380000Y-132080000D03*
X119380000Y-129540000D03*
X119380000Y-127000000D03*
X119380000Y-124460000D03*
X119380000Y-121920000D03*
X119380000Y-119380000D03*
X119380000Y-116840000D03*
X119380000Y-114300000D03*
X119380000Y-111760000D03*
X119380000Y-109220000D03*
X119380000Y-106680000D03*
X119380000Y-104140000D03*
X119380000Y-101600000D03*
X119380000Y-99060000D03*
X119380000Y-96520000D03*
X119380000Y-93980000D03*
D20*
X96520000Y-93980000D03*
D21*
X96520000Y-96520000D03*
X96520000Y-99060000D03*
X96520000Y-101600000D03*
X96520000Y-104140000D03*
X96520000Y-106680000D03*
X96520000Y-109220000D03*
X96520000Y-111760000D03*
X96520000Y-114300000D03*
X96520000Y-116840000D03*
X96520000Y-119380000D03*
X96520000Y-121920000D03*
X96520000Y-124460000D03*
X96520000Y-127000000D03*
X96520000Y-129540000D03*
X96520000Y-132080000D03*
X96520000Y-134620000D03*
D22*
X106500000Y-137160000D03*
X109400000Y-137160000D03*
D23*
X113030000Y-84000000D03*
X113030000Y-81100000D03*
X113030000Y-76380000D03*
X113030000Y-73480000D03*
D24*
X104140000Y-130810000D03*
X104140000Y-125730000D03*
X111760000Y-130810000D03*
X111760000Y-125730000D03*
D25*
X102250000Y-111570000D03*
X102250000Y-112370000D03*
X102250000Y-113170000D03*
X102250000Y-113970000D03*
X102250000Y-114770000D03*
X102250000Y-115570000D03*
X102250000Y-116370000D03*
X102250000Y-117170000D03*
X102250000Y-117970000D03*
X102250000Y-118770000D03*
X102250000Y-119570000D03*
D26*
X103950000Y-121270000D03*
X104750000Y-121270000D03*
X105550000Y-121270000D03*
X106350000Y-121270000D03*
X107150000Y-121270000D03*
X107950000Y-121270000D03*
X108750000Y-121270000D03*
X109550000Y-121270000D03*
X110350000Y-121270000D03*
X111150000Y-121270000D03*
X111950000Y-121270000D03*
D25*
X113650000Y-119570000D03*
X113650000Y-118770000D03*
X113650000Y-117970000D03*
X113650000Y-117170000D03*
X113650000Y-116370000D03*
X113650000Y-115570000D03*
X113650000Y-114770000D03*
X113650000Y-113970000D03*
X113650000Y-113170000D03*
X113650000Y-112370000D03*
X113650000Y-111570000D03*
D26*
X111950000Y-109870000D03*
X111150000Y-109870000D03*
X110350000Y-109870000D03*
X109550000Y-109870000D03*
X108750000Y-109870000D03*
X107950000Y-109870000D03*
X107150000Y-109870000D03*
X106350000Y-109870000D03*
X105550000Y-109870000D03*
X104750000Y-109870000D03*
X103950000Y-109870000D03*
D13*
X110340940Y-103100000D03*
X105459060Y-103100000D03*
D27*
X119380000Y-138430000D03*
D28*
X119380000Y-93980000D03*
X115170000Y-99870000D03*
X101460000Y-133500000D03*
X98400000Y-123080000D03*
X107640000Y-115050000D03*
X116010000Y-103250000D03*
X115480000Y-113650000D03*
X96520000Y-134620000D03*
X111760000Y-130810000D03*
X103100000Y-123270000D03*
X114260000Y-103100000D03*
X110380000Y-99340000D03*
X110340000Y-112170000D03*
X105420000Y-99560000D03*
X106520000Y-112650000D03*
X102490000Y-94150000D03*
X107750000Y-99520000D03*
X104890000Y-117730000D03*
X100890000Y-121720000D03*
X109520000Y-134810000D03*
X109800000Y-85830000D03*
X118110000Y-83820000D03*
X118110000Y-76200000D03*
X99590000Y-128280000D03*
X119380000Y-138430000D03*
X109870000Y-118830000D03*
X113440000Y-129590000D03*
X104140000Y-83820000D03*
X104140000Y-81821020D03*
X113440000Y-127100000D03*
X114250000Y-124190000D03*
X115050000Y-123050000D03*
X117080000Y-99140000D03*
X117160000Y-103140000D03*
X116430000Y-108200000D03*
X113160000Y-108240000D03*
X111370000Y-118190000D03*
X117060000Y-99140000D03*
X114160000Y-92620000D03*
X114160000Y-98350000D03*
X117010000Y-121360000D03*
X117250000Y-119200000D03*
X119380000Y-116840000D03*
X116960000Y-115620000D03*
X116620000Y-113590000D03*
X119380000Y-109220000D03*
X119380000Y-106680000D03*
X119380000Y-104140000D03*
X108570000Y-113710000D03*
X102470000Y-108420000D03*
X119380000Y-96520000D03*
X104130000Y-105890000D03*
X105660000Y-111680000D03*
X100110000Y-102600000D03*
X100540000Y-108170000D03*
X105330000Y-107040000D03*
X99160000Y-106980000D03*
X104300000Y-113190000D03*
X100220000Y-112850000D03*
X98970000Y-113050000D03*
X96520000Y-114300000D03*
X96520000Y-116840000D03*
X96520000Y-119380000D03*
X96520000Y-121920000D03*
X101810000Y-124210000D03*
X106030000Y-123860000D03*
X105580000Y-127710000D03*
X107670000Y-127180000D03*
D29*
X116010000Y-103250000D02*
X116010000Y-100710000D01*
X116010000Y-100710000D02*
X115170000Y-99870000D01*
X119380000Y-93980000D02*
X119120000Y-93720000D01*
X119120000Y-93720000D02*
X110140000Y-93720000D01*
X101370000Y-137160000D02*
X101370000Y-133590000D01*
X101370000Y-133590000D02*
X101460000Y-133500000D01*
X102250000Y-115570000D02*
X107120000Y-115570000D01*
X98410000Y-132730000D02*
X96520000Y-134620000D01*
X98410000Y-123090000D02*
X98410000Y-132730000D01*
X98400000Y-123080000D02*
X98410000Y-123090000D01*
X107120000Y-115570000D02*
X107640000Y-115050000D01*
X115010000Y-114770000D02*
X113650000Y-114770000D01*
X115480000Y-113650000D02*
X115210000Y-113920000D01*
X115210000Y-113920000D02*
X115210000Y-114570000D01*
X115210000Y-114570000D02*
X115010000Y-114770000D01*
X105420000Y-93720000D02*
X110140000Y-93720000D01*
X111760000Y-130810000D02*
X114530000Y-133580000D01*
X114530000Y-133580000D02*
X114530000Y-137160000D01*
X113650000Y-114770000D02*
X107970000Y-114770000D01*
X107170000Y-115570000D02*
X103860000Y-115570000D01*
X107970000Y-114770000D02*
X107170000Y-115570000D01*
X103860000Y-115570000D02*
X102250000Y-115570000D01*
X109550000Y-109870000D02*
X109550000Y-106670000D01*
X111530000Y-133020000D02*
X111530000Y-137160000D01*
X107560000Y-129050000D02*
X111530000Y-133020000D01*
X103990000Y-129050000D02*
X107560000Y-129050000D01*
X100250000Y-125310000D02*
X103990000Y-129050000D01*
X100250000Y-123990000D02*
X100250000Y-125310000D01*
X101110000Y-123130000D02*
X100250000Y-123990000D01*
X102960000Y-123130000D02*
X101110000Y-123130000D01*
X103100000Y-123270000D02*
X102960000Y-123130000D01*
X113120000Y-103100000D02*
X114260000Y-103100000D01*
X109550000Y-106670000D02*
X113120000Y-103100000D01*
X110140000Y-99100000D02*
X110140000Y-96720000D01*
X110380000Y-99340000D02*
X110140000Y-99100000D01*
X111340000Y-113170000D02*
X113650000Y-113170000D01*
X110340000Y-112170000D02*
X111340000Y-113170000D01*
X105420000Y-96720000D02*
X105420000Y-99560000D01*
X113650000Y-113970000D02*
X110430000Y-113970000D01*
X106540000Y-112630000D02*
X106520000Y-112650000D01*
X109090000Y-112630000D02*
X106540000Y-112630000D01*
X110430000Y-113970000D02*
X109090000Y-112630000D01*
X103510000Y-95170000D02*
X102490000Y-94150000D01*
X107440000Y-95170000D02*
X103510000Y-95170000D01*
X107820000Y-95550000D02*
X107440000Y-95170000D01*
X107820000Y-99450000D02*
X107820000Y-95550000D01*
X107750000Y-99520000D02*
X107820000Y-99450000D01*
X104370000Y-137160000D02*
X104370000Y-134400000D01*
X101040000Y-130260000D02*
X101005000Y-130260000D01*
X101040000Y-131070000D02*
X101040000Y-130260000D01*
X104370000Y-134400000D02*
X101040000Y-131070000D01*
X101005000Y-130260000D02*
X101005000Y-127265000D01*
X104890000Y-117730000D02*
X103530000Y-116370000D01*
X103530000Y-116370000D02*
X102250000Y-116370000D01*
X101005000Y-127265000D02*
X99350000Y-125610000D01*
X99350000Y-125610000D02*
X99350000Y-123360000D01*
X99350000Y-123360000D02*
X100890000Y-121820000D01*
X100890000Y-121820000D02*
X100890000Y-121720000D01*
X104370000Y-137160000D02*
X104370000Y-136680000D01*
X109520000Y-134810000D02*
X106720000Y-134810000D01*
X106720000Y-134810000D02*
X104370000Y-137160000D01*
X109400000Y-137160000D02*
X109400000Y-134930000D01*
X109400000Y-134930000D02*
X109520000Y-134810000D01*
X113030000Y-76380000D02*
X113030000Y-77970000D01*
X109800000Y-85710000D02*
X109800000Y-85830000D01*
X109640000Y-85550000D02*
X109800000Y-85710000D01*
X109640000Y-81360000D02*
X109640000Y-85550000D01*
X113030000Y-77970000D02*
X109640000Y-81360000D01*
X113650000Y-115570000D02*
X108870000Y-115570000D01*
X108070000Y-116370000D02*
X102250000Y-116370000D01*
X108870000Y-115570000D02*
X108070000Y-116370000D01*
X118110000Y-83820000D02*
X117930000Y-84000000D01*
X117930000Y-84000000D02*
X113030000Y-84000000D01*
X118110000Y-76200000D02*
X117880000Y-75970000D01*
X117880000Y-75970000D02*
X117270000Y-75970000D01*
X117270000Y-75970000D02*
X114780000Y-73480000D01*
X114780000Y-73480000D02*
X113030000Y-73480000D01*
X106500000Y-137160000D02*
X106500000Y-138180000D01*
X99590000Y-138720000D02*
X99590000Y-128280000D01*
X100430000Y-139560000D02*
X99590000Y-138720000D01*
X105120000Y-139560000D02*
X100430000Y-139560000D01*
X106500000Y-138180000D02*
X105120000Y-139560000D01*
X119380000Y-138430000D02*
X117910000Y-139900000D01*
X109240000Y-139900000D02*
X106500000Y-137160000D01*
X117910000Y-139900000D02*
X109240000Y-139900000D01*
X108750000Y-121270000D02*
X108750000Y-119950000D01*
X108750000Y-119950000D02*
X109870000Y-118830000D01*
X109550000Y-121270000D02*
X109550000Y-122470000D01*
X112880000Y-129030000D02*
X113440000Y-129590000D01*
X111180000Y-129030000D02*
X112880000Y-129030000D01*
X108970000Y-126820000D02*
X111180000Y-129030000D01*
X108970000Y-123050000D02*
X108970000Y-126820000D01*
X109550000Y-122470000D02*
X108970000Y-123050000D01*
X105550000Y-109870000D02*
X105550000Y-108650000D01*
X104140000Y-85710000D02*
X104140000Y-83820000D01*
X103660000Y-86190000D02*
X104140000Y-85710000D01*
X100710000Y-86190000D02*
X103660000Y-86190000D01*
X99380000Y-87520000D02*
X100710000Y-86190000D01*
X99380000Y-89880000D02*
X99380000Y-87520000D01*
X100920000Y-91420000D02*
X99380000Y-89880000D01*
X100920000Y-95170000D02*
X100920000Y-91420000D01*
X102040000Y-96290000D02*
X100920000Y-95170000D01*
X102040000Y-105140000D02*
X102040000Y-96290000D01*
X105550000Y-108650000D02*
X102040000Y-105140000D01*
X104750000Y-109870000D02*
X104750000Y-108800000D01*
X104140000Y-79350000D02*
X104140000Y-81821020D01*
X103470000Y-78680000D02*
X104140000Y-79350000D01*
X101430000Y-78680000D02*
X103470000Y-78680000D01*
X97700000Y-82410000D02*
X101430000Y-78680000D01*
X97700000Y-90710000D02*
X97700000Y-82410000D01*
X99350000Y-92360000D02*
X97700000Y-90710000D01*
X99350000Y-96100000D02*
X99350000Y-92360000D01*
X101080000Y-97830000D02*
X99350000Y-96100000D01*
X101080000Y-106170000D02*
X101080000Y-97830000D01*
X102370000Y-107460000D02*
X101080000Y-106170000D01*
X103410000Y-107460000D02*
X102370000Y-107460000D01*
X104750000Y-108800000D02*
X103410000Y-107460000D01*
X110350000Y-121270000D02*
X110350000Y-123080000D01*
X111230000Y-127100000D02*
X113440000Y-127100000D01*
X109930000Y-125800000D02*
X111230000Y-127100000D01*
X109930000Y-123500000D02*
X109930000Y-125800000D01*
X110350000Y-123080000D02*
X109930000Y-123500000D01*
X111150000Y-121270000D02*
X111150000Y-122450000D01*
X112890000Y-124190000D02*
X114250000Y-124190000D01*
X111150000Y-122450000D02*
X112890000Y-124190000D01*
X111950000Y-121270000D02*
X112510000Y-121270000D01*
X114290000Y-123050000D02*
X115050000Y-123050000D01*
X112510000Y-121270000D02*
X114290000Y-123050000D01*
X113650000Y-119570000D02*
X112750000Y-119570000D01*
X117080000Y-103060000D02*
X117080000Y-99140000D01*
X117160000Y-103140000D02*
X117080000Y-103060000D01*
X113200000Y-108200000D02*
X116430000Y-108200000D01*
X113160000Y-108240000D02*
X113200000Y-108200000D01*
X112750000Y-119570000D02*
X111370000Y-118190000D01*
X117060000Y-99140000D02*
X116270000Y-98350000D01*
X111850000Y-81100000D02*
X113030000Y-81100000D01*
X110980000Y-81970000D02*
X111850000Y-81100000D01*
X110980000Y-85380000D02*
X110980000Y-81970000D01*
X113160000Y-87560000D02*
X110980000Y-85380000D01*
X113160000Y-91620000D02*
X113160000Y-87560000D01*
X114160000Y-92620000D02*
X113160000Y-91620000D01*
X116270000Y-98350000D02*
X114160000Y-98350000D01*
X113650000Y-119570000D02*
X115700000Y-119570000D01*
X117010000Y-120880000D02*
X117010000Y-121360000D01*
X115700000Y-119570000D02*
X117010000Y-120880000D01*
X113650000Y-118770000D02*
X116820000Y-118770000D01*
X116820000Y-118770000D02*
X117250000Y-119200000D01*
X113650000Y-117970000D02*
X118250000Y-117970000D01*
X118250000Y-117970000D02*
X119380000Y-116840000D01*
X113650000Y-117170000D02*
X116310000Y-117170000D01*
X116960000Y-116520000D02*
X116960000Y-115620000D01*
X116310000Y-117170000D02*
X116960000Y-116520000D01*
D30*
X113194000Y-117173000D02*
X113173000Y-117194000D01*
D29*
X113650000Y-116370000D02*
X114830000Y-116370000D01*
X116620000Y-114580000D02*
X116620000Y-113590000D01*
X114830000Y-116370000D02*
X116620000Y-114580000D01*
X113650000Y-112370000D02*
X114890000Y-112370000D01*
X118060000Y-110540000D02*
X119380000Y-109220000D01*
X116720000Y-110540000D02*
X118060000Y-110540000D01*
X114890000Y-112370000D02*
X116720000Y-110540000D01*
X111150000Y-109870000D02*
X111150000Y-108090000D01*
X112560000Y-106680000D02*
X119380000Y-106680000D01*
X111150000Y-108090000D02*
X112560000Y-106680000D01*
X110350000Y-109870000D02*
X110350000Y-107420000D01*
X114070000Y-104140000D02*
X119380000Y-104140000D01*
X111980000Y-106230000D02*
X114070000Y-104140000D01*
X111540000Y-106230000D02*
X111980000Y-106230000D01*
X110350000Y-107420000D02*
X111540000Y-106230000D01*
X103950000Y-109870000D02*
X103950000Y-111440000D01*
X106220000Y-113710000D02*
X108570000Y-113710000D01*
X103950000Y-111440000D02*
X106220000Y-113710000D01*
X102250000Y-111570000D02*
X101930000Y-111570000D01*
X101930000Y-111570000D02*
X100440000Y-110080000D01*
X100440000Y-110080000D02*
X100810000Y-110080000D01*
X100810000Y-110080000D02*
X102470000Y-108420000D01*
X119380000Y-96520000D02*
X114150000Y-96520000D01*
X111440000Y-100590000D02*
X108550000Y-100590000D01*
X111980000Y-100050000D02*
X111440000Y-100590000D01*
X111980000Y-98690000D02*
X111980000Y-100050000D01*
X114150000Y-96520000D02*
X111980000Y-98690000D01*
X108750000Y-109870000D02*
X108750000Y-107180000D01*
X103710000Y-100590000D02*
X108550000Y-100590000D01*
X102910000Y-101390000D02*
X103710000Y-100590000D01*
X102910000Y-103290000D02*
X102910000Y-101390000D01*
X104810000Y-105190000D02*
X102910000Y-103290000D01*
X106760000Y-105190000D02*
X104810000Y-105190000D01*
X107820000Y-106250000D02*
X106760000Y-105190000D01*
X108750000Y-107180000D02*
X107820000Y-106250000D01*
X107950000Y-109870000D02*
X107950000Y-107870000D01*
X105970000Y-105890000D02*
X104130000Y-105890000D01*
X107950000Y-107870000D02*
X105970000Y-105890000D01*
X107150000Y-109870000D02*
X107150000Y-111330000D01*
X106800000Y-111680000D02*
X105660000Y-111680000D01*
X107150000Y-111330000D02*
X106800000Y-111680000D01*
X100080000Y-102630000D02*
X100110000Y-102600000D01*
X100080000Y-107710000D02*
X100080000Y-102630000D01*
X100540000Y-108170000D02*
X100080000Y-107710000D01*
X105330000Y-107040000D02*
X106350000Y-108060000D01*
X106350000Y-108060000D02*
X106350000Y-109870000D01*
X102250000Y-112370000D02*
X101000000Y-112370000D01*
X99010000Y-107130000D02*
X99160000Y-106980000D01*
X99010000Y-110380000D02*
X99010000Y-107130000D01*
X101000000Y-112370000D02*
X99010000Y-110380000D01*
X102250000Y-113170000D02*
X104280000Y-113170000D01*
X104280000Y-113170000D02*
X104300000Y-113190000D01*
X102250000Y-113970000D02*
X101340000Y-113970000D01*
X101340000Y-113970000D02*
X100220000Y-112850000D01*
X102250000Y-114770000D02*
X100690000Y-114770000D01*
X100690000Y-114770000D02*
X98970000Y-113050000D01*
X102250000Y-117170000D02*
X100320000Y-117170000D01*
X100320000Y-117170000D02*
X97450000Y-114300000D01*
X97450000Y-114300000D02*
X96520000Y-114300000D01*
X102250000Y-117970000D02*
X97650000Y-117970000D01*
X97650000Y-117970000D02*
X96520000Y-116840000D01*
X102250000Y-118770000D02*
X99750000Y-118770000D01*
X99140000Y-119380000D02*
X96520000Y-119380000D01*
X99750000Y-118770000D02*
X99140000Y-119380000D01*
X102250000Y-119570000D02*
X101250000Y-119570000D01*
X98900000Y-121920000D02*
X96520000Y-121920000D01*
X101250000Y-119570000D02*
X98900000Y-121920000D01*
X105550000Y-121270000D02*
X105550000Y-122360000D01*
X104400000Y-124210000D02*
X101810000Y-124210000D01*
X105540000Y-123070000D02*
X104400000Y-124210000D01*
X105540000Y-122370000D02*
X105540000Y-123070000D01*
X105550000Y-122360000D02*
X105540000Y-122370000D01*
X106350000Y-121270000D02*
X106350000Y-123700000D01*
X106190000Y-123860000D02*
X106030000Y-123860000D01*
X106350000Y-123700000D02*
X106190000Y-123860000D01*
X107150000Y-121270000D02*
X107150000Y-124740002D01*
X105580000Y-126310002D02*
X105580000Y-127710000D01*
X107150000Y-124740002D02*
X105580000Y-126310002D01*
X107950000Y-121270000D02*
X107950000Y-126900000D01*
X107950000Y-126900000D02*
X107670000Y-127180000D01*
M02*
