G04 #@! TF.FileFunction,Legend,Top*
%FSLAX46Y46*%
G04 Gerber Fmt 4.6, Leading zero omitted, Abs format (unit mm)*
G04 Created by KiCad (PCBNEW 4.0.2+e4-6225~38~ubuntu15.10.1-stable) date mar 21 jun 2016 11:53:50 VET*
%MOMM*%
G01*
G04 APERTURE LIST*
%ADD10C,0.100000*%
%ADD11C,0.150000*%
G04 APERTURE END LIST*
D10*
D11*
X79522000Y-129790000D02*
X79522000Y-126790000D01*
X82022000Y-126790000D02*
X82022000Y-129790000D01*
X82022000Y-132338000D02*
X82022000Y-135338000D01*
X79522000Y-135338000D02*
X79522000Y-132338000D01*
X87102000Y-143514000D02*
X87102000Y-146514000D01*
X84602000Y-146514000D02*
X84602000Y-143514000D01*
X105414000Y-132354000D02*
X108414000Y-132354000D01*
X108414000Y-134854000D02*
X105414000Y-134854000D01*
X87884904Y-89098888D02*
G75*
G03X84860000Y-89114000I-1524904J2484888D01*
G01*
X87860000Y-89114000D02*
X84860000Y-89114000D01*
X88877936Y-86614000D02*
G75*
G03X88877936Y-86614000I-2517936J0D01*
G01*
X80264904Y-89098888D02*
G75*
G03X77240000Y-89114000I-1524904J2484888D01*
G01*
X80240000Y-89114000D02*
X77240000Y-89114000D01*
X81257936Y-86614000D02*
G75*
G03X81257936Y-86614000I-2517936J0D01*
G01*
X85226000Y-96326000D02*
X89526000Y-96326000D01*
X87376000Y-106366000D02*
X89526000Y-106366000D01*
X85226000Y-96326000D02*
X85226000Y-106366000D01*
X89526000Y-96326000D02*
X89526000Y-106366000D01*
X86736000Y-101346000D02*
X88016000Y-101346000D01*
X86736000Y-99316000D02*
X86736000Y-103376000D01*
X86736000Y-103376000D02*
X88016000Y-103376000D01*
X88016000Y-103376000D02*
X88016000Y-99316000D01*
X88016000Y-99316000D02*
X86736000Y-99316000D01*
X93726000Y-85598000D02*
X93726000Y-90678000D01*
X93726000Y-90678000D02*
X91186000Y-90678000D01*
X91186000Y-90678000D02*
X91186000Y-85598000D01*
X91186000Y-85598000D02*
X93726000Y-85598000D01*
X81534000Y-99314000D02*
X81534000Y-104394000D01*
X81534000Y-104394000D02*
X78994000Y-104394000D01*
X78994000Y-104394000D02*
X78994000Y-99314000D01*
X78994000Y-99314000D02*
X81534000Y-99314000D01*
X73406000Y-88646000D02*
X73406000Y-93726000D01*
X73406000Y-93726000D02*
X70866000Y-93726000D01*
X70866000Y-93726000D02*
X70866000Y-88646000D01*
X70866000Y-88646000D02*
X73406000Y-88646000D01*
X107895000Y-147929000D02*
X107895000Y-141631000D01*
X107755000Y-147923000D02*
X107755000Y-141637000D01*
X107615000Y-147910000D02*
X107615000Y-145226000D01*
X107615000Y-144334000D02*
X107615000Y-141650000D01*
X107475000Y-147891000D02*
X107475000Y-145436000D01*
X107475000Y-144124000D02*
X107475000Y-141669000D01*
X107335000Y-147865000D02*
X107335000Y-145569000D01*
X107335000Y-143991000D02*
X107335000Y-141695000D01*
X107195000Y-147833000D02*
X107195000Y-145660000D01*
X107195000Y-143900000D02*
X107195000Y-141727000D01*
X107055000Y-147794000D02*
X107055000Y-145722000D01*
X107055000Y-143838000D02*
X107055000Y-141766000D01*
X106915000Y-147748000D02*
X106915000Y-145761000D01*
X106915000Y-143799000D02*
X106915000Y-141812000D01*
X106775000Y-147695000D02*
X106775000Y-145778000D01*
X106775000Y-143782000D02*
X106775000Y-141865000D01*
X106635000Y-147633000D02*
X106635000Y-145776000D01*
X106635000Y-143784000D02*
X106635000Y-141927000D01*
X106495000Y-147563000D02*
X106495000Y-145754000D01*
X106495000Y-143806000D02*
X106495000Y-141997000D01*
X106355000Y-147484000D02*
X106355000Y-145711000D01*
X106355000Y-143849000D02*
X106355000Y-142076000D01*
X106215000Y-147396000D02*
X106215000Y-145643000D01*
X106215000Y-143917000D02*
X106215000Y-142164000D01*
X106075000Y-147296000D02*
X106075000Y-145544000D01*
X106075000Y-144016000D02*
X106075000Y-142264000D01*
X105935000Y-147184000D02*
X105935000Y-145399000D01*
X105935000Y-144161000D02*
X105935000Y-142376000D01*
X105795000Y-147059000D02*
X105795000Y-145160000D01*
X105795000Y-144400000D02*
X105795000Y-142501000D01*
X105655000Y-146916000D02*
X105655000Y-142644000D01*
X105515000Y-146754000D02*
X105515000Y-142806000D01*
X105375000Y-146566000D02*
X105375000Y-142994000D01*
X105235000Y-146343000D02*
X105235000Y-143217000D01*
X105095000Y-146067000D02*
X105095000Y-143493000D01*
X104955000Y-145692000D02*
X104955000Y-143868000D01*
X107720000Y-144780000D02*
G75*
G03X107720000Y-144780000I-1000000J0D01*
G01*
X111157500Y-144780000D02*
G75*
G03X111157500Y-144780000I-3187500J0D01*
G01*
X114046000Y-89154000D02*
X114046000Y-80518000D01*
X114046000Y-97536000D02*
X114046000Y-92456000D01*
X101854000Y-89154000D02*
X101854000Y-80518000D01*
X101854000Y-97536000D02*
X101854000Y-92456000D01*
X101854000Y-80518000D02*
X114046000Y-80518000D01*
X114046000Y-97536000D02*
X101854000Y-97536000D01*
X68326000Y-133858000D02*
X68326000Y-108458000D01*
X68326000Y-108458000D02*
X70866000Y-108458000D01*
X70866000Y-108458000D02*
X70866000Y-133858000D01*
X68046000Y-136678000D02*
X68046000Y-135128000D01*
X68326000Y-133858000D02*
X70866000Y-133858000D01*
X71146000Y-135128000D02*
X71146000Y-136678000D01*
X71146000Y-136678000D02*
X68046000Y-136678000D01*
X92083000Y-108957000D02*
X92083000Y-110227000D01*
X99433000Y-108957000D02*
X99433000Y-110227000D01*
X99433000Y-146567000D02*
X99433000Y-145297000D01*
X92083000Y-146567000D02*
X92083000Y-145297000D01*
X92083000Y-108957000D02*
X99433000Y-108957000D01*
X92083000Y-146567000D02*
X99433000Y-146567000D01*
X92083000Y-110227000D02*
X90798000Y-110227000D01*
X114046000Y-133858000D02*
X114046000Y-108458000D01*
X114046000Y-108458000D02*
X116586000Y-108458000D01*
X116586000Y-108458000D02*
X116586000Y-133858000D01*
X113766000Y-136678000D02*
X113766000Y-135128000D01*
X114046000Y-133858000D02*
X116586000Y-133858000D01*
X116866000Y-135128000D02*
X116866000Y-136678000D01*
X116866000Y-136678000D02*
X113766000Y-136678000D01*
X88059260Y-133032500D02*
X88059260Y-130070860D01*
X85206840Y-133791960D02*
X85206840Y-129161540D01*
X85648800Y-129872740D02*
X85648800Y-133022340D01*
X88018620Y-133962140D02*
X87937340Y-134381240D01*
X87937340Y-134381240D02*
X87757000Y-134663180D01*
X87757000Y-134663180D02*
X87419180Y-134922260D01*
X87419180Y-134922260D02*
X87088980Y-135051800D01*
X87088980Y-135051800D02*
X86847680Y-135082280D01*
X86847680Y-135082280D02*
X86459060Y-134990840D01*
X86459060Y-134990840D02*
X86166960Y-134830820D01*
X86166960Y-134830820D02*
X85907880Y-134561580D01*
X85907880Y-134561580D02*
X85737700Y-134211060D01*
X85737700Y-134211060D02*
X85707220Y-133720840D01*
X85717380Y-129161540D02*
X85818980Y-128762760D01*
X85818980Y-128762760D02*
X86027260Y-128432560D01*
X86027260Y-128432560D02*
X86326980Y-128211580D01*
X86326980Y-128211580D02*
X86657180Y-128082040D01*
X86657180Y-128082040D02*
X87038180Y-128082040D01*
X87038180Y-128082040D02*
X87409020Y-128211580D01*
X87409020Y-128211580D02*
X87718900Y-128442720D01*
X87718900Y-128442720D02*
X87917020Y-128701800D01*
X87917020Y-128701800D02*
X87998300Y-129032000D01*
X87998300Y-129032000D02*
X88018620Y-129242820D01*
X88519000Y-129181860D02*
X88519000Y-133901180D01*
X88519000Y-133901180D02*
X88478360Y-134241540D01*
X88478360Y-134241540D02*
X88358980Y-134612380D01*
X88358980Y-134612380D02*
X88059260Y-135051800D01*
X88059260Y-135051800D02*
X87528400Y-135432800D01*
X87528400Y-135432800D02*
X86977220Y-135562340D01*
X86977220Y-135562340D02*
X86578440Y-135531860D01*
X86578440Y-135531860D02*
X86037420Y-135341360D01*
X86037420Y-135341360D02*
X85519260Y-134861300D01*
X85519260Y-134861300D02*
X85267800Y-134350760D01*
X85267800Y-134350760D02*
X85217000Y-133812280D01*
X85227160Y-129151380D02*
X85328760Y-128671320D01*
X85328760Y-128671320D02*
X85468460Y-128330960D01*
X85468460Y-128330960D02*
X85717380Y-128051560D01*
X85717380Y-128051560D02*
X85996780Y-127833120D01*
X85996780Y-127833120D02*
X86408260Y-127652780D01*
X86408260Y-127652780D02*
X86796880Y-127581660D01*
X86796880Y-127581660D02*
X87287100Y-127601980D01*
X87287100Y-127601980D02*
X87688420Y-127792480D01*
X87688420Y-127792480D02*
X88059260Y-128102360D01*
X88059260Y-128102360D02*
X88318340Y-128452880D01*
X88318340Y-128452880D02*
X88447880Y-128793240D01*
X88447880Y-128793240D02*
X88519000Y-129192020D01*
X99062540Y-91694520D02*
X99062540Y-93091520D01*
X99062540Y-87249520D02*
X99062540Y-85725520D01*
X99824540Y-87630520D02*
X98300540Y-87630520D01*
X99824540Y-87376520D02*
X98300540Y-87376520D01*
X99062540Y-87122520D02*
X98300540Y-87122520D01*
X98300540Y-87122520D02*
X98300540Y-91694520D01*
X98300540Y-91694520D02*
X99824540Y-91694520D01*
X99824540Y-91694520D02*
X99824540Y-87122520D01*
X99824540Y-87122520D02*
X99062540Y-87122520D01*
X116566000Y-143014000D02*
X116566000Y-147014000D01*
X114066000Y-143014000D02*
X114066000Y-147014000D01*
D10*
X81372000Y-127040000D02*
G75*
G03X81372000Y-127040000I-600000J0D01*
G01*
X81372000Y-135088000D02*
G75*
G03X81372000Y-135088000I-600000J0D01*
G01*
X86452000Y-146264000D02*
G75*
G03X86452000Y-146264000I-600000J0D01*
G01*
X108764000Y-133604000D02*
G75*
G03X108764000Y-133604000I-600000J0D01*
G01*
X87260000Y-85344000D02*
G75*
G03X87260000Y-85344000I-900000J0D01*
G01*
X79640000Y-85344000D02*
G75*
G03X79640000Y-85344000I-900000J0D01*
G01*
X86664000Y-97386000D02*
X86664000Y-97686000D01*
X88088000Y-97386000D02*
X88088000Y-97686000D01*
X86664000Y-97686000D02*
G75*
G03X88088000Y-97686000I712000J0D01*
G01*
X88088000Y-97386000D02*
G75*
G03X86664000Y-97386000I-712000J0D01*
G01*
X93405490Y-84328000D02*
G75*
G03X93405490Y-84328000I-949490J0D01*
G01*
X93405490Y-91948000D02*
G75*
G03X93405490Y-91948000I-949490J0D01*
G01*
X81213490Y-98044000D02*
G75*
G03X81213490Y-98044000I-949490J0D01*
G01*
X81213490Y-105664000D02*
G75*
G03X81213490Y-105664000I-949490J0D01*
G01*
X73085490Y-87376000D02*
G75*
G03X73085490Y-87376000I-949490J0D01*
G01*
X73085490Y-94996000D02*
G75*
G03X73085490Y-94996000I-949490J0D01*
G01*
X107320000Y-144780000D02*
G75*
G03X107320000Y-144780000I-600000J0D01*
G01*
X109932000Y-95504000D02*
G75*
G03X109932000Y-95504000I-712000J0D01*
G01*
X107392000Y-95504000D02*
G75*
G03X107392000Y-95504000I-712000J0D01*
G01*
X107392000Y-93505020D02*
G75*
G03X107392000Y-93505020I-712000J0D01*
G01*
X109932000Y-93505020D02*
G75*
G03X109932000Y-93505020I-712000J0D01*
G01*
X115249490Y-90805000D02*
G75*
G03X115249490Y-90805000I-1300010J0D01*
G01*
X103250530Y-90805000D02*
G75*
G03X103250530Y-90805000I-1300010J0D01*
G01*
X69748400Y-131774400D02*
X69443600Y-131774400D01*
X69748400Y-133401600D02*
X69443600Y-133401600D01*
X69443600Y-131774400D02*
G75*
G03X69443600Y-133401600I0J-813600D01*
G01*
X69748400Y-133401600D02*
G75*
G03X69748400Y-131774400I0J813600D01*
G01*
X69748400Y-129234400D02*
X69443600Y-129234400D01*
X69748400Y-130861600D02*
X69443600Y-130861600D01*
X69443600Y-129234400D02*
G75*
G03X69443600Y-130861600I0J-813600D01*
G01*
X69748400Y-130861600D02*
G75*
G03X69748400Y-129234400I0J813600D01*
G01*
X69748400Y-126694400D02*
X69443600Y-126694400D01*
X69748400Y-128321600D02*
X69443600Y-128321600D01*
X69443600Y-126694400D02*
G75*
G03X69443600Y-128321600I0J-813600D01*
G01*
X69748400Y-128321600D02*
G75*
G03X69748400Y-126694400I0J813600D01*
G01*
X69748400Y-124154400D02*
X69443600Y-124154400D01*
X69748400Y-125781600D02*
X69443600Y-125781600D01*
X69443600Y-124154400D02*
G75*
G03X69443600Y-125781600I0J-813600D01*
G01*
X69748400Y-125781600D02*
G75*
G03X69748400Y-124154400I0J813600D01*
G01*
X69748400Y-121614400D02*
X69443600Y-121614400D01*
X69748400Y-123241600D02*
X69443600Y-123241600D01*
X69443600Y-121614400D02*
G75*
G03X69443600Y-123241600I0J-813600D01*
G01*
X69748400Y-123241600D02*
G75*
G03X69748400Y-121614400I0J813600D01*
G01*
X69748400Y-119074400D02*
X69443600Y-119074400D01*
X69748400Y-120701600D02*
X69443600Y-120701600D01*
X69443600Y-119074400D02*
G75*
G03X69443600Y-120701600I0J-813600D01*
G01*
X69748400Y-120701600D02*
G75*
G03X69748400Y-119074400I0J813600D01*
G01*
X69748400Y-116534400D02*
X69443600Y-116534400D01*
X69748400Y-118161600D02*
X69443600Y-118161600D01*
X69443600Y-116534400D02*
G75*
G03X69443600Y-118161600I0J-813600D01*
G01*
X69748400Y-118161600D02*
G75*
G03X69748400Y-116534400I0J813600D01*
G01*
X69748400Y-113994400D02*
X69443600Y-113994400D01*
X69748400Y-115621600D02*
X69443600Y-115621600D01*
X69443600Y-113994400D02*
G75*
G03X69443600Y-115621600I0J-813600D01*
G01*
X69748400Y-115621600D02*
G75*
G03X69748400Y-113994400I0J813600D01*
G01*
X69748400Y-111454400D02*
X69443600Y-111454400D01*
X69748400Y-113081600D02*
X69443600Y-113081600D01*
X69443600Y-111454400D02*
G75*
G03X69443600Y-113081600I0J-813600D01*
G01*
X69748400Y-113081600D02*
G75*
G03X69748400Y-111454400I0J813600D01*
G01*
X69748400Y-108914400D02*
X69443600Y-108914400D01*
X69748400Y-110541600D02*
X69443600Y-110541600D01*
X69443600Y-108914400D02*
G75*
G03X69443600Y-110541600I0J-813600D01*
G01*
X69748400Y-110541600D02*
G75*
G03X69748400Y-108914400I0J813600D01*
G01*
X91598000Y-112002000D02*
X92298000Y-112002000D01*
X91598000Y-110502000D02*
X92298000Y-110502000D01*
X92298000Y-112002000D02*
G75*
G03X92298000Y-110502000I0J750000D01*
G01*
X91598000Y-110502000D02*
G75*
G03X91598000Y-112002000I0J-750000D01*
G01*
X91598000Y-114542000D02*
X92298000Y-114542000D01*
X91598000Y-113042000D02*
X92298000Y-113042000D01*
X92298000Y-114542000D02*
G75*
G03X92298000Y-113042000I0J750000D01*
G01*
X91598000Y-113042000D02*
G75*
G03X91598000Y-114542000I0J-750000D01*
G01*
X91598000Y-117082000D02*
X92298000Y-117082000D01*
X91598000Y-115582000D02*
X92298000Y-115582000D01*
X92298000Y-117082000D02*
G75*
G03X92298000Y-115582000I0J750000D01*
G01*
X91598000Y-115582000D02*
G75*
G03X91598000Y-117082000I0J-750000D01*
G01*
X91598000Y-119622000D02*
X92298000Y-119622000D01*
X91598000Y-118122000D02*
X92298000Y-118122000D01*
X92298000Y-119622000D02*
G75*
G03X92298000Y-118122000I0J750000D01*
G01*
X91598000Y-118122000D02*
G75*
G03X91598000Y-119622000I0J-750000D01*
G01*
X91598000Y-122162000D02*
X92298000Y-122162000D01*
X91598000Y-120662000D02*
X92298000Y-120662000D01*
X92298000Y-122162000D02*
G75*
G03X92298000Y-120662000I0J750000D01*
G01*
X91598000Y-120662000D02*
G75*
G03X91598000Y-122162000I0J-750000D01*
G01*
X91598000Y-124702000D02*
X92298000Y-124702000D01*
X91598000Y-123202000D02*
X92298000Y-123202000D01*
X92298000Y-124702000D02*
G75*
G03X92298000Y-123202000I0J750000D01*
G01*
X91598000Y-123202000D02*
G75*
G03X91598000Y-124702000I0J-750000D01*
G01*
X91598000Y-127242000D02*
X92298000Y-127242000D01*
X91598000Y-125742000D02*
X92298000Y-125742000D01*
X92298000Y-127242000D02*
G75*
G03X92298000Y-125742000I0J750000D01*
G01*
X91598000Y-125742000D02*
G75*
G03X91598000Y-127242000I0J-750000D01*
G01*
X91598000Y-129782000D02*
X92298000Y-129782000D01*
X91598000Y-128282000D02*
X92298000Y-128282000D01*
X92298000Y-129782000D02*
G75*
G03X92298000Y-128282000I0J750000D01*
G01*
X91598000Y-128282000D02*
G75*
G03X91598000Y-129782000I0J-750000D01*
G01*
X91598000Y-132322000D02*
X92298000Y-132322000D01*
X91598000Y-130822000D02*
X92298000Y-130822000D01*
X92298000Y-132322000D02*
G75*
G03X92298000Y-130822000I0J750000D01*
G01*
X91598000Y-130822000D02*
G75*
G03X91598000Y-132322000I0J-750000D01*
G01*
X91598000Y-134862000D02*
X92298000Y-134862000D01*
X91598000Y-133362000D02*
X92298000Y-133362000D01*
X92298000Y-134862000D02*
G75*
G03X92298000Y-133362000I0J750000D01*
G01*
X91598000Y-133362000D02*
G75*
G03X91598000Y-134862000I0J-750000D01*
G01*
X91598000Y-137402000D02*
X92298000Y-137402000D01*
X91598000Y-135902000D02*
X92298000Y-135902000D01*
X92298000Y-137402000D02*
G75*
G03X92298000Y-135902000I0J750000D01*
G01*
X91598000Y-135902000D02*
G75*
G03X91598000Y-137402000I0J-750000D01*
G01*
X91598000Y-139942000D02*
X92298000Y-139942000D01*
X91598000Y-138442000D02*
X92298000Y-138442000D01*
X92298000Y-139942000D02*
G75*
G03X92298000Y-138442000I0J750000D01*
G01*
X91598000Y-138442000D02*
G75*
G03X91598000Y-139942000I0J-750000D01*
G01*
X91598000Y-142482000D02*
X92298000Y-142482000D01*
X91598000Y-140982000D02*
X92298000Y-140982000D01*
X92298000Y-142482000D02*
G75*
G03X92298000Y-140982000I0J750000D01*
G01*
X91598000Y-140982000D02*
G75*
G03X91598000Y-142482000I0J-750000D01*
G01*
X91598000Y-145022000D02*
X92298000Y-145022000D01*
X91598000Y-143522000D02*
X92298000Y-143522000D01*
X92298000Y-145022000D02*
G75*
G03X92298000Y-143522000I0J750000D01*
G01*
X91598000Y-143522000D02*
G75*
G03X91598000Y-145022000I0J-750000D01*
G01*
X99218000Y-145022000D02*
X99918000Y-145022000D01*
X99218000Y-143522000D02*
X99918000Y-143522000D01*
X99918000Y-145022000D02*
G75*
G03X99918000Y-143522000I0J750000D01*
G01*
X99218000Y-143522000D02*
G75*
G03X99218000Y-145022000I0J-750000D01*
G01*
X99218000Y-142482000D02*
X99918000Y-142482000D01*
X99218000Y-140982000D02*
X99918000Y-140982000D01*
X99918000Y-142482000D02*
G75*
G03X99918000Y-140982000I0J750000D01*
G01*
X99218000Y-140982000D02*
G75*
G03X99218000Y-142482000I0J-750000D01*
G01*
X99218000Y-139942000D02*
X99918000Y-139942000D01*
X99218000Y-138442000D02*
X99918000Y-138442000D01*
X99918000Y-139942000D02*
G75*
G03X99918000Y-138442000I0J750000D01*
G01*
X99218000Y-138442000D02*
G75*
G03X99218000Y-139942000I0J-750000D01*
G01*
X99218000Y-137402000D02*
X99918000Y-137402000D01*
X99218000Y-135902000D02*
X99918000Y-135902000D01*
X99918000Y-137402000D02*
G75*
G03X99918000Y-135902000I0J750000D01*
G01*
X99218000Y-135902000D02*
G75*
G03X99218000Y-137402000I0J-750000D01*
G01*
X99218000Y-134862000D02*
X99918000Y-134862000D01*
X99218000Y-133362000D02*
X99918000Y-133362000D01*
X99918000Y-134862000D02*
G75*
G03X99918000Y-133362000I0J750000D01*
G01*
X99218000Y-133362000D02*
G75*
G03X99218000Y-134862000I0J-750000D01*
G01*
X99218000Y-132322000D02*
X99918000Y-132322000D01*
X99218000Y-130822000D02*
X99918000Y-130822000D01*
X99918000Y-132322000D02*
G75*
G03X99918000Y-130822000I0J750000D01*
G01*
X99218000Y-130822000D02*
G75*
G03X99218000Y-132322000I0J-750000D01*
G01*
X99218000Y-129782000D02*
X99918000Y-129782000D01*
X99218000Y-128282000D02*
X99918000Y-128282000D01*
X99918000Y-129782000D02*
G75*
G03X99918000Y-128282000I0J750000D01*
G01*
X99218000Y-128282000D02*
G75*
G03X99218000Y-129782000I0J-750000D01*
G01*
X99218000Y-127242000D02*
X99918000Y-127242000D01*
X99218000Y-125742000D02*
X99918000Y-125742000D01*
X99918000Y-127242000D02*
G75*
G03X99918000Y-125742000I0J750000D01*
G01*
X99218000Y-125742000D02*
G75*
G03X99218000Y-127242000I0J-750000D01*
G01*
X99218000Y-124702000D02*
X99918000Y-124702000D01*
X99218000Y-123202000D02*
X99918000Y-123202000D01*
X99918000Y-124702000D02*
G75*
G03X99918000Y-123202000I0J750000D01*
G01*
X99218000Y-123202000D02*
G75*
G03X99218000Y-124702000I0J-750000D01*
G01*
X99218000Y-122162000D02*
X99918000Y-122162000D01*
X99218000Y-120662000D02*
X99918000Y-120662000D01*
X99918000Y-122162000D02*
G75*
G03X99918000Y-120662000I0J750000D01*
G01*
X99218000Y-120662000D02*
G75*
G03X99218000Y-122162000I0J-750000D01*
G01*
X99218000Y-119622000D02*
X99918000Y-119622000D01*
X99218000Y-118122000D02*
X99918000Y-118122000D01*
X99918000Y-119622000D02*
G75*
G03X99918000Y-118122000I0J750000D01*
G01*
X99218000Y-118122000D02*
G75*
G03X99218000Y-119622000I0J-750000D01*
G01*
X99218000Y-117082000D02*
X99918000Y-117082000D01*
X99218000Y-115582000D02*
X99918000Y-115582000D01*
X99918000Y-117082000D02*
G75*
G03X99918000Y-115582000I0J750000D01*
G01*
X99218000Y-115582000D02*
G75*
G03X99218000Y-117082000I0J-750000D01*
G01*
X99218000Y-114542000D02*
X99918000Y-114542000D01*
X99218000Y-113042000D02*
X99918000Y-113042000D01*
X99918000Y-114542000D02*
G75*
G03X99918000Y-113042000I0J750000D01*
G01*
X99218000Y-113042000D02*
G75*
G03X99218000Y-114542000I0J-750000D01*
G01*
X99218000Y-112002000D02*
X99918000Y-112002000D01*
X99218000Y-110502000D02*
X99918000Y-110502000D01*
X99918000Y-112002000D02*
G75*
G03X99918000Y-110502000I0J750000D01*
G01*
X99218000Y-110502000D02*
G75*
G03X99218000Y-112002000I0J-750000D01*
G01*
X115468400Y-131774400D02*
X115163600Y-131774400D01*
X115468400Y-133401600D02*
X115163600Y-133401600D01*
X115163600Y-131774400D02*
G75*
G03X115163600Y-133401600I0J-813600D01*
G01*
X115468400Y-133401600D02*
G75*
G03X115468400Y-131774400I0J813600D01*
G01*
X115468400Y-129234400D02*
X115163600Y-129234400D01*
X115468400Y-130861600D02*
X115163600Y-130861600D01*
X115163600Y-129234400D02*
G75*
G03X115163600Y-130861600I0J-813600D01*
G01*
X115468400Y-130861600D02*
G75*
G03X115468400Y-129234400I0J813600D01*
G01*
X115468400Y-126694400D02*
X115163600Y-126694400D01*
X115468400Y-128321600D02*
X115163600Y-128321600D01*
X115163600Y-126694400D02*
G75*
G03X115163600Y-128321600I0J-813600D01*
G01*
X115468400Y-128321600D02*
G75*
G03X115468400Y-126694400I0J813600D01*
G01*
X115468400Y-124154400D02*
X115163600Y-124154400D01*
X115468400Y-125781600D02*
X115163600Y-125781600D01*
X115163600Y-124154400D02*
G75*
G03X115163600Y-125781600I0J-813600D01*
G01*
X115468400Y-125781600D02*
G75*
G03X115468400Y-124154400I0J813600D01*
G01*
X115468400Y-121614400D02*
X115163600Y-121614400D01*
X115468400Y-123241600D02*
X115163600Y-123241600D01*
X115163600Y-121614400D02*
G75*
G03X115163600Y-123241600I0J-813600D01*
G01*
X115468400Y-123241600D02*
G75*
G03X115468400Y-121614400I0J813600D01*
G01*
X115468400Y-119074400D02*
X115163600Y-119074400D01*
X115468400Y-120701600D02*
X115163600Y-120701600D01*
X115163600Y-119074400D02*
G75*
G03X115163600Y-120701600I0J-813600D01*
G01*
X115468400Y-120701600D02*
G75*
G03X115468400Y-119074400I0J813600D01*
G01*
X115468400Y-116534400D02*
X115163600Y-116534400D01*
X115468400Y-118161600D02*
X115163600Y-118161600D01*
X115163600Y-116534400D02*
G75*
G03X115163600Y-118161600I0J-813600D01*
G01*
X115468400Y-118161600D02*
G75*
G03X115468400Y-116534400I0J813600D01*
G01*
X115468400Y-113994400D02*
X115163600Y-113994400D01*
X115468400Y-115621600D02*
X115163600Y-115621600D01*
X115163600Y-113994400D02*
G75*
G03X115163600Y-115621600I0J-813600D01*
G01*
X115468400Y-115621600D02*
G75*
G03X115468400Y-113994400I0J813600D01*
G01*
X115468400Y-111454400D02*
X115163600Y-111454400D01*
X115468400Y-113081600D02*
X115163600Y-113081600D01*
X115163600Y-111454400D02*
G75*
G03X115163600Y-113081600I0J-813600D01*
G01*
X115468400Y-113081600D02*
G75*
G03X115468400Y-111454400I0J813600D01*
G01*
X115468400Y-108914400D02*
X115163600Y-108914400D01*
X115468400Y-110541600D02*
X115163600Y-110541600D01*
X115163600Y-108914400D02*
G75*
G03X115163600Y-110541600I0J-813600D01*
G01*
X115468400Y-110541600D02*
G75*
G03X115468400Y-108914400I0J813600D01*
G01*
X87568570Y-129672080D02*
G75*
G03X87568570Y-129672080I-700570J0D01*
G01*
X87568570Y-133471920D02*
G75*
G03X87568570Y-133471920I-700570J0D01*
G01*
X99862170Y-94488520D02*
G75*
G03X99862170Y-94488520I-799630J0D01*
G01*
X115866000Y-146264000D02*
G75*
G03X115866000Y-146264000I-550000J0D01*
G01*
D11*
X78629143Y-128456666D02*
X78676762Y-128504285D01*
X78724381Y-128647142D01*
X78724381Y-128742380D01*
X78676762Y-128885238D01*
X78581524Y-128980476D01*
X78486286Y-129028095D01*
X78295810Y-129075714D01*
X78152952Y-129075714D01*
X77962476Y-129028095D01*
X77867238Y-128980476D01*
X77772000Y-128885238D01*
X77724381Y-128742380D01*
X77724381Y-128647142D01*
X77772000Y-128504285D01*
X77819619Y-128456666D01*
X78724381Y-127504285D02*
X78724381Y-128075714D01*
X78724381Y-127790000D02*
X77724381Y-127790000D01*
X77867238Y-127885238D01*
X77962476Y-127980476D01*
X78010095Y-128075714D01*
X83629143Y-134004666D02*
X83676762Y-134052285D01*
X83724381Y-134195142D01*
X83724381Y-134290380D01*
X83676762Y-134433238D01*
X83581524Y-134528476D01*
X83486286Y-134576095D01*
X83295810Y-134623714D01*
X83152952Y-134623714D01*
X82962476Y-134576095D01*
X82867238Y-134528476D01*
X82772000Y-134433238D01*
X82724381Y-134290380D01*
X82724381Y-134195142D01*
X82772000Y-134052285D01*
X82819619Y-134004666D01*
X82819619Y-133623714D02*
X82772000Y-133576095D01*
X82724381Y-133480857D01*
X82724381Y-133242761D01*
X82772000Y-133147523D01*
X82819619Y-133099904D01*
X82914857Y-133052285D01*
X83010095Y-133052285D01*
X83152952Y-133099904D01*
X83724381Y-133671333D01*
X83724381Y-133052285D01*
X88709143Y-145180666D02*
X88756762Y-145228285D01*
X88804381Y-145371142D01*
X88804381Y-145466380D01*
X88756762Y-145609238D01*
X88661524Y-145704476D01*
X88566286Y-145752095D01*
X88375810Y-145799714D01*
X88232952Y-145799714D01*
X88042476Y-145752095D01*
X87947238Y-145704476D01*
X87852000Y-145609238D01*
X87804381Y-145466380D01*
X87804381Y-145371142D01*
X87852000Y-145228285D01*
X87899619Y-145180666D01*
X87804381Y-144847333D02*
X87804381Y-144228285D01*
X88185333Y-144561619D01*
X88185333Y-144418761D01*
X88232952Y-144323523D01*
X88280571Y-144275904D01*
X88375810Y-144228285D01*
X88613905Y-144228285D01*
X88709143Y-144275904D01*
X88756762Y-144323523D01*
X88804381Y-144418761D01*
X88804381Y-144704476D01*
X88756762Y-144799714D01*
X88709143Y-144847333D01*
X106747334Y-131461143D02*
X106699715Y-131508762D01*
X106556858Y-131556381D01*
X106461620Y-131556381D01*
X106318762Y-131508762D01*
X106223524Y-131413524D01*
X106175905Y-131318286D01*
X106128286Y-131127810D01*
X106128286Y-130984952D01*
X106175905Y-130794476D01*
X106223524Y-130699238D01*
X106318762Y-130604000D01*
X106461620Y-130556381D01*
X106556858Y-130556381D01*
X106699715Y-130604000D01*
X106747334Y-130651619D01*
X107604477Y-130889714D02*
X107604477Y-131556381D01*
X107366381Y-130508762D02*
X107128286Y-131223048D01*
X107747334Y-131223048D01*
X90876381Y-87098095D02*
X89876381Y-87098095D01*
X89876381Y-86860000D01*
X89924000Y-86717142D01*
X90019238Y-86621904D01*
X90114476Y-86574285D01*
X90304952Y-86526666D01*
X90447810Y-86526666D01*
X90638286Y-86574285D01*
X90733524Y-86621904D01*
X90828762Y-86717142D01*
X90876381Y-86860000D01*
X90876381Y-87098095D01*
X90876381Y-85574285D02*
X90876381Y-86145714D01*
X90876381Y-85860000D02*
X89876381Y-85860000D01*
X90019238Y-85955238D01*
X90114476Y-86050476D01*
X90162095Y-86145714D01*
X88717381Y-90050905D02*
X87717381Y-90050905D01*
X88717381Y-89479476D02*
X88145952Y-89908048D01*
X87717381Y-89479476D02*
X88288810Y-90050905D01*
X83256381Y-87098095D02*
X82256381Y-87098095D01*
X82256381Y-86860000D01*
X82304000Y-86717142D01*
X82399238Y-86621904D01*
X82494476Y-86574285D01*
X82684952Y-86526666D01*
X82827810Y-86526666D01*
X83018286Y-86574285D01*
X83113524Y-86621904D01*
X83208762Y-86717142D01*
X83256381Y-86860000D01*
X83256381Y-87098095D01*
X82256381Y-86193333D02*
X82256381Y-85574285D01*
X82637333Y-85907619D01*
X82637333Y-85764761D01*
X82684952Y-85669523D01*
X82732571Y-85621904D01*
X82827810Y-85574285D01*
X83065905Y-85574285D01*
X83161143Y-85621904D01*
X83208762Y-85669523D01*
X83256381Y-85764761D01*
X83256381Y-86050476D01*
X83208762Y-86145714D01*
X83161143Y-86193333D01*
X81097381Y-90050905D02*
X80097381Y-90050905D01*
X81097381Y-89479476D02*
X80525952Y-89908048D01*
X80097381Y-89479476D02*
X80668810Y-90050905D01*
X86042667Y-95560762D02*
X86185524Y-95608381D01*
X86423620Y-95608381D01*
X86518858Y-95560762D01*
X86566477Y-95513143D01*
X86614096Y-95417905D01*
X86614096Y-95322667D01*
X86566477Y-95227429D01*
X86518858Y-95179810D01*
X86423620Y-95132190D01*
X86233143Y-95084571D01*
X86137905Y-95036952D01*
X86090286Y-94989333D01*
X86042667Y-94894095D01*
X86042667Y-94798857D01*
X86090286Y-94703619D01*
X86137905Y-94656000D01*
X86233143Y-94608381D01*
X86471239Y-94608381D01*
X86614096Y-94656000D01*
X86947429Y-94608381D02*
X87185524Y-95608381D01*
X87376001Y-94894095D01*
X87566477Y-95608381D01*
X87804572Y-94608381D01*
X88709334Y-95608381D02*
X88137905Y-95608381D01*
X88423619Y-95608381D02*
X88423619Y-94608381D01*
X88328381Y-94751238D01*
X88233143Y-94846476D01*
X88137905Y-94894095D01*
X96408501Y-88553586D02*
X95932310Y-88886920D01*
X96408501Y-89125015D02*
X95408501Y-89125015D01*
X95408501Y-88744062D01*
X95456120Y-88648824D01*
X95503739Y-88601205D01*
X95598977Y-88553586D01*
X95741834Y-88553586D01*
X95837072Y-88601205D01*
X95884691Y-88648824D01*
X95932310Y-88744062D01*
X95932310Y-89125015D01*
X96408501Y-87601205D02*
X96408501Y-88172634D01*
X96408501Y-87886920D02*
X95408501Y-87886920D01*
X95551358Y-87982158D01*
X95646596Y-88077396D01*
X95694215Y-88172634D01*
X84216501Y-102269586D02*
X83740310Y-102602920D01*
X84216501Y-102841015D02*
X83216501Y-102841015D01*
X83216501Y-102460062D01*
X83264120Y-102364824D01*
X83311739Y-102317205D01*
X83406977Y-102269586D01*
X83549834Y-102269586D01*
X83645072Y-102317205D01*
X83692691Y-102364824D01*
X83740310Y-102460062D01*
X83740310Y-102841015D01*
X83311739Y-101888634D02*
X83264120Y-101841015D01*
X83216501Y-101745777D01*
X83216501Y-101507681D01*
X83264120Y-101412443D01*
X83311739Y-101364824D01*
X83406977Y-101317205D01*
X83502215Y-101317205D01*
X83645072Y-101364824D01*
X84216501Y-101936253D01*
X84216501Y-101317205D01*
X76088501Y-91601586D02*
X75612310Y-91934920D01*
X76088501Y-92173015D02*
X75088501Y-92173015D01*
X75088501Y-91792062D01*
X75136120Y-91696824D01*
X75183739Y-91649205D01*
X75278977Y-91601586D01*
X75421834Y-91601586D01*
X75517072Y-91649205D01*
X75564691Y-91696824D01*
X75612310Y-91792062D01*
X75612310Y-92173015D01*
X75088501Y-91268253D02*
X75088501Y-90649205D01*
X75469453Y-90982539D01*
X75469453Y-90839681D01*
X75517072Y-90744443D01*
X75564691Y-90696824D01*
X75659930Y-90649205D01*
X75898025Y-90649205D01*
X75993263Y-90696824D01*
X76040882Y-90744443D01*
X76088501Y-90839681D01*
X76088501Y-91125396D01*
X76040882Y-91220634D01*
X75993263Y-91268253D01*
X107803334Y-149537143D02*
X107755715Y-149584762D01*
X107612858Y-149632381D01*
X107517620Y-149632381D01*
X107374762Y-149584762D01*
X107279524Y-149489524D01*
X107231905Y-149394286D01*
X107184286Y-149203810D01*
X107184286Y-149060952D01*
X107231905Y-148870476D01*
X107279524Y-148775238D01*
X107374762Y-148680000D01*
X107517620Y-148632381D01*
X107612858Y-148632381D01*
X107755715Y-148680000D01*
X107803334Y-148727619D01*
X108708096Y-148632381D02*
X108231905Y-148632381D01*
X108184286Y-149108571D01*
X108231905Y-149060952D01*
X108327143Y-149013333D01*
X108565239Y-149013333D01*
X108660477Y-149060952D01*
X108708096Y-149108571D01*
X108755715Y-149203810D01*
X108755715Y-149441905D01*
X108708096Y-149537143D01*
X108660477Y-149584762D01*
X108565239Y-149632381D01*
X108327143Y-149632381D01*
X108231905Y-149584762D01*
X108184286Y-149537143D01*
X107616667Y-83907381D02*
X107616667Y-84621667D01*
X107569047Y-84764524D01*
X107473809Y-84859762D01*
X107330952Y-84907381D01*
X107235714Y-84907381D01*
X108616667Y-84907381D02*
X108045238Y-84907381D01*
X108330952Y-84907381D02*
X108330952Y-83907381D01*
X108235714Y-84050238D01*
X108140476Y-84145476D01*
X108045238Y-84193095D01*
X68857905Y-140680381D02*
X68857905Y-139680381D01*
X69238858Y-139680381D01*
X69334096Y-139728000D01*
X69381715Y-139775619D01*
X69429334Y-139870857D01*
X69429334Y-140013714D01*
X69381715Y-140108952D01*
X69334096Y-140156571D01*
X69238858Y-140204190D01*
X68857905Y-140204190D01*
X70381715Y-140680381D02*
X69810286Y-140680381D01*
X70096000Y-140680381D02*
X70096000Y-139680381D01*
X70000762Y-139823238D01*
X69905524Y-139918476D01*
X69810286Y-139966095D01*
X90471810Y-106484381D02*
X90471810Y-105484381D01*
X90852763Y-105484381D01*
X90948001Y-105532000D01*
X90995620Y-105579619D01*
X91043239Y-105674857D01*
X91043239Y-105817714D01*
X90995620Y-105912952D01*
X90948001Y-105960571D01*
X90852763Y-106008190D01*
X90471810Y-106008190D01*
X91471810Y-106484381D02*
X91471810Y-105484381D01*
X92519429Y-106389143D02*
X92471810Y-106436762D01*
X92328953Y-106484381D01*
X92233715Y-106484381D01*
X92090857Y-106436762D01*
X91995619Y-106341524D01*
X91948000Y-106246286D01*
X91900381Y-106055810D01*
X91900381Y-105912952D01*
X91948000Y-105722476D01*
X91995619Y-105627238D01*
X92090857Y-105532000D01*
X92233715Y-105484381D01*
X92328953Y-105484381D01*
X92471810Y-105532000D01*
X92519429Y-105579619D01*
X93471810Y-106484381D02*
X92900381Y-106484381D01*
X93186095Y-106484381D02*
X93186095Y-105484381D01*
X93090857Y-105627238D01*
X92995619Y-105722476D01*
X92900381Y-105770095D01*
X114577905Y-140680381D02*
X114577905Y-139680381D01*
X114958858Y-139680381D01*
X115054096Y-139728000D01*
X115101715Y-139775619D01*
X115149334Y-139870857D01*
X115149334Y-140013714D01*
X115101715Y-140108952D01*
X115054096Y-140156571D01*
X114958858Y-140204190D01*
X114577905Y-140204190D01*
X115530286Y-139775619D02*
X115577905Y-139728000D01*
X115673143Y-139680381D01*
X115911239Y-139680381D01*
X116006477Y-139728000D01*
X116054096Y-139775619D01*
X116101715Y-139870857D01*
X116101715Y-139966095D01*
X116054096Y-140108952D01*
X115482667Y-140680381D01*
X116101715Y-140680381D01*
X90130381Y-132381524D02*
X91130381Y-131714857D01*
X90130381Y-131714857D02*
X91130381Y-132381524D01*
X91130381Y-130810095D02*
X91130381Y-131381524D01*
X91130381Y-131095810D02*
X90130381Y-131095810D01*
X90273238Y-131191048D01*
X90368476Y-131286286D01*
X90416095Y-131381524D01*
X96974921Y-90496615D02*
X95974921Y-90496615D01*
X95974921Y-90258520D01*
X96022540Y-90115662D01*
X96117778Y-90020424D01*
X96213016Y-89972805D01*
X96403492Y-89925186D01*
X96546350Y-89925186D01*
X96736826Y-89972805D01*
X96832064Y-90020424D01*
X96927302Y-90115662D01*
X96974921Y-90258520D01*
X96974921Y-90496615D01*
X96070159Y-89544234D02*
X96022540Y-89496615D01*
X95974921Y-89401377D01*
X95974921Y-89163281D01*
X96022540Y-89068043D01*
X96070159Y-89020424D01*
X96165397Y-88972805D01*
X96260635Y-88972805D01*
X96403492Y-89020424D01*
X96974921Y-89591853D01*
X96974921Y-88972805D01*
X118173143Y-145180666D02*
X118220762Y-145228285D01*
X118268381Y-145371142D01*
X118268381Y-145466380D01*
X118220762Y-145609238D01*
X118125524Y-145704476D01*
X118030286Y-145752095D01*
X117839810Y-145799714D01*
X117696952Y-145799714D01*
X117506476Y-145752095D01*
X117411238Y-145704476D01*
X117316000Y-145609238D01*
X117268381Y-145466380D01*
X117268381Y-145371142D01*
X117316000Y-145228285D01*
X117363619Y-145180666D01*
X117268381Y-144323523D02*
X117268381Y-144514000D01*
X117316000Y-144609238D01*
X117363619Y-144656857D01*
X117506476Y-144752095D01*
X117696952Y-144799714D01*
X118077905Y-144799714D01*
X118173143Y-144752095D01*
X118220762Y-144704476D01*
X118268381Y-144609238D01*
X118268381Y-144418761D01*
X118220762Y-144323523D01*
X118173143Y-144275904D01*
X118077905Y-144228285D01*
X117839810Y-144228285D01*
X117744571Y-144275904D01*
X117696952Y-144323523D01*
X117649333Y-144418761D01*
X117649333Y-144609238D01*
X117696952Y-144704476D01*
X117744571Y-144752095D01*
X117839810Y-144799714D01*
M02*
