M48
;DRILL file {KiCad 4.0.2+e4-6225~38~ubuntu15.10.1-stable} date mar 21 jun 2016 11:54:00 VET
;FORMAT={-:-/ absolute / inch / decimal}
FMAT,2
INCH,TZ
T1C0.028
T2C0.028
T3C0.030
T4C0.031
T5C0.032
T6C0.032
T7C0.039
T8C0.040
T9C0.091
%
G90
G05
M72
T1
X3.04Y-5.68
X3.22Y-5.68
X4.38Y-5.24
X4.38Y-5.44
X4.54Y-5.66
X4.54Y-5.7584
T2
X3.9001Y-3.32
X3.9001Y-3.72
T3
X3.44Y-3.84
X3.44Y-4.14
T4
X3.18Y-5.1
X3.18Y-5.22
X3.38Y-5.66
X3.62Y-4.38
X3.62Y-4.48
X3.62Y-4.58
X3.62Y-4.68
X3.62Y-4.78
X3.62Y-4.88
X3.62Y-4.98
X3.62Y-5.08
X3.62Y-5.18
X3.62Y-5.28
X3.62Y-5.38
X3.62Y-5.48
X3.62Y-5.58
X3.62Y-5.68
X3.92Y-4.38
X3.92Y-4.48
X3.92Y-4.58
X3.92Y-4.68
X3.92Y-4.78
X3.92Y-4.88
X3.92Y-4.98
X3.92Y-5.08
X3.92Y-5.18
X3.92Y-5.28
X3.92Y-5.38
X3.92Y-5.48
X3.92Y-5.58
X3.92Y-5.68
X4.16Y-5.26
X4.2016Y-5.7
X4.3Y-5.7
T5
X3.18Y-5.0016
X3.18Y-5.3184
X3.38Y-5.7584
X3.42Y-5.1052
X3.42Y-5.2548
X4.2584Y-5.26
T6
X4.2Y-3.6813
X4.2Y-3.76
X4.3Y-3.6813
X4.3Y-3.76
T7
X2.84Y-3.44
X2.84Y-3.74
X3.1Y-3.36
X3.1Y-3.46
X3.16Y-3.86
X3.16Y-4.16
X3.4Y-3.36
X3.4Y-3.46
X3.64Y-3.32
X3.64Y-3.62
T8
X2.74Y-4.32
X2.74Y-4.42
X2.74Y-4.52
X2.74Y-4.62
X2.74Y-4.72
X2.74Y-4.82
X2.74Y-4.92
X2.74Y-5.02
X2.74Y-5.12
X2.74Y-5.22
X2.74Y-5.32
X4.54Y-4.32
X4.54Y-4.42
X4.54Y-4.52
X4.54Y-4.62
X4.54Y-4.72
X4.54Y-4.82
X4.54Y-4.92
X4.54Y-5.02
X4.54Y-5.12
X4.54Y-5.22
X4.54Y-5.32
T9
X4.0138Y-3.575
X4.4862Y-3.575
T0
M30
