(kicad_pcb (version 4) (host pcbnew 4.1.0-alpha+201606220816+6945~45~ubuntu15.10.1-product)

  (general
    (links 54)
    (no_connects 0)
    (area 0 0 0 0)
    (thickness 1.6)
    (drawings 9)
    (tracks 257)
    (zones 0)
    (modules 18)
    (nets 31)
  )

  (page A4)
  (layers
    (0 F.Cu signal)
    (31 B.Cu signal)
    (32 B.Adhes user)
    (33 F.Adhes user)
    (34 B.Paste user)
    (35 F.Paste user)
    (36 B.SilkS user)
    (37 F.SilkS user)
    (38 B.Mask user)
    (39 F.Mask user)
    (40 Dwgs.User user)
    (41 Cmts.User user)
    (42 Eco1.User user)
    (43 Eco2.User user)
    (44 Edge.Cuts user)
    (45 Margin user)
    (46 B.CrtYd user)
    (47 F.CrtYd user)
    (48 B.Fab user)
    (49 F.Fab user)
  )

  (setup
    (last_trace_width 0.7)
    (trace_clearance 0.3)
    (zone_clearance 0.508)
    (zone_45_only yes)
    (trace_min 0.2)
    (segment_width 0.2)
    (edge_width 0.15)
    (via_size 1.2)
    (via_drill 0.7)
    (via_min_size 0.4)
    (via_min_drill 0.3)
    (uvia_size 0.4)
    (uvia_drill 0.2)
    (uvias_allowed no)
    (uvia_min_size 0.2)
    (uvia_min_drill 0.1)
    (pcb_text_width 0.3)
    (pcb_text_size 1.5 1.5)
    (mod_edge_width 0.15)
    (mod_text_size 1 1)
    (mod_text_width 0.15)
    (pad_size 1.524 1.524)
    (pad_drill 0.762)
    (pad_to_mask_clearance 0.2)
    (aux_axis_origin 0 0)
    (grid_origin 145.796 96.012)
    (visible_elements FFFFFF7F)
    (pcbplotparams
      (layerselection 0x008a0_80000000)
      (usegerberextensions false)
      (excludeedgelayer true)
      (linewidth 0.100000)
      (plotframeref false)
      (viasonmask false)
      (mode 1)
      (useauxorigin false)
      (hpglpennumber 1)
      (hpglpenspeed 20)
      (hpglpendiameter 15)
      (psnegative false)
      (psa4output false)
      (plotreference true)
      (plotvalue true)
      (plotinvisibletext false)
      (padsonsilk true)
      (subtractmaskfromsilk false)
      (outputformat 1)
      (mirror false)
      (drillshape 0)
      (scaleselection 1)
      (outputdirectory output/gerber/))
  )

  (net 0 "")
  (net 1 "Net-(C1-Pad1)")
  (net 2 GND)
  (net 3 +5V)
  (net 4 Rc2)
  (net 5 Rc1)
  (net 6 Rc0)
  (net 7 Ra5)
  (net 8 Ra3)
  (net 9 Ra2)
  (net 10 Ra1)
  (net 11 Ra0)
  (net 12 Rc6)
  (net 13 Rc7)
  (net 14 Rb0)
  (net 15 Rb1)
  (net 16 Rb2)
  (net 17 Rb3)
  (net 18 Rb4)
  (net 19 Rb5)
  (net 20 Rb6)
  (net 21 Rb7)
  (net 22 "Net-(C2-Pad2)")
  (net 23 "Net-(C3-Pad2)")
  (net 24 "Net-(D1-Pad2)")
  (net 25 Vusb)
  (net 26 "Net-(D3-Pad2)")
  (net 27 D-)
  (net 28 D+)
  (net 29 "Net-(PIC1-Pad1)")
  (net 30 "Net-(PIC1-Pad6)")

  (net_class Default "This is the default net class."
    (clearance 0.3)
    (trace_width 0.7)
    (via_dia 1.2)
    (via_drill 0.7)
    (uvia_dia 0.4)
    (uvia_drill 0.2)
    (add_net +5V)
    (add_net D+)
    (add_net D-)
    (add_net GND)
    (add_net "Net-(C1-Pad1)")
    (add_net "Net-(C2-Pad2)")
    (add_net "Net-(C3-Pad2)")
    (add_net "Net-(D1-Pad2)")
    (add_net "Net-(D3-Pad2)")
    (add_net "Net-(PIC1-Pad1)")
    (add_net "Net-(PIC1-Pad6)")
    (add_net Ra0)
    (add_net Ra1)
    (add_net Ra2)
    (add_net Ra3)
    (add_net Ra5)
    (add_net Rb0)
    (add_net Rb1)
    (add_net Rb2)
    (add_net Rb3)
    (add_net Rb4)
    (add_net Rb5)
    (add_net Rb6)
    (add_net Rb7)
    (add_net Rc0)
    (add_net Rc1)
    (add_net Rc2)
    (add_net Rc6)
    (add_net Rc7)
    (add_net Vusb)
  )

  (module Capacitors_ThroughHole:C_Disc_D3_P2.5 (layer F.Cu) (tedit 0) (tstamp 576801E6)
    (at 80.772 129.54 90)
    (descr "Capacitor 3mm Disc, Pitch 2.5mm")
    (tags Capacitor)
    (path /5767F356)
    (fp_text reference C1 (at 1.25 -2.5 90) (layer F.SilkS)
      (effects (font (size 1 1) (thickness 0.15)))
    )
    (fp_text value 22pF (at 1.25 2.5 90) (layer F.Fab)
      (effects (font (size 1 1) (thickness 0.15)))
    )
    (fp_line (start -0.9 -1.5) (end 3.4 -1.5) (layer F.CrtYd) (width 0.05))
    (fp_line (start 3.4 -1.5) (end 3.4 1.5) (layer F.CrtYd) (width 0.05))
    (fp_line (start 3.4 1.5) (end -0.9 1.5) (layer F.CrtYd) (width 0.05))
    (fp_line (start -0.9 1.5) (end -0.9 -1.5) (layer F.CrtYd) (width 0.05))
    (fp_line (start -0.25 -1.25) (end 2.75 -1.25) (layer F.SilkS) (width 0.15))
    (fp_line (start 2.75 1.25) (end -0.25 1.25) (layer F.SilkS) (width 0.15))
    (pad 1 thru_hole rect (at 0 0 90) (size 1.3 1.3) (drill 0.8) (layers *.Cu *.Mask F.SilkS)
      (net 1 "Net-(C1-Pad1)"))
    (pad 2 thru_hole circle (at 2.5 0 90) (size 1.3 1.3) (drill 0.8001) (layers *.Cu *.Mask F.SilkS)
      (net 2 GND))
    (model Capacitors_ThroughHole.3dshapes/C_Disc_D3_P2.5.wrl
      (at (xyz 0.0492126 0 0))
      (scale (xyz 1 1 1))
      (rotate (xyz 0 0 0))
    )
  )

  (module Capacitors_ThroughHole:C_Disc_D3_P2.5 (layer F.Cu) (tedit 0) (tstamp 576801EC)
    (at 80.772 132.588 270)
    (descr "Capacitor 3mm Disc, Pitch 2.5mm")
    (tags Capacitor)
    (path /5767F39A)
    (fp_text reference C2 (at 1.25 -2.5 270) (layer F.SilkS)
      (effects (font (size 1 1) (thickness 0.15)))
    )
    (fp_text value 22pF (at 1.25 2.5 270) (layer F.Fab)
      (effects (font (size 1 1) (thickness 0.15)))
    )
    (fp_line (start -0.9 -1.5) (end 3.4 -1.5) (layer F.CrtYd) (width 0.05))
    (fp_line (start 3.4 -1.5) (end 3.4 1.5) (layer F.CrtYd) (width 0.05))
    (fp_line (start 3.4 1.5) (end -0.9 1.5) (layer F.CrtYd) (width 0.05))
    (fp_line (start -0.9 1.5) (end -0.9 -1.5) (layer F.CrtYd) (width 0.05))
    (fp_line (start -0.25 -1.25) (end 2.75 -1.25) (layer F.SilkS) (width 0.15))
    (fp_line (start 2.75 1.25) (end -0.25 1.25) (layer F.SilkS) (width 0.15))
    (pad 1 thru_hole rect (at 0 0 270) (size 1.3 1.3) (drill 0.8) (layers *.Cu *.Mask F.SilkS)
      (net 2 GND))
    (pad 2 thru_hole circle (at 2.5 0 270) (size 1.3 1.3) (drill 0.8001) (layers *.Cu *.Mask F.SilkS)
      (net 22 "Net-(C2-Pad2)"))
    (model Capacitors_ThroughHole.3dshapes/C_Disc_D3_P2.5.wrl
      (at (xyz 0.0492126 0 0))
      (scale (xyz 1 1 1))
      (rotate (xyz 0 0 0))
    )
  )

  (module Capacitors_ThroughHole:C_Disc_D3_P2.5 (layer F.Cu) (tedit 0) (tstamp 576801F2)
    (at 85.852 143.764 270)
    (descr "Capacitor 3mm Disc, Pitch 2.5mm")
    (tags Capacitor)
    (path /5767F1EF)
    (fp_text reference C3 (at 1.25 -2.5 270) (layer F.SilkS)
      (effects (font (size 1 1) (thickness 0.15)))
    )
    (fp_text value 220nF (at 1.25 2.5 270) (layer F.Fab)
      (effects (font (size 1 1) (thickness 0.15)))
    )
    (fp_line (start -0.9 -1.5) (end 3.4 -1.5) (layer F.CrtYd) (width 0.05))
    (fp_line (start 3.4 -1.5) (end 3.4 1.5) (layer F.CrtYd) (width 0.05))
    (fp_line (start 3.4 1.5) (end -0.9 1.5) (layer F.CrtYd) (width 0.05))
    (fp_line (start -0.9 1.5) (end -0.9 -1.5) (layer F.CrtYd) (width 0.05))
    (fp_line (start -0.25 -1.25) (end 2.75 -1.25) (layer F.SilkS) (width 0.15))
    (fp_line (start 2.75 1.25) (end -0.25 1.25) (layer F.SilkS) (width 0.15))
    (pad 1 thru_hole rect (at 0 0 270) (size 1.3 1.3) (drill 0.8) (layers *.Cu *.Mask F.SilkS)
      (net 2 GND))
    (pad 2 thru_hole circle (at 2.5 0 270) (size 1.3 1.3) (drill 0.8001) (layers *.Cu *.Mask F.SilkS)
      (net 23 "Net-(C3-Pad2)"))
    (model Capacitors_ThroughHole.3dshapes/C_Disc_D3_P2.5.wrl
      (at (xyz 0.0492126 0 0))
      (scale (xyz 1 1 1))
      (rotate (xyz 0 0 0))
    )
  )

  (module Capacitors_ThroughHole:C_Disc_D3_P2.5 (layer F.Cu) (tedit 0) (tstamp 576801F8)
    (at 105.664 133.604)
    (descr "Capacitor 3mm Disc, Pitch 2.5mm")
    (tags Capacitor)
    (path /5767F2C3)
    (fp_text reference C4 (at 1.25 -2.5) (layer F.SilkS)
      (effects (font (size 1 1) (thickness 0.15)))
    )
    (fp_text value 100nf (at 1.25 2.5) (layer F.Fab)
      (effects (font (size 1 1) (thickness 0.15)))
    )
    (fp_line (start -0.9 -1.5) (end 3.4 -1.5) (layer F.CrtYd) (width 0.05))
    (fp_line (start 3.4 -1.5) (end 3.4 1.5) (layer F.CrtYd) (width 0.05))
    (fp_line (start 3.4 1.5) (end -0.9 1.5) (layer F.CrtYd) (width 0.05))
    (fp_line (start -0.9 1.5) (end -0.9 -1.5) (layer F.CrtYd) (width 0.05))
    (fp_line (start -0.25 -1.25) (end 2.75 -1.25) (layer F.SilkS) (width 0.15))
    (fp_line (start 2.75 1.25) (end -0.25 1.25) (layer F.SilkS) (width 0.15))
    (pad 1 thru_hole rect (at 0 0) (size 1.3 1.3) (drill 0.8) (layers *.Cu *.Mask F.SilkS)
      (net 2 GND))
    (pad 2 thru_hole circle (at 2.5 0) (size 1.3 1.3) (drill 0.8001) (layers *.Cu *.Mask F.SilkS)
      (net 3 +5V))
    (model Capacitors_ThroughHole.3dshapes/C_Disc_D3_P2.5.wrl
      (at (xyz 0.0492126 0 0))
      (scale (xyz 1 1 1))
      (rotate (xyz 0 0 0))
    )
  )

  (module LEDs:LED-5MM (layer F.Cu) (tedit 5570F7EA) (tstamp 57680204)
    (at 86.36 87.884 90)
    (descr "LED 5mm round vertical")
    (tags "LED 5mm round vertical")
    (path /5767F76B)
    (fp_text reference D1 (at 1.524 4.064 90) (layer F.SilkS)
      (effects (font (size 1 1) (thickness 0.15)))
    )
    (fp_text value LED (at 1.524 -3.937 90) (layer F.Fab)
      (effects (font (size 1 1) (thickness 0.15)))
    )
    (fp_line (start -1.5 -1.55) (end -1.5 1.55) (layer F.CrtYd) (width 0.05))
    (fp_arc (start 1.3 0) (end -1.5 1.55) (angle -302) (layer F.CrtYd) (width 0.05))
    (fp_arc (start 1.27 0) (end -1.23 -1.5) (angle 297.5) (layer F.SilkS) (width 0.15))
    (fp_line (start -1.23 1.5) (end -1.23 -1.5) (layer F.SilkS) (width 0.15))
    (fp_circle (center 1.27 0) (end 0.97 -2.5) (layer F.SilkS) (width 0.15))
    (fp_text user K (at -1.905 1.905 90) (layer F.SilkS)
      (effects (font (size 1 1) (thickness 0.15)))
    )
    (pad 1 thru_hole rect (at 0 0 180) (size 2 1.9) (drill 1.00076) (layers *.Cu *.Mask F.SilkS)
      (net 3 +5V))
    (pad 2 thru_hole circle (at 2.54 0 90) (size 1.9 1.9) (drill 1.00076) (layers *.Cu *.Mask F.SilkS)
      (net 24 "Net-(D1-Pad2)"))
    (model LEDs.3dshapes/LED-5MM.wrl
      (at (xyz 0.05 0 0))
      (scale (xyz 1 1 1))
      (rotate (xyz 0 0 90))
    )
  )

  (module LEDs:LED-5MM (layer F.Cu) (tedit 5570F7EA) (tstamp 57680210)
    (at 78.74 87.884 90)
    (descr "LED 5mm round vertical")
    (tags "LED 5mm round vertical")
    (path /576815B9)
    (fp_text reference D3 (at 1.524 4.064 90) (layer F.SilkS)
      (effects (font (size 1 1) (thickness 0.15)))
    )
    (fp_text value LED (at 1.524 -3.937 90) (layer F.Fab)
      (effects (font (size 1 1) (thickness 0.15)))
    )
    (fp_line (start -1.5 -1.55) (end -1.5 1.55) (layer F.CrtYd) (width 0.05))
    (fp_arc (start 1.3 0) (end -1.5 1.55) (angle -302) (layer F.CrtYd) (width 0.05))
    (fp_arc (start 1.27 0) (end -1.23 -1.5) (angle 297.5) (layer F.SilkS) (width 0.15))
    (fp_line (start -1.23 1.5) (end -1.23 -1.5) (layer F.SilkS) (width 0.15))
    (fp_circle (center 1.27 0) (end 0.97 -2.5) (layer F.SilkS) (width 0.15))
    (fp_text user K (at -1.905 1.905 90) (layer F.SilkS)
      (effects (font (size 1 1) (thickness 0.15)))
    )
    (pad 1 thru_hole rect (at 0 0 180) (size 2 1.9) (drill 1.00076) (layers *.Cu *.Mask F.SilkS)
      (net 3 +5V))
    (pad 2 thru_hole circle (at 2.54 0 90) (size 1.9 1.9) (drill 1.00076) (layers *.Cu *.Mask F.SilkS)
      (net 26 "Net-(D3-Pad2)"))
    (model LEDs.3dshapes/LED-5MM.wrl
      (at (xyz 0.05 0 0))
      (scale (xyz 1 1 1))
      (rotate (xyz 0 0 90))
    )
  )

  (module Buttons_Switches_ThroughHole:SW_DIP_x1_Slide (layer F.Cu) (tedit 54C4BC96) (tstamp 57680250)
    (at 87.376 105.156)
    (descr "CTS Electrocomponents, Series 206/208")
    (path /576801E5)
    (fp_text reference SW1 (at 0 -10) (layer F.SilkS)
      (effects (font (size 1 1) (thickness 0.15)))
    )
    (fp_text value Reset (at 0.5 2.4) (layer F.Fab)
      (effects (font (size 1 1) (thickness 0.15)))
    )
    (fp_line (start 2.5 1.55) (end -2.5 1.55) (layer F.CrtYd) (width 0.05))
    (fp_line (start -2.5 1.55) (end -2.5 -9.15) (layer F.CrtYd) (width 0.05))
    (fp_line (start -2.5 -9.15) (end 2.5 -9.15) (layer F.CrtYd) (width 0.05))
    (fp_line (start 2.5 -9.15) (end 2.5 1.55) (layer F.CrtYd) (width 0.05))
    (fp_line (start -2.15 -8.83) (end 2.15 -8.83) (layer F.SilkS) (width 0.15))
    (fp_line (start 0 1.21) (end 2.15 1.21) (layer F.SilkS) (width 0.15))
    (fp_line (start -2.15 -8.83) (end -2.15 1.21) (layer F.SilkS) (width 0.15))
    (fp_line (start 2.15 -8.83) (end 2.15 1.21) (layer F.SilkS) (width 0.15))
    (fp_line (start -0.64 -3.81) (end 0.64 -3.81) (layer F.SilkS) (width 0.15))
    (fp_line (start -0.64 -5.84) (end -0.64 -1.78) (layer F.SilkS) (width 0.15))
    (fp_line (start -0.64 -1.78) (end 0.64 -1.78) (layer F.SilkS) (width 0.15))
    (fp_line (start 0.64 -1.78) (end 0.64 -5.84) (layer F.SilkS) (width 0.15))
    (fp_line (start 0.64 -5.84) (end -0.64 -5.84) (layer F.SilkS) (width 0.15))
    (pad 1 thru_hole rect (at 0 0) (size 1.524 1.824) (drill 0.762) (layers *.Cu *.Mask F.SilkS)
      (net 29 "Net-(PIC1-Pad1)"))
    (pad 2 thru_hole oval (at 0 -7.62) (size 1.524 1.824) (drill 0.762) (layers *.Cu *.Mask F.SilkS)
      (net 2 GND))
    (model Buttons_Switches_ThroughHole.3dshapes/SW_DIP_x1_Slide.wrl
      (at (xyz 0 0 0))
      (scale (xyz 1 1 1))
      (rotate (xyz 0 0 0))
    )
  )

  (module Capacitors_ThroughHole:C_Radial_D6.3_L11.2_P2.5 (layer F.Cu) (tedit 0) (tstamp 5769492E)
    (at 109.22 144.78 180)
    (descr "Radial Electrolytic Capacitor, Diameter 6.3mm x Length 11.2mm, Pitch 2.5mm")
    (tags "Electrolytic Capacitor")
    (path /5767F3D4)
    (fp_text reference C5 (at 1.25 -4.4 180) (layer F.SilkS)
      (effects (font (size 1 1) (thickness 0.15)))
    )
    (fp_text value 10uF (at 1.25 4.4 180) (layer F.Fab)
      (effects (font (size 1 1) (thickness 0.15)))
    )
    (fp_line (start 1.325 -3.149) (end 1.325 3.149) (layer F.SilkS) (width 0.15))
    (fp_line (start 1.465 -3.143) (end 1.465 3.143) (layer F.SilkS) (width 0.15))
    (fp_line (start 1.605 -3.13) (end 1.605 -0.446) (layer F.SilkS) (width 0.15))
    (fp_line (start 1.605 0.446) (end 1.605 3.13) (layer F.SilkS) (width 0.15))
    (fp_line (start 1.745 -3.111) (end 1.745 -0.656) (layer F.SilkS) (width 0.15))
    (fp_line (start 1.745 0.656) (end 1.745 3.111) (layer F.SilkS) (width 0.15))
    (fp_line (start 1.885 -3.085) (end 1.885 -0.789) (layer F.SilkS) (width 0.15))
    (fp_line (start 1.885 0.789) (end 1.885 3.085) (layer F.SilkS) (width 0.15))
    (fp_line (start 2.025 -3.053) (end 2.025 -0.88) (layer F.SilkS) (width 0.15))
    (fp_line (start 2.025 0.88) (end 2.025 3.053) (layer F.SilkS) (width 0.15))
    (fp_line (start 2.165 -3.014) (end 2.165 -0.942) (layer F.SilkS) (width 0.15))
    (fp_line (start 2.165 0.942) (end 2.165 3.014) (layer F.SilkS) (width 0.15))
    (fp_line (start 2.305 -2.968) (end 2.305 -0.981) (layer F.SilkS) (width 0.15))
    (fp_line (start 2.305 0.981) (end 2.305 2.968) (layer F.SilkS) (width 0.15))
    (fp_line (start 2.445 -2.915) (end 2.445 -0.998) (layer F.SilkS) (width 0.15))
    (fp_line (start 2.445 0.998) (end 2.445 2.915) (layer F.SilkS) (width 0.15))
    (fp_line (start 2.585 -2.853) (end 2.585 -0.996) (layer F.SilkS) (width 0.15))
    (fp_line (start 2.585 0.996) (end 2.585 2.853) (layer F.SilkS) (width 0.15))
    (fp_line (start 2.725 -2.783) (end 2.725 -0.974) (layer F.SilkS) (width 0.15))
    (fp_line (start 2.725 0.974) (end 2.725 2.783) (layer F.SilkS) (width 0.15))
    (fp_line (start 2.865 -2.704) (end 2.865 -0.931) (layer F.SilkS) (width 0.15))
    (fp_line (start 2.865 0.931) (end 2.865 2.704) (layer F.SilkS) (width 0.15))
    (fp_line (start 3.005 -2.616) (end 3.005 -0.863) (layer F.SilkS) (width 0.15))
    (fp_line (start 3.005 0.863) (end 3.005 2.616) (layer F.SilkS) (width 0.15))
    (fp_line (start 3.145 -2.516) (end 3.145 -0.764) (layer F.SilkS) (width 0.15))
    (fp_line (start 3.145 0.764) (end 3.145 2.516) (layer F.SilkS) (width 0.15))
    (fp_line (start 3.285 -2.404) (end 3.285 -0.619) (layer F.SilkS) (width 0.15))
    (fp_line (start 3.285 0.619) (end 3.285 2.404) (layer F.SilkS) (width 0.15))
    (fp_line (start 3.425 -2.279) (end 3.425 -0.38) (layer F.SilkS) (width 0.15))
    (fp_line (start 3.425 0.38) (end 3.425 2.279) (layer F.SilkS) (width 0.15))
    (fp_line (start 3.565 -2.136) (end 3.565 2.136) (layer F.SilkS) (width 0.15))
    (fp_line (start 3.705 -1.974) (end 3.705 1.974) (layer F.SilkS) (width 0.15))
    (fp_line (start 3.845 -1.786) (end 3.845 1.786) (layer F.SilkS) (width 0.15))
    (fp_line (start 3.985 -1.563) (end 3.985 1.563) (layer F.SilkS) (width 0.15))
    (fp_line (start 4.125 -1.287) (end 4.125 1.287) (layer F.SilkS) (width 0.15))
    (fp_line (start 4.265 -0.912) (end 4.265 0.912) (layer F.SilkS) (width 0.15))
    (fp_circle (center 2.5 0) (end 2.5 -1) (layer F.SilkS) (width 0.15))
    (fp_circle (center 1.25 0) (end 1.25 -3.1875) (layer F.SilkS) (width 0.15))
    (fp_circle (center 1.25 0) (end 1.25 -3.4) (layer F.CrtYd) (width 0.05))
    (pad 2 thru_hole circle (at 2.5 0 180) (size 1.3 1.3) (drill 0.8) (layers *.Cu *.Mask F.SilkS)
      (net 2 GND))
    (pad 1 thru_hole rect (at 0 0 180) (size 1.3 1.3) (drill 0.8) (layers *.Cu *.Mask F.SilkS)
      (net 3 +5V))
    (model Capacitors_ThroughHole.3dshapes/C_Radial_D6.3_L11.2_P2.5.wrl
      (at (xyz 0 0 0))
      (scale (xyz 1 1 1))
      (rotate (xyz 0 0 0))
    )
  )

  (module Connect:USB_B (layer F.Cu) (tedit 55B36073) (tstamp 5769493C)
    (at 106.68 95.504 90)
    (descr "USB B connector")
    (tags "USB_B USB_DEV")
    (path /57695B64)
    (fp_text reference J1 (at 11.049 1.27 180) (layer F.SilkS)
      (effects (font (size 1 1) (thickness 0.15)))
    )
    (fp_text value USB_1 (at 4.699 1.27 180) (layer F.Fab)
      (effects (font (size 1 1) (thickness 0.15)))
    )
    (fp_line (start 15.25 8.9) (end -2.3 8.9) (layer F.CrtYd) (width 0.05))
    (fp_line (start -2.3 8.9) (end -2.3 -6.35) (layer F.CrtYd) (width 0.05))
    (fp_line (start -2.3 -6.35) (end 15.25 -6.35) (layer F.CrtYd) (width 0.05))
    (fp_line (start 15.25 -6.35) (end 15.25 8.9) (layer F.CrtYd) (width 0.05))
    (fp_line (start 6.35 7.366) (end 14.986 7.366) (layer F.SilkS) (width 0.15))
    (fp_line (start -2.032 7.366) (end 3.048 7.366) (layer F.SilkS) (width 0.15))
    (fp_line (start 6.35 -4.826) (end 14.986 -4.826) (layer F.SilkS) (width 0.15))
    (fp_line (start -2.032 -4.826) (end 3.048 -4.826) (layer F.SilkS) (width 0.15))
    (fp_line (start 14.986 -4.826) (end 14.986 7.366) (layer F.SilkS) (width 0.15))
    (fp_line (start -2.032 7.366) (end -2.032 -4.826) (layer F.SilkS) (width 0.15))
    (pad 2 thru_hole circle (at 0 2.54) (size 1.524 1.524) (drill 0.8128) (layers *.Cu *.Mask F.SilkS)
      (net 27 D-))
    (pad 1 thru_hole circle (at 0 0) (size 1.524 1.524) (drill 0.8128) (layers *.Cu *.Mask F.SilkS)
      (net 25 Vusb))
    (pad 4 thru_hole circle (at 1.99898 0) (size 1.524 1.524) (drill 0.8128) (layers *.Cu *.Mask F.SilkS)
      (net 2 GND))
    (pad 3 thru_hole circle (at 1.99898 2.54) (size 1.524 1.524) (drill 0.8128) (layers *.Cu *.Mask F.SilkS)
      (net 28 D+))
    (pad 5 thru_hole circle (at 4.699 7.26948) (size 2.70002 2.70002) (drill 2.30124) (layers *.Cu *.Mask F.SilkS)
      (net 2 GND))
    (pad 5 thru_hole circle (at 4.699 -4.72948) (size 2.70002 2.70002) (drill 2.30124) (layers *.Cu *.Mask F.SilkS)
      (net 2 GND))
    (model Connect.3dshapes/USB_B.wrl
      (at (xyz 0.185 -0.05 0.001))
      (scale (xyz 0.3937 0.3937 0.3937))
      (rotate (xyz 0 0 -90))
    )
  )

  (module Pin_Headers:Pin_Header_Straight_1x11 (layer F.Cu) (tedit 0) (tstamp 5769493D)
    (at 69.596 135.128 180)
    (descr "Through hole pin header")
    (tags "pin header")
    (path /5769917A)
    (fp_text reference P1 (at 0 -5.1 180) (layer F.SilkS)
      (effects (font (size 1 1) (thickness 0.15)))
    )
    (fp_text value CONN_11 (at 0 -3.1 180) (layer F.Fab)
      (effects (font (size 1 1) (thickness 0.15)))
    )
    (fp_line (start -1.75 -1.75) (end -1.75 27.15) (layer F.CrtYd) (width 0.05))
    (fp_line (start 1.75 -1.75) (end 1.75 27.15) (layer F.CrtYd) (width 0.05))
    (fp_line (start -1.75 -1.75) (end 1.75 -1.75) (layer F.CrtYd) (width 0.05))
    (fp_line (start -1.75 27.15) (end 1.75 27.15) (layer F.CrtYd) (width 0.05))
    (fp_line (start 1.27 1.27) (end 1.27 26.67) (layer F.SilkS) (width 0.15))
    (fp_line (start 1.27 26.67) (end -1.27 26.67) (layer F.SilkS) (width 0.15))
    (fp_line (start -1.27 26.67) (end -1.27 1.27) (layer F.SilkS) (width 0.15))
    (fp_line (start 1.55 -1.55) (end 1.55 0) (layer F.SilkS) (width 0.15))
    (fp_line (start 1.27 1.27) (end -1.27 1.27) (layer F.SilkS) (width 0.15))
    (fp_line (start -1.55 0) (end -1.55 -1.55) (layer F.SilkS) (width 0.15))
    (fp_line (start -1.55 -1.55) (end 1.55 -1.55) (layer F.SilkS) (width 0.15))
    (pad 1 thru_hole rect (at 0 0 180) (size 2.032 1.7272) (drill 1.016) (layers *.Cu *.Mask F.SilkS)
      (net 2 GND))
    (pad 2 thru_hole oval (at 0 2.54 180) (size 2.032 1.7272) (drill 1.016) (layers *.Cu *.Mask F.SilkS)
      (net 12 Rc6))
    (pad 3 thru_hole oval (at 0 5.08 180) (size 2.032 1.7272) (drill 1.016) (layers *.Cu *.Mask F.SilkS)
      (net 4 Rc2))
    (pad 4 thru_hole oval (at 0 7.62 180) (size 2.032 1.7272) (drill 1.016) (layers *.Cu *.Mask F.SilkS)
      (net 5 Rc1))
    (pad 5 thru_hole oval (at 0 10.16 180) (size 2.032 1.7272) (drill 1.016) (layers *.Cu *.Mask F.SilkS)
      (net 6 Rc0))
    (pad 6 thru_hole oval (at 0 12.7 180) (size 2.032 1.7272) (drill 1.016) (layers *.Cu *.Mask F.SilkS)
      (net 7 Ra5))
    (pad 7 thru_hole oval (at 0 15.24 180) (size 2.032 1.7272) (drill 1.016) (layers *.Cu *.Mask F.SilkS)
      (net 8 Ra3))
    (pad 8 thru_hole oval (at 0 17.78 180) (size 2.032 1.7272) (drill 1.016) (layers *.Cu *.Mask F.SilkS)
      (net 9 Ra2))
    (pad 9 thru_hole oval (at 0 20.32 180) (size 2.032 1.7272) (drill 1.016) (layers *.Cu *.Mask F.SilkS)
      (net 10 Ra1))
    (pad 10 thru_hole oval (at 0 22.86 180) (size 2.032 1.7272) (drill 1.016) (layers *.Cu *.Mask F.SilkS)
      (net 11 Ra0))
    (pad 11 thru_hole oval (at 0 25.4 180) (size 2.032 1.7272) (drill 1.016) (layers *.Cu *.Mask F.SilkS)
      (net 3 +5V))
    (model Pin_Headers.3dshapes/Pin_Header_Straight_1x11.wrl
      (at (xyz 0 -0.5 0))
      (scale (xyz 1 1 1))
      (rotate (xyz 0 0 90))
    )
  )

  (module Housings_DIP:DIP-28_W7.62mm_LongPads (layer F.Cu) (tedit 54130A77) (tstamp 57694978)
    (at 91.948 111.252)
    (descr "28-lead dip package, row spacing 7.62 mm (300 mils), longer pads")
    (tags "dil dip 2.54 300")
    (path /5767EFDD)
    (fp_text reference PIC1 (at 0 -5.22) (layer F.SilkS)
      (effects (font (size 1 1) (thickness 0.15)))
    )
    (fp_text value PIC18F2550 (at 0 -3.72) (layer F.Fab)
      (effects (font (size 1 1) (thickness 0.15)))
    )
    (fp_line (start -1.4 -2.45) (end -1.4 35.5) (layer F.CrtYd) (width 0.05))
    (fp_line (start 9 -2.45) (end 9 35.5) (layer F.CrtYd) (width 0.05))
    (fp_line (start -1.4 -2.45) (end 9 -2.45) (layer F.CrtYd) (width 0.05))
    (fp_line (start -1.4 35.5) (end 9 35.5) (layer F.CrtYd) (width 0.05))
    (fp_line (start 0.135 -2.295) (end 0.135 -1.025) (layer F.SilkS) (width 0.15))
    (fp_line (start 7.485 -2.295) (end 7.485 -1.025) (layer F.SilkS) (width 0.15))
    (fp_line (start 7.485 35.315) (end 7.485 34.045) (layer F.SilkS) (width 0.15))
    (fp_line (start 0.135 35.315) (end 0.135 34.045) (layer F.SilkS) (width 0.15))
    (fp_line (start 0.135 -2.295) (end 7.485 -2.295) (layer F.SilkS) (width 0.15))
    (fp_line (start 0.135 35.315) (end 7.485 35.315) (layer F.SilkS) (width 0.15))
    (fp_line (start 0.135 -1.025) (end -1.15 -1.025) (layer F.SilkS) (width 0.15))
    (pad 1 thru_hole oval (at 0 0) (size 2.3 1.6) (drill 0.8) (layers *.Cu *.Mask F.SilkS)
      (net 29 "Net-(PIC1-Pad1)"))
    (pad 2 thru_hole oval (at 0 2.54) (size 2.3 1.6) (drill 0.8) (layers *.Cu *.Mask F.SilkS)
      (net 11 Ra0))
    (pad 3 thru_hole oval (at 0 5.08) (size 2.3 1.6) (drill 0.8) (layers *.Cu *.Mask F.SilkS)
      (net 10 Ra1))
    (pad 4 thru_hole oval (at 0 7.62) (size 2.3 1.6) (drill 0.8) (layers *.Cu *.Mask F.SilkS)
      (net 9 Ra2))
    (pad 5 thru_hole oval (at 0 10.16) (size 2.3 1.6) (drill 0.8) (layers *.Cu *.Mask F.SilkS)
      (net 8 Ra3))
    (pad 6 thru_hole oval (at 0 12.7) (size 2.3 1.6) (drill 0.8) (layers *.Cu *.Mask F.SilkS)
      (net 30 "Net-(PIC1-Pad6)"))
    (pad 7 thru_hole oval (at 0 15.24) (size 2.3 1.6) (drill 0.8) (layers *.Cu *.Mask F.SilkS)
      (net 7 Ra5))
    (pad 8 thru_hole oval (at 0 17.78) (size 2.3 1.6) (drill 0.8) (layers *.Cu *.Mask F.SilkS)
      (net 2 GND))
    (pad 9 thru_hole oval (at 0 20.32) (size 2.3 1.6) (drill 0.8) (layers *.Cu *.Mask F.SilkS)
      (net 1 "Net-(C1-Pad1)"))
    (pad 10 thru_hole oval (at 0 22.86) (size 2.3 1.6) (drill 0.8) (layers *.Cu *.Mask F.SilkS)
      (net 22 "Net-(C2-Pad2)"))
    (pad 11 thru_hole oval (at 0 25.4) (size 2.3 1.6) (drill 0.8) (layers *.Cu *.Mask F.SilkS)
      (net 6 Rc0))
    (pad 12 thru_hole oval (at 0 27.94) (size 2.3 1.6) (drill 0.8) (layers *.Cu *.Mask F.SilkS)
      (net 5 Rc1))
    (pad 13 thru_hole oval (at 0 30.48) (size 2.3 1.6) (drill 0.8) (layers *.Cu *.Mask F.SilkS)
      (net 4 Rc2))
    (pad 14 thru_hole oval (at 0 33.02) (size 2.3 1.6) (drill 0.8) (layers *.Cu *.Mask F.SilkS)
      (net 23 "Net-(C3-Pad2)"))
    (pad 15 thru_hole oval (at 7.62 33.02) (size 2.3 1.6) (drill 0.8) (layers *.Cu *.Mask F.SilkS)
      (net 27 D-))
    (pad 16 thru_hole oval (at 7.62 30.48) (size 2.3 1.6) (drill 0.8) (layers *.Cu *.Mask F.SilkS)
      (net 28 D+))
    (pad 17 thru_hole oval (at 7.62 27.94) (size 2.3 1.6) (drill 0.8) (layers *.Cu *.Mask F.SilkS)
      (net 12 Rc6))
    (pad 18 thru_hole oval (at 7.62 25.4) (size 2.3 1.6) (drill 0.8) (layers *.Cu *.Mask F.SilkS)
      (net 13 Rc7))
    (pad 19 thru_hole oval (at 7.62 22.86) (size 2.3 1.6) (drill 0.8) (layers *.Cu *.Mask F.SilkS)
      (net 2 GND))
    (pad 20 thru_hole oval (at 7.62 20.32) (size 2.3 1.6) (drill 0.8) (layers *.Cu *.Mask F.SilkS)
      (net 3 +5V))
    (pad 21 thru_hole oval (at 7.62 17.78) (size 2.3 1.6) (drill 0.8) (layers *.Cu *.Mask F.SilkS)
      (net 14 Rb0))
    (pad 22 thru_hole oval (at 7.62 15.24) (size 2.3 1.6) (drill 0.8) (layers *.Cu *.Mask F.SilkS)
      (net 15 Rb1))
    (pad 23 thru_hole oval (at 7.62 12.7) (size 2.3 1.6) (drill 0.8) (layers *.Cu *.Mask F.SilkS)
      (net 16 Rb2))
    (pad 24 thru_hole oval (at 7.62 10.16) (size 2.3 1.6) (drill 0.8) (layers *.Cu *.Mask F.SilkS)
      (net 17 Rb3))
    (pad 25 thru_hole oval (at 7.62 7.62) (size 2.3 1.6) (drill 0.8) (layers *.Cu *.Mask F.SilkS)
      (net 18 Rb4))
    (pad 26 thru_hole oval (at 7.62 5.08) (size 2.3 1.6) (drill 0.8) (layers *.Cu *.Mask F.SilkS)
      (net 19 Rb5))
    (pad 27 thru_hole oval (at 7.62 2.54) (size 2.3 1.6) (drill 0.8) (layers *.Cu *.Mask F.SilkS)
      (net 20 Rb6))
    (pad 28 thru_hole oval (at 7.62 0) (size 2.3 1.6) (drill 0.8) (layers *.Cu *.Mask F.SilkS)
      (net 21 Rb7))
    (model Housings_DIP.3dshapes/DIP-28_W7.62mm_LongPads.wrl
      (at (xyz 0 0 0))
      (scale (xyz 1 1 1))
      (rotate (xyz 0 0 0))
    )
  )

  (module Pin_Headers:Pin_Header_Straight_1x11 (layer F.Cu) (tedit 0) (tstamp 57694AF7)
    (at 115.316 135.128 180)
    (descr "Through hole pin header")
    (tags "pin header")
    (path /57699335)
    (fp_text reference P2 (at 0 -5.1 180) (layer F.SilkS)
      (effects (font (size 1 1) (thickness 0.15)))
    )
    (fp_text value CONN_11 (at 0 -3.1 180) (layer F.Fab)
      (effects (font (size 1 1) (thickness 0.15)))
    )
    (fp_line (start -1.75 -1.75) (end -1.75 27.15) (layer F.CrtYd) (width 0.05))
    (fp_line (start 1.75 -1.75) (end 1.75 27.15) (layer F.CrtYd) (width 0.05))
    (fp_line (start -1.75 -1.75) (end 1.75 -1.75) (layer F.CrtYd) (width 0.05))
    (fp_line (start -1.75 27.15) (end 1.75 27.15) (layer F.CrtYd) (width 0.05))
    (fp_line (start 1.27 1.27) (end 1.27 26.67) (layer F.SilkS) (width 0.15))
    (fp_line (start 1.27 26.67) (end -1.27 26.67) (layer F.SilkS) (width 0.15))
    (fp_line (start -1.27 26.67) (end -1.27 1.27) (layer F.SilkS) (width 0.15))
    (fp_line (start 1.55 -1.55) (end 1.55 0) (layer F.SilkS) (width 0.15))
    (fp_line (start 1.27 1.27) (end -1.27 1.27) (layer F.SilkS) (width 0.15))
    (fp_line (start -1.55 0) (end -1.55 -1.55) (layer F.SilkS) (width 0.15))
    (fp_line (start -1.55 -1.55) (end 1.55 -1.55) (layer F.SilkS) (width 0.15))
    (pad 1 thru_hole rect (at 0 0 180) (size 2.032 1.7272) (drill 1.016) (layers *.Cu *.Mask F.SilkS)
      (net 3 +5V))
    (pad 2 thru_hole oval (at 0 2.54 180) (size 2.032 1.7272) (drill 1.016) (layers *.Cu *.Mask F.SilkS)
      (net 13 Rc7))
    (pad 3 thru_hole oval (at 0 5.08 180) (size 2.032 1.7272) (drill 1.016) (layers *.Cu *.Mask F.SilkS)
      (net 14 Rb0))
    (pad 4 thru_hole oval (at 0 7.62 180) (size 2.032 1.7272) (drill 1.016) (layers *.Cu *.Mask F.SilkS)
      (net 15 Rb1))
    (pad 5 thru_hole oval (at 0 10.16 180) (size 2.032 1.7272) (drill 1.016) (layers *.Cu *.Mask F.SilkS)
      (net 16 Rb2))
    (pad 6 thru_hole oval (at 0 12.7 180) (size 2.032 1.7272) (drill 1.016) (layers *.Cu *.Mask F.SilkS)
      (net 17 Rb3))
    (pad 7 thru_hole oval (at 0 15.24 180) (size 2.032 1.7272) (drill 1.016) (layers *.Cu *.Mask F.SilkS)
      (net 18 Rb4))
    (pad 8 thru_hole oval (at 0 17.78 180) (size 2.032 1.7272) (drill 1.016) (layers *.Cu *.Mask F.SilkS)
      (net 19 Rb5))
    (pad 9 thru_hole oval (at 0 20.32 180) (size 2.032 1.7272) (drill 1.016) (layers *.Cu *.Mask F.SilkS)
      (net 20 Rb6))
    (pad 10 thru_hole oval (at 0 22.86 180) (size 2.032 1.7272) (drill 1.016) (layers *.Cu *.Mask F.SilkS)
      (net 21 Rb7))
    (pad 11 thru_hole oval (at 0 25.4 180) (size 2.032 1.7272) (drill 1.016) (layers *.Cu *.Mask F.SilkS)
      (net 2 GND))
    (model Pin_Headers.3dshapes/Pin_Header_Straight_1x11.wrl
      (at (xyz 0 -0.5 0))
      (scale (xyz 1 1 1))
      (rotate (xyz 0 0 90))
    )
  )

  (module Diodes_ThroughHole:Diode_DO-35_SOD27_Horizontal_RM10 (layer F.Cu) (tedit 552FFC30) (tstamp 57695DE7)
    (at 99.06 84.328 270)
    (descr "Diode, DO-35,  SOD27, Horizontal, RM 10mm")
    (tags "Diode, DO-35, SOD27, Horizontal, RM 10mm, 1N4148,")
    (path /5769576F)
    (fp_text reference D2 (at 5.43052 2.53746 270) (layer F.SilkS)
      (effects (font (size 1 1) (thickness 0.15)))
    )
    (fp_text value DIODE (at 4.41452 -3.55854 270) (layer F.Fab)
      (effects (font (size 1 1) (thickness 0.15)))
    )
    (fp_line (start 7.36652 -0.00254) (end 8.76352 -0.00254) (layer F.SilkS) (width 0.15))
    (fp_line (start 2.92152 -0.00254) (end 1.39752 -0.00254) (layer F.SilkS) (width 0.15))
    (fp_line (start 3.30252 -0.76454) (end 3.30252 0.75946) (layer F.SilkS) (width 0.15))
    (fp_line (start 3.04852 -0.76454) (end 3.04852 0.75946) (layer F.SilkS) (width 0.15))
    (fp_line (start 2.79452 -0.00254) (end 2.79452 0.75946) (layer F.SilkS) (width 0.15))
    (fp_line (start 2.79452 0.75946) (end 7.36652 0.75946) (layer F.SilkS) (width 0.15))
    (fp_line (start 7.36652 0.75946) (end 7.36652 -0.76454) (layer F.SilkS) (width 0.15))
    (fp_line (start 7.36652 -0.76454) (end 2.79452 -0.76454) (layer F.SilkS) (width 0.15))
    (fp_line (start 2.79452 -0.76454) (end 2.79452 -0.00254) (layer F.SilkS) (width 0.15))
    (pad 2 thru_hole circle (at 10.16052 -0.00254 90) (size 1.69926 1.69926) (drill 0.70104) (layers *.Cu *.Mask F.SilkS)
      (net 25 Vusb))
    (pad 1 thru_hole rect (at 0.00052 -0.00254 90) (size 1.69926 1.69926) (drill 0.70104) (layers *.Cu *.Mask F.SilkS)
      (net 3 +5V))
    (model Diodes_ThroughHole.3dshapes/Diode_DO-35_SOD27_Horizontal_RM10.wrl
      (at (xyz 0.2 0 0))
      (scale (xyz 0.4 0.4 0.4))
      (rotate (xyz 0 0 180))
    )
  )

  (module Capacitors_ThroughHole:C_Disc_D6_P5 (layer F.Cu) (tedit 0) (tstamp 57702A51)
    (at 115.316 140.462 270)
    (descr "Capacitor 6mm Disc, Pitch 5mm")
    (tags Capacitor)
    (path /5769EA7E)
    (fp_text reference C6 (at 2.5 -3.5 270) (layer F.SilkS)
      (effects (font (size 1 1) (thickness 0.15)))
    )
    (fp_text value 220nF (at 2.5 3.5 270) (layer F.Fab)
      (effects (font (size 1 1) (thickness 0.15)))
    )
    (fp_line (start -0.95 -2.5) (end 5.95 -2.5) (layer F.CrtYd) (width 0.05))
    (fp_line (start 5.95 -2.5) (end 5.95 2.5) (layer F.CrtYd) (width 0.05))
    (fp_line (start 5.95 2.5) (end -0.95 2.5) (layer F.CrtYd) (width 0.05))
    (fp_line (start -0.95 2.5) (end -0.95 -2.5) (layer F.CrtYd) (width 0.05))
    (fp_line (start -0.5 -2.25) (end 5.5 -2.25) (layer F.SilkS) (width 0.15))
    (fp_line (start 5.5 2.25) (end -0.5 2.25) (layer F.SilkS) (width 0.15))
    (pad 1 thru_hole rect (at 0 0 270) (size 1.4 1.4) (drill 0.9) (layers *.Cu *.Mask F.SilkS)
      (net 3 +5V))
    (pad 2 thru_hole circle (at 5 0 270) (size 1.4 1.4) (drill 0.9) (layers *.Cu *.Mask F.SilkS)
      (net 2 GND))
    (model Capacitors_ThroughHole.3dshapes/C_Disc_D6_P5.wrl
      (at (xyz 0.0984252 0 0))
      (scale (xyz 1 1 1))
      (rotate (xyz 0 0 0))
    )
  )

  (module Resistors_ThroughHole:Resistor_Horizontal_RM10mm (layer F.Cu) (tedit 56648415) (tstamp 57702A56)
    (at 92.456 84.328 270)
    (descr "Resistor, Axial,  RM 10mm, 1/3W")
    (tags "Resistor Axial RM 10mm 1/3W")
    (path /5767F0BB)
    (fp_text reference R1 (at 5.32892 -3.50012 270) (layer F.SilkS)
      (effects (font (size 1 1) (thickness 0.15)))
    )
    (fp_text value 470 (at 5.08 3.81 270) (layer F.Fab)
      (effects (font (size 1 1) (thickness 0.15)))
    )
    (fp_line (start -1.25 -1.5) (end 11.4 -1.5) (layer F.CrtYd) (width 0.05))
    (fp_line (start -1.25 1.5) (end -1.25 -1.5) (layer F.CrtYd) (width 0.05))
    (fp_line (start 11.4 -1.5) (end 11.4 1.5) (layer F.CrtYd) (width 0.05))
    (fp_line (start -1.25 1.5) (end 11.4 1.5) (layer F.CrtYd) (width 0.05))
    (fp_line (start 2.54 -1.27) (end 7.62 -1.27) (layer F.SilkS) (width 0.15))
    (fp_line (start 7.62 -1.27) (end 7.62 1.27) (layer F.SilkS) (width 0.15))
    (fp_line (start 7.62 1.27) (end 2.54 1.27) (layer F.SilkS) (width 0.15))
    (fp_line (start 2.54 1.27) (end 2.54 -1.27) (layer F.SilkS) (width 0.15))
    (fp_line (start 2.54 0) (end 1.27 0) (layer F.SilkS) (width 0.15))
    (fp_line (start 7.62 0) (end 8.89 0) (layer F.SilkS) (width 0.15))
    (pad 1 thru_hole circle (at 0 0 270) (size 1.99898 1.99898) (drill 1.00076) (layers *.Cu *.SilkS *.Mask)
      (net 24 "Net-(D1-Pad2)"))
    (pad 2 thru_hole circle (at 10.16 0 270) (size 1.99898 1.99898) (drill 1.00076) (layers *.Cu *.SilkS *.Mask)
      (net 2 GND))
    (model Resistors_ThroughHole.3dshapes/Resistor_Horizontal_RM10mm.wrl
      (at (xyz 0.2 0 0))
      (scale (xyz 0.4 0.4 0.4))
      (rotate (xyz 0 0 0))
    )
  )

  (module Resistors_ThroughHole:Resistor_Horizontal_RM10mm (layer F.Cu) (tedit 56648415) (tstamp 57702A5B)
    (at 80.264 98.044 270)
    (descr "Resistor, Axial,  RM 10mm, 1/3W")
    (tags "Resistor Axial RM 10mm 1/3W")
    (path /5767F032)
    (fp_text reference R2 (at 5.32892 -3.50012 270) (layer F.SilkS)
      (effects (font (size 1 1) (thickness 0.15)))
    )
    (fp_text value 10k (at 5.08 3.81 270) (layer F.Fab)
      (effects (font (size 1 1) (thickness 0.15)))
    )
    (fp_line (start -1.25 -1.5) (end 11.4 -1.5) (layer F.CrtYd) (width 0.05))
    (fp_line (start -1.25 1.5) (end -1.25 -1.5) (layer F.CrtYd) (width 0.05))
    (fp_line (start 11.4 -1.5) (end 11.4 1.5) (layer F.CrtYd) (width 0.05))
    (fp_line (start -1.25 1.5) (end 11.4 1.5) (layer F.CrtYd) (width 0.05))
    (fp_line (start 2.54 -1.27) (end 7.62 -1.27) (layer F.SilkS) (width 0.15))
    (fp_line (start 7.62 -1.27) (end 7.62 1.27) (layer F.SilkS) (width 0.15))
    (fp_line (start 7.62 1.27) (end 2.54 1.27) (layer F.SilkS) (width 0.15))
    (fp_line (start 2.54 1.27) (end 2.54 -1.27) (layer F.SilkS) (width 0.15))
    (fp_line (start 2.54 0) (end 1.27 0) (layer F.SilkS) (width 0.15))
    (fp_line (start 7.62 0) (end 8.89 0) (layer F.SilkS) (width 0.15))
    (pad 1 thru_hole circle (at 0 0 270) (size 1.99898 1.99898) (drill 1.00076) (layers *.Cu *.SilkS *.Mask)
      (net 3 +5V))
    (pad 2 thru_hole circle (at 10.16 0 270) (size 1.99898 1.99898) (drill 1.00076) (layers *.Cu *.SilkS *.Mask)
      (net 29 "Net-(PIC1-Pad1)"))
    (model Resistors_ThroughHole.3dshapes/Resistor_Horizontal_RM10mm.wrl
      (at (xyz 0.2 0 0))
      (scale (xyz 0.4 0.4 0.4))
      (rotate (xyz 0 0 0))
    )
  )

  (module Resistors_ThroughHole:Resistor_Horizontal_RM10mm (layer F.Cu) (tedit 56648415) (tstamp 57702A60)
    (at 72.136 87.376 270)
    (descr "Resistor, Axial,  RM 10mm, 1/3W")
    (tags "Resistor Axial RM 10mm 1/3W")
    (path /5767F14E)
    (fp_text reference R3 (at 5.32892 -3.50012 270) (layer F.SilkS)
      (effects (font (size 1 1) (thickness 0.15)))
    )
    (fp_text value 470 (at 5.08 3.81 270) (layer F.Fab)
      (effects (font (size 1 1) (thickness 0.15)))
    )
    (fp_line (start -1.25 -1.5) (end 11.4 -1.5) (layer F.CrtYd) (width 0.05))
    (fp_line (start -1.25 1.5) (end -1.25 -1.5) (layer F.CrtYd) (width 0.05))
    (fp_line (start 11.4 -1.5) (end 11.4 1.5) (layer F.CrtYd) (width 0.05))
    (fp_line (start -1.25 1.5) (end 11.4 1.5) (layer F.CrtYd) (width 0.05))
    (fp_line (start 2.54 -1.27) (end 7.62 -1.27) (layer F.SilkS) (width 0.15))
    (fp_line (start 7.62 -1.27) (end 7.62 1.27) (layer F.SilkS) (width 0.15))
    (fp_line (start 7.62 1.27) (end 2.54 1.27) (layer F.SilkS) (width 0.15))
    (fp_line (start 2.54 1.27) (end 2.54 -1.27) (layer F.SilkS) (width 0.15))
    (fp_line (start 2.54 0) (end 1.27 0) (layer F.SilkS) (width 0.15))
    (fp_line (start 7.62 0) (end 8.89 0) (layer F.SilkS) (width 0.15))
    (pad 1 thru_hole circle (at 0 0 270) (size 1.99898 1.99898) (drill 1.00076) (layers *.Cu *.SilkS *.Mask)
      (net 26 "Net-(D3-Pad2)"))
    (pad 2 thru_hole circle (at 10.16 0 270) (size 1.99898 1.99898) (drill 1.00076) (layers *.Cu *.SilkS *.Mask)
      (net 30 "Net-(PIC1-Pad6)"))
    (model Resistors_ThroughHole.3dshapes/Resistor_Horizontal_RM10mm.wrl
      (at (xyz 0.2 0 0))
      (scale (xyz 0.4 0.4 0.4))
      (rotate (xyz 0 0 0))
    )
  )

  (module Crystals:HC-49V (layer F.Cu) (tedit 56D4D4E4) (tstamp 57702A65)
    (at 86.106 129.032 270)
    (descr "Quartz boitier HC-49 Vertical")
    (tags "QUARTZ DEV")
    (path /57693CFD)
    (fp_text reference X1 (at 0 -3.175 270) (layer F.SilkS)
      (effects (font (size 1 1) (thickness 0.15)))
    )
    (fp_text value 20MHz (at 0 3.175 270) (layer F.Fab)
      (effects (font (size 1 1) (thickness 0.15)))
    )
    (fp_line (start 5.35 2.8) (end -0.25 2.8) (layer F.CrtYd) (width 0.05))
    (fp_line (start -0.25 -2.8) (end 5.35 -2.8) (layer F.CrtYd) (width 0.05))
    (fp_arc (start -0.25 0) (end -0.25 2.8) (angle 180) (layer F.CrtYd) (width 0.05))
    (fp_arc (start 5.35 0) (end 5.35 -2.8) (angle 180) (layer F.CrtYd) (width 0.05))
    (fp_arc (start 5.334 0) (end 5.334 -2.286) (angle 180) (layer F.SilkS) (width 0.15))
    (fp_arc (start -0.254 0) (end -0.254 2.286) (angle 180) (layer F.SilkS) (width 0.15))
    (fp_line (start -0.254 2.286) (end 5.334 2.286) (layer F.SilkS) (width 0.15))
    (fp_line (start -0.254 -2.286) (end 5.334 -2.286) (layer F.SilkS) (width 0.15))
    (pad 1 thru_hole circle (at 0 0 270) (size 1.4224 1.4224) (drill 0.762) (layers *.Cu *.Mask F.SilkS)
      (net 1 "Net-(C1-Pad1)"))
    (pad 2 thru_hole circle (at 5.08 0 270) (size 1.4224 1.4224) (drill 0.762) (layers *.Cu *.Mask F.SilkS)
      (net 22 "Net-(C2-Pad2)"))
    (model Crystals.3dshapes/HC-49V.wrl
      (at (xyz 0.1 0 0))
      (scale (xyz 1 1 0.2))
      (rotate (xyz 0 0 0))
    )
  )

  (gr_line (start 68.58 79.248) (end 115.824 79.248) (angle 90) (layer Eco2.User) (width 0.2))
  (gr_line (start 65.532 82.296) (end 68.58 79.248) (angle 90) (layer Eco2.User) (width 0.2))
  (gr_line (start 65.532 139.192) (end 65.532 82.296) (angle 90) (layer Eco2.User) (width 0.2))
  (gr_line (start 77.216 150.876) (end 65.532 139.192) (angle 90) (layer Eco2.User) (width 0.2))
  (gr_line (start 82.804 150.876) (end 77.216 150.876) (angle 90) (layer Eco2.User) (width 0.2))
  (gr_line (start 114.3 150.876) (end 82.804 150.876) (angle 90) (layer Eco2.User) (width 0.2))
  (gr_line (start 118.872 146.304) (end 114.3 150.876) (angle 90) (layer Eco2.User) (width 0.2))
  (gr_line (start 118.872 82.296) (end 118.872 146.304) (angle 90) (layer Eco2.User) (width 0.2))
  (gr_line (start 115.824 79.248) (end 118.872 82.296) (angle 90) (layer Eco2.User) (width 0.2))

  (segment (start 91.948 131.572) (end 88.646 131.572) (width 0.7) (layer B.Cu) (net 1))
  (segment (start 88.646 131.572) (end 86.106 129.032) (width 0.7) (layer B.Cu) (net 1) (tstamp 57702AA5))
  (segment (start 86.106 129.032) (end 81.28 129.032) (width 0.7) (layer B.Cu) (net 1) (tstamp 57702AA6))
  (segment (start 81.28 129.032) (end 80.772 129.54) (width 0.7) (layer B.Cu) (net 1) (tstamp 57702AA7))
  (segment (start 69.596 135.128) (end 68.072 135.128) (width 0.7) (layer B.Cu) (net 2))
  (segment (start 96.266 90.805) (end 96.139 90.805) (width 0.7) (layer B.Cu) (net 2) (tstamp 57702B0C))
  (segment (start 96.266 90.932) (end 96.266 90.805) (width 0.7) (layer B.Cu) (net 2) (tstamp 57702B0B))
  (via (at 96.266 90.932) (size 1.2) (drill 0.7) (layers F.Cu B.Cu) (net 2))
  (segment (start 96.266 84.582) (end 96.266 90.932) (width 0.7) (layer F.Cu) (net 2) (tstamp 57702B08))
  (via (at 96.266 84.582) (size 1.2) (drill 0.7) (layers F.Cu B.Cu) (net 2))
  (segment (start 96.266 82.042) (end 96.266 84.582) (width 0.7) (layer B.Cu) (net 2) (tstamp 57702B05))
  (segment (start 94.996 80.772) (end 96.266 82.042) (width 0.7) (layer B.Cu) (net 2) (tstamp 57702B00))
  (segment (start 72.136 80.772) (end 94.996 80.772) (width 0.7) (layer B.Cu) (net 2) (tstamp 57702AFE))
  (segment (start 69.596 83.312) (end 72.136 80.772) (width 0.7) (layer B.Cu) (net 2) (tstamp 57702AF8))
  (segment (start 69.596 88.392) (end 69.596 83.312) (width 0.7) (layer B.Cu) (net 2) (tstamp 57702AF5))
  (segment (start 67.056 90.932) (end 69.596 88.392) (width 0.7) (layer B.Cu) (net 2) (tstamp 57702AEF))
  (segment (start 67.056 134.112) (end 67.056 90.932) (width 0.7) (layer B.Cu) (net 2) (tstamp 57702AEC))
  (segment (start 68.072 135.128) (end 67.056 134.112) (width 0.7) (layer B.Cu) (net 2) (tstamp 57702AEA))
  (segment (start 101.95052 90.805) (end 96.139 90.805) (width 0.7) (layer B.Cu) (net 2))
  (segment (start 96.139 90.805) (end 92.456 94.488) (width 0.7) (layer B.Cu) (net 2) (tstamp 57702AD6))
  (segment (start 87.376 97.536) (end 88.392 97.536) (width 0.7) (layer B.Cu) (net 2))
  (segment (start 88.392 97.536) (end 91.44 94.488) (width 0.7) (layer B.Cu) (net 2) (tstamp 57702ACC))
  (segment (start 91.44 94.488) (end 92.456 94.488) (width 0.7) (layer B.Cu) (net 2) (tstamp 57702ACD))
  (segment (start 106.72 144.78) (end 106.72 146.518) (width 0.7) (layer B.Cu) (net 2))
  (segment (start 115.316 146.812) (end 115.316 145.462) (width 0.7) (layer B.Cu) (net 2) (tstamp 57702AC1))
  (segment (start 114.634 147.494) (end 115.316 146.812) (width 0.7) (layer B.Cu) (net 2) (tstamp 57702AC0))
  (segment (start 107.696 147.494) (end 114.634 147.494) (width 0.7) (layer B.Cu) (net 2) (tstamp 57702ABF))
  (segment (start 106.72 146.518) (end 107.696 147.494) (width 0.7) (layer B.Cu) (net 2) (tstamp 57702ABE))
  (segment (start 77.216 144.272) (end 77.216 147.32) (width 0.7) (layer B.Cu) (net 2))
  (segment (start 102.108 149.86) (end 106.72 145.248) (width 0.7) (layer B.Cu) (net 2) (tstamp 5769500E))
  (segment (start 79.756 149.86) (end 102.108 149.86) (width 0.7) (layer B.Cu) (net 2) (tstamp 5769500D))
  (segment (start 77.216 147.32) (end 79.756 149.86) (width 0.7) (layer B.Cu) (net 2) (tstamp 5769500B))
  (segment (start 106.72 145.248) (end 106.72 144.78) (width 0.7) (layer B.Cu) (net 2) (tstamp 57695011))
  (segment (start 81.788 144.272) (end 81.788 146.304) (width 0.7) (layer B.Cu) (net 2))
  (segment (start 83.312 147.843998) (end 83.312 147.828) (width 0.7) (layer B.Cu) (net 2) (tstamp 57695007))
  (segment (start 83.296002 147.828) (end 83.312 147.843998) (width 0.7) (layer B.Cu) (net 2) (tstamp 57695005))
  (segment (start 82.296 147.828) (end 83.296002 147.828) (width 0.7) (layer B.Cu) (net 2) (tstamp 57695004))
  (segment (start 81.788 147.32) (end 82.296 147.828) (width 0.7) (layer B.Cu) (net 2) (tstamp 57695003))
  (segment (start 81.788 146.304) (end 81.788 147.32) (width 0.7) (layer B.Cu) (net 2) (tstamp 57695002))
  (segment (start 69.596 135.128) (end 71.628 135.128) (width 0.7) (layer B.Cu) (net 2))
  (segment (start 82.296 143.764) (end 83.82 143.764) (width 0.7) (layer B.Cu) (net 2) (tstamp 57694FFD))
  (segment (start 81.788 144.272) (end 82.296 143.764) (width 0.7) (layer B.Cu) (net 2) (tstamp 57694FFC))
  (via (at 81.788 144.272) (size 1.2) (drill 0.7) (layers F.Cu B.Cu) (net 2))
  (segment (start 77.216 144.272) (end 81.788 144.272) (width 0.7) (layer F.Cu) (net 2) (tstamp 57694FF9))
  (via (at 77.216 144.272) (size 1.2) (drill 0.7) (layers F.Cu B.Cu) (net 2))
  (segment (start 73.66 140.716) (end 77.216 144.272) (width 0.7) (layer B.Cu) (net 2) (tstamp 57694FF6))
  (segment (start 73.66 137.16) (end 73.66 140.716) (width 0.7) (layer B.Cu) (net 2) (tstamp 57694FF5))
  (segment (start 71.628 135.128) (end 73.66 137.16) (width 0.7) (layer B.Cu) (net 2) (tstamp 57694FF4))
  (segment (start 94.488 130.556) (end 94.488 145.796) (width 0.7) (layer B.Cu) (net 2) (tstamp 57694F82))
  (segment (start 85.344 147.828) (end 83.312 147.828) (width 0.7) (layer B.Cu) (net 2))
  (segment (start 92.456 147.828) (end 94.488 145.796) (width 0.7) (layer B.Cu) (net 2) (tstamp 57694FBB))
  (segment (start 85.344 147.828) (end 92.456 147.828) (width 0.7) (layer B.Cu) (net 2) (tstamp 57694FBA))
  (segment (start 92.964 129.032) (end 94.488 130.556) (width 0.7) (layer B.Cu) (net 2) (tstamp 57694F81))
  (segment (start 83.312 147.828) (end 83.312 147.828) (width 0.7) (layer B.Cu) (net 2) (tstamp 57694FCC))
  (segment (start 83.82 143.764) (end 84.328 143.764) (width 0.7) (layer B.Cu) (net 2) (tstamp 57695000))
  (segment (start 84.328 143.764) (end 85.852 143.764) (width 0.7) (layer B.Cu) (net 2) (tstamp 57694F8A))
  (segment (start 69.596 135.128) (end 69.088 135.128) (width 0.7) (layer B.Cu) (net 2))
  (segment (start 91.948 129.032) (end 92.964 129.032) (width 0.7) (layer B.Cu) (net 2))
  (segment (start 79.248 131.064) (end 78.74 130.556) (width 0.7) (layer B.Cu) (net 2))
  (segment (start 78.74 130.556) (end 78.74 128.524) (width 0.7) (layer B.Cu) (net 2) (tstamp 57694F56))
  (segment (start 80.772 127.04) (end 80.224 127.04) (width 0.7) (layer B.Cu) (net 2))
  (segment (start 80.224 127.04) (end 78.74 128.524) (width 0.7) (layer B.Cu) (net 2) (tstamp 57694F50))
  (segment (start 79.248 131.064) (end 80.772 132.588) (width 0.7) (layer B.Cu) (net 2) (tstamp 57694F53))
  (segment (start 80.772 127.04) (end 86.32 127.04) (width 0.7) (layer B.Cu) (net 2))
  (segment (start 89.916 129.032) (end 91.948 129.032) (width 0.7) (layer B.Cu) (net 2) (tstamp 57694EBC))
  (segment (start 87.884 127) (end 89.916 129.032) (width 0.7) (layer B.Cu) (net 2) (tstamp 57694EBB))
  (segment (start 86.36 127) (end 87.884 127) (width 0.7) (layer B.Cu) (net 2) (tstamp 57694EBA))
  (segment (start 86.32 127.04) (end 86.36 127) (width 0.7) (layer B.Cu) (net 2) (tstamp 57694EB9))
  (segment (start 105.664 133.604) (end 105.664 134.112) (width 0.7) (layer B.Cu) (net 2))
  (segment (start 105.664 134.112) (end 108.204 136.652) (width 0.7) (layer B.Cu) (net 2) (tstamp 57694E5A))
  (segment (start 106.72 143.216) (end 106.72 144.78) (width 0.7) (layer B.Cu) (net 2) (tstamp 57694E61))
  (segment (start 107.188 142.748) (end 106.72 143.216) (width 0.7) (layer B.Cu) (net 2) (tstamp 57694E60))
  (segment (start 112.268 142.748) (end 107.188 142.748) (width 0.7) (layer B.Cu) (net 2) (tstamp 57694E5F))
  (segment (start 113.792 141.224) (end 112.268 142.748) (width 0.7) (layer B.Cu) (net 2) (tstamp 57694E5E))
  (segment (start 113.792 138.176) (end 113.792 141.224) (width 0.7) (layer B.Cu) (net 2) (tstamp 57694E5D))
  (segment (start 112.268 136.652) (end 113.792 138.176) (width 0.7) (layer B.Cu) (net 2) (tstamp 57694E5C))
  (segment (start 108.204 136.652) (end 112.268 136.652) (width 0.7) (layer B.Cu) (net 2) (tstamp 57694E5B))
  (segment (start 105.664 133.604) (end 102.616 133.604) (width 0.7) (layer B.Cu) (net 2))
  (segment (start 102.108 134.112) (end 99.568 134.112) (width 0.7) (layer B.Cu) (net 2) (tstamp 57694E52))
  (segment (start 102.616 133.604) (end 102.108 134.112) (width 0.7) (layer B.Cu) (net 2) (tstamp 57694E51))
  (segment (start 115.316 109.728) (end 115.316 92.17152) (width 0.7) (layer B.Cu) (net 2))
  (segment (start 115.316 92.17152) (end 113.94948 90.805) (width 0.7) (layer B.Cu) (net 2) (tstamp 57694DE2))
  (segment (start 106.68 93.50502) (end 106.68 91.948) (width 0.7) (layer B.Cu) (net 2))
  (segment (start 107.823 90.805) (end 113.94948 90.805) (width 0.7) (layer B.Cu) (net 2) (tstamp 57694DCD))
  (segment (start 106.68 91.948) (end 107.823 90.805) (width 0.7) (layer B.Cu) (net 2) (tstamp 57694DCC))
  (segment (start 106.68 93.50502) (end 104.65054 93.50502) (width 0.7) (layer B.Cu) (net 2))
  (segment (start 104.65054 93.50502) (end 101.95052 90.805) (width 0.7) (layer B.Cu) (net 2) (tstamp 57694DC9))
  (segment (start 115.316 135.128) (end 115.316 140.462) (width 0.7) (layer B.Cu) (net 3))
  (segment (start 115.316 140.462) (end 115.316 143.002) (width 0.7) (layer B.Cu) (net 3) (tstamp 57702AB5))
  (segment (start 114.046 144.272) (end 109.728 144.272) (width 0.7) (layer B.Cu) (net 3) (tstamp 57702AB7))
  (segment (start 115.316 143.002) (end 114.046 144.272) (width 0.7) (layer B.Cu) (net 3) (tstamp 57702AB6))
  (segment (start 109.728 144.272) (end 109.22 144.78) (width 0.7) (layer B.Cu) (net 3) (tstamp 57702AB8))
  (segment (start 99.568 131.572) (end 105.156 131.572) (width 0.7) (layer B.Cu) (net 3))
  (segment (start 108.164 132.04) (end 108.164 133.604) (width 0.7) (layer B.Cu) (net 3) (tstamp 57695DFA))
  (segment (start 107.696 131.572) (end 108.164 132.04) (width 0.7) (layer B.Cu) (net 3) (tstamp 57695DF8))
  (segment (start 105.156 131.572) (end 107.696 131.572) (width 0.7) (layer B.Cu) (net 3) (tstamp 57695DF7))
  (segment (start 113.03 85.09) (end 112.268 84.328) (width 0.7) (layer B.Cu) (net 3))
  (segment (start 112.268 84.328) (end 99.06306 84.328) (width 0.7) (layer B.Cu) (net 3) (tstamp 57695122))
  (segment (start 99.06306 84.328) (end 99.06254 84.32852) (width 0.7) (layer B.Cu) (net 3) (tstamp 57695128))
  (segment (start 115.316 135.128) (end 116.84 135.128) (width 0.7) (layer B.Cu) (net 3))
  (segment (start 117.856 89.916) (end 113.03 85.09) (width 0.7) (layer B.Cu) (net 3) (tstamp 576950F3))
  (segment (start 113.03 85.09) (end 112.776 84.836) (width 0.7) (layer B.Cu) (net 3) (tstamp 57695120))
  (segment (start 117.856 134.112) (end 117.856 89.916) (width 0.7) (layer B.Cu) (net 3) (tstamp 576950F0))
  (segment (start 116.84 135.128) (end 117.856 134.112) (width 0.7) (layer B.Cu) (net 3) (tstamp 576950EE))
  (segment (start 86.36 87.884) (end 98.044 87.884) (width 0.7) (layer B.Cu) (net 3))
  (segment (start 99.06 86.868) (end 99.06 84.33106) (width 0.7) (layer B.Cu) (net 3) (tstamp 576950B5))
  (segment (start 98.044 87.884) (end 99.06 86.868) (width 0.7) (layer B.Cu) (net 3) (tstamp 576950B0))
  (segment (start 99.06 84.33106) (end 99.06254 84.32852) (width 0.7) (layer B.Cu) (net 3) (tstamp 576950B6))
  (segment (start 78.74 87.884) (end 86.36 87.884) (width 0.7) (layer B.Cu) (net 3))
  (segment (start 80.264 98.044) (end 80.772 98.044) (width 0.7) (layer B.Cu) (net 3))
  (segment (start 80.772 98.044) (end 86.36 92.456) (width 0.7) (layer B.Cu) (net 3) (tstamp 5769504A))
  (segment (start 86.36 92.456) (end 86.36 87.884) (width 0.7) (layer B.Cu) (net 3) (tstamp 5769504B))
  (segment (start 115.316 135.128) (end 110.236 135.128) (width 0.7) (layer B.Cu) (net 3))
  (segment (start 110.236 135.128) (end 108.712 133.604) (width 0.7) (layer B.Cu) (net 3) (tstamp 57694E4D))
  (segment (start 108.712 133.604) (end 108.164 133.604) (width 0.7) (layer B.Cu) (net 3) (tstamp 57694E4E))
  (segment (start 108.204 133.564) (end 108.164 133.604) (width 0.7) (layer B.Cu) (net 3) (tstamp 57694E4A))
  (segment (start 78.74 87.884) (end 76.2 87.884) (width 0.7) (layer B.Cu) (net 3))
  (segment (start 69.088 92.964) (end 69.088 109.22) (width 0.7) (layer B.Cu) (net 3) (tstamp 57694DDD))
  (segment (start 70.612 91.44) (end 69.088 92.964) (width 0.7) (layer B.Cu) (net 3) (tstamp 57694DDC))
  (segment (start 72.644 91.44) (end 70.612 91.44) (width 0.7) (layer B.Cu) (net 3) (tstamp 57694DDB))
  (segment (start 76.2 87.884) (end 72.644 91.44) (width 0.7) (layer B.Cu) (net 3) (tstamp 57694DDA))
  (segment (start 69.088 109.22) (end 69.596 109.728) (width 0.7) (layer B.Cu) (net 3) (tstamp 57694DDE))
  (segment (start 69.596 130.048) (end 74.168 130.048) (width 0.7) (layer B.Cu) (net 4))
  (segment (start 80.772 141.732) (end 91.948 141.732) (width 0.7) (layer B.Cu) (net 4) (tstamp 57694F6C))
  (segment (start 75.692 136.652) (end 80.772 141.732) (width 0.7) (layer B.Cu) (net 4) (tstamp 57694F6A))
  (segment (start 75.692 131.572) (end 75.692 136.652) (width 0.7) (layer B.Cu) (net 4) (tstamp 57694F69))
  (segment (start 74.168 130.048) (end 75.692 131.572) (width 0.7) (layer B.Cu) (net 4) (tstamp 57694F68))
  (segment (start 69.596 127.508) (end 75.692 127.508) (width 0.7) (layer B.Cu) (net 5))
  (segment (start 79.756 139.192) (end 91.948 139.192) (width 0.7) (layer B.Cu) (net 5) (tstamp 57694F64))
  (segment (start 76.708 136.144) (end 79.756 139.192) (width 0.7) (layer B.Cu) (net 5) (tstamp 57694F63))
  (segment (start 76.708 128.524) (end 76.708 136.144) (width 0.7) (layer B.Cu) (net 5) (tstamp 57694F62))
  (segment (start 75.692 127.508) (end 76.708 128.524) (width 0.7) (layer B.Cu) (net 5) (tstamp 57694F61))
  (segment (start 69.596 124.968) (end 76.2 124.968) (width 0.7) (layer B.Cu) (net 6))
  (segment (start 79.248 136.652) (end 91.948 136.652) (width 0.7) (layer B.Cu) (net 6) (tstamp 57694F5E))
  (segment (start 77.724 135.128) (end 79.248 136.652) (width 0.7) (layer B.Cu) (net 6) (tstamp 57694F5D))
  (segment (start 77.724 126.492) (end 77.724 135.128) (width 0.7) (layer B.Cu) (net 6) (tstamp 57694F5C))
  (segment (start 76.2 124.968) (end 77.724 126.492) (width 0.7) (layer B.Cu) (net 6) (tstamp 57694F5B))
  (segment (start 69.596 122.428) (end 84.836 122.428) (width 0.7) (layer B.Cu) (net 7))
  (segment (start 89.916 126.492) (end 91.948 126.492) (width 0.7) (layer B.Cu) (net 7) (tstamp 57694F34))
  (segment (start 89.408 125.984) (end 89.916 126.492) (width 0.7) (layer B.Cu) (net 7) (tstamp 57694F33))
  (segment (start 89.408 124.46) (end 89.408 125.984) (width 0.7) (layer B.Cu) (net 7) (tstamp 57694F32))
  (segment (start 88.9 123.952) (end 89.408 124.46) (width 0.7) (layer B.Cu) (net 7) (tstamp 57694F31))
  (segment (start 86.36 123.952) (end 88.9 123.952) (width 0.7) (layer B.Cu) (net 7) (tstamp 57694F30))
  (segment (start 84.836 122.428) (end 86.36 123.952) (width 0.7) (layer B.Cu) (net 7) (tstamp 57694F2F))
  (segment (start 91.948 121.412) (end 86.36 121.412) (width 0.7) (layer B.Cu) (net 8))
  (segment (start 84.836 119.888) (end 69.596 119.888) (width 0.7) (layer B.Cu) (net 8) (tstamp 57694F1D))
  (segment (start 86.36 121.412) (end 84.836 119.888) (width 0.7) (layer B.Cu) (net 8) (tstamp 57694F1C))
  (segment (start 69.596 117.348) (end 84.836 117.348) (width 0.7) (layer B.Cu) (net 9))
  (segment (start 86.36 118.872) (end 91.948 118.872) (width 0.7) (layer B.Cu) (net 9) (tstamp 57694F15))
  (segment (start 84.836 117.348) (end 86.36 118.872) (width 0.7) (layer B.Cu) (net 9) (tstamp 57694F14))
  (segment (start 91.948 116.332) (end 86.36 116.332) (width 0.7) (layer B.Cu) (net 10))
  (segment (start 84.836 114.808) (end 69.596 114.808) (width 0.7) (layer B.Cu) (net 10) (tstamp 57694F11))
  (segment (start 86.36 116.332) (end 84.836 114.808) (width 0.7) (layer B.Cu) (net 10) (tstamp 57694F10))
  (segment (start 69.596 112.268) (end 84.836 112.268) (width 0.7) (layer B.Cu) (net 11))
  (segment (start 86.36 113.792) (end 91.948 113.792) (width 0.7) (layer B.Cu) (net 11) (tstamp 57694F0D))
  (segment (start 84.836 112.268) (end 86.36 113.792) (width 0.7) (layer B.Cu) (net 11) (tstamp 57694F0C))
  (segment (start 82.296 148.844) (end 99.568 148.844) (width 0.7) (layer B.Cu) (net 12))
  (segment (start 69.596 132.588) (end 72.136 132.588) (width 0.7) (layer B.Cu) (net 12) (tstamp 57694FC9))
  (segment (start 73.152 132.588) (end 74.676 134.112) (width 0.7) (layer B.Cu) (net 12) (tstamp 57694FD9))
  (segment (start 74.676 134.112) (end 74.676 137.668) (width 0.7) (layer B.Cu) (net 12) (tstamp 57694FDA))
  (segment (start 74.676 137.668) (end 79.756 142.748) (width 0.7) (layer B.Cu) (net 12) (tstamp 57694FDB))
  (segment (start 72.136 132.588) (end 73.152 132.588) (width 0.7) (layer B.Cu) (net 12))
  (segment (start 79.756 144.78) (end 79.756 147.32) (width 0.7) (layer B.Cu) (net 12) (tstamp 57694FE8))
  (segment (start 79.756 147.32) (end 81.28 148.844) (width 0.7) (layer B.Cu) (net 12) (tstamp 57694FE9))
  (segment (start 81.28 148.844) (end 82.296 148.844) (width 0.7) (layer B.Cu) (net 12) (tstamp 57694FEA))
  (segment (start 79.756 142.748) (end 79.756 144.78) (width 0.7) (layer B.Cu) (net 12))
  (segment (start 101.092 139.192) (end 99.568 139.192) (width 0.7) (layer B.Cu) (net 12) (tstamp 57694FF1))
  (segment (start 102.616 140.716) (end 101.092 139.192) (width 0.7) (layer B.Cu) (net 12) (tstamp 57694FF0))
  (segment (start 102.616 145.796) (end 102.616 140.716) (width 0.7) (layer B.Cu) (net 12) (tstamp 57694FEF))
  (segment (start 99.568 148.844) (end 102.616 145.796) (width 0.7) (layer B.Cu) (net 12) (tstamp 57694FEE))
  (segment (start 99.568 136.652) (end 103.632 136.652) (width 0.7) (layer B.Cu) (net 13))
  (segment (start 111.76 132.588) (end 115.316 132.588) (width 0.7) (layer B.Cu) (net 13) (tstamp 57694E6C))
  (segment (start 111.252 133.096) (end 111.76 132.588) (width 0.7) (layer B.Cu) (net 13) (tstamp 57694E6B))
  (via (at 111.252 133.096) (size 1.2) (drill 0.7) (layers F.Cu B.Cu) (net 13))
  (segment (start 111.252 138.176) (end 111.252 133.096) (width 0.7) (layer F.Cu) (net 13) (tstamp 57694E68))
  (via (at 111.252 138.176) (size 1.2) (drill 0.7) (layers F.Cu B.Cu) (net 13))
  (segment (start 105.156 138.176) (end 111.252 138.176) (width 0.7) (layer B.Cu) (net 13) (tstamp 57694E65))
  (segment (start 103.632 136.652) (end 105.156 138.176) (width 0.7) (layer B.Cu) (net 13) (tstamp 57694E64))
  (segment (start 115.316 130.048) (end 111.252 130.048) (width 0.7) (layer B.Cu) (net 14))
  (segment (start 110.236 129.032) (end 99.568 129.032) (width 0.7) (layer B.Cu) (net 14) (tstamp 57694F09))
  (segment (start 111.252 130.048) (end 110.236 129.032) (width 0.7) (layer B.Cu) (net 14) (tstamp 57694F08))
  (segment (start 99.568 126.492) (end 110.236 126.492) (width 0.7) (layer B.Cu) (net 15))
  (segment (start 111.252 127.508) (end 115.316 127.508) (width 0.7) (layer B.Cu) (net 15) (tstamp 57694F05))
  (segment (start 110.236 126.492) (end 111.252 127.508) (width 0.7) (layer B.Cu) (net 15) (tstamp 57694F04))
  (segment (start 115.316 124.968) (end 111.252 124.968) (width 0.7) (layer B.Cu) (net 16))
  (segment (start 110.236 123.952) (end 99.568 123.952) (width 0.7) (layer B.Cu) (net 16) (tstamp 57694F01))
  (segment (start 111.252 124.968) (end 110.236 123.952) (width 0.7) (layer B.Cu) (net 16) (tstamp 57694F00))
  (segment (start 99.568 121.412) (end 110.236 121.412) (width 0.7) (layer B.Cu) (net 17))
  (segment (start 111.252 122.428) (end 115.316 122.428) (width 0.7) (layer B.Cu) (net 17) (tstamp 57694EFD))
  (segment (start 110.236 121.412) (end 111.252 122.428) (width 0.7) (layer B.Cu) (net 17) (tstamp 57694EFC))
  (segment (start 99.568 118.872) (end 110.236 118.872) (width 0.7) (layer B.Cu) (net 18))
  (segment (start 111.252 119.888) (end 115.316 119.888) (width 0.7) (layer B.Cu) (net 18) (tstamp 57694EE3))
  (segment (start 110.236 118.872) (end 111.252 119.888) (width 0.7) (layer B.Cu) (net 18) (tstamp 57694EE2))
  (segment (start 115.316 117.348) (end 111.252 117.348) (width 0.7) (layer B.Cu) (net 19))
  (segment (start 110.236 116.332) (end 109.22 116.332) (width 0.7) (layer B.Cu) (net 19) (tstamp 57694EE7))
  (segment (start 111.252 117.348) (end 110.236 116.332) (width 0.7) (layer B.Cu) (net 19) (tstamp 57694EE6))
  (segment (start 99.568 116.332) (end 109.22 116.332) (width 0.7) (layer B.Cu) (net 19))
  (segment (start 115.316 114.808) (end 111.252 114.808) (width 0.7) (layer B.Cu) (net 20))
  (segment (start 110.236 113.792) (end 109.22 113.792) (width 0.7) (layer B.Cu) (net 20) (tstamp 57694EEB))
  (segment (start 111.252 114.808) (end 110.236 113.792) (width 0.7) (layer B.Cu) (net 20) (tstamp 57694EEA))
  (segment (start 109.22 113.792) (end 99.568 113.792) (width 0.7) (layer B.Cu) (net 20) (tstamp 57694EEE))
  (segment (start 115.316 112.268) (end 111.252 112.268) (width 0.7) (layer B.Cu) (net 21))
  (segment (start 110.236 111.252) (end 99.568 111.252) (width 0.7) (layer B.Cu) (net 21) (tstamp 57694EF9))
  (segment (start 111.252 112.268) (end 110.236 111.252) (width 0.7) (layer B.Cu) (net 21) (tstamp 57694EF8))
  (segment (start 91.948 134.112) (end 86.106 134.112) (width 0.7) (layer B.Cu) (net 22))
  (segment (start 86.106 134.112) (end 84.836 135.382) (width 0.7) (layer B.Cu) (net 22) (tstamp 57702AA0))
  (segment (start 84.836 135.382) (end 81.066 135.382) (width 0.7) (layer B.Cu) (net 22) (tstamp 57702AA1))
  (segment (start 81.066 135.382) (end 80.772 135.088) (width 0.7) (layer B.Cu) (net 22) (tstamp 57702AA2))
  (segment (start 91.948 144.272) (end 91.948 144.78) (width 0.7) (layer B.Cu) (net 23))
  (segment (start 91.948 144.78) (end 90.464 146.264) (width 0.7) (layer B.Cu) (net 23) (tstamp 57694F7D))
  (segment (start 90.464 146.264) (end 85.852 146.264) (width 0.7) (layer B.Cu) (net 23) (tstamp 57694F7E))
  (segment (start 86.36 85.344) (end 86.36 84.328) (width 0.7) (layer B.Cu) (net 24))
  (segment (start 90.424 82.296) (end 92.456 84.328) (width 0.7) (layer B.Cu) (net 24) (tstamp 57694DB8))
  (segment (start 88.392 82.296) (end 90.424 82.296) (width 0.7) (layer B.Cu) (net 24) (tstamp 57694DB7))
  (segment (start 86.36 84.328) (end 88.392 82.296) (width 0.7) (layer B.Cu) (net 24) (tstamp 57694DB6))
  (segment (start 99.06254 94.48852) (end 99.56852 94.48852) (width 0.7) (layer B.Cu) (net 25))
  (segment (start 99.56852 94.48852) (end 100.584 95.504) (width 0.7) (layer B.Cu) (net 25) (tstamp 57695DEF))
  (segment (start 100.584 95.504) (end 106.68 95.504) (width 0.7) (layer B.Cu) (net 25) (tstamp 57695DF0))
  (segment (start 106.68 95.504) (end 100.584 95.504) (width 0.7) (layer B.Cu) (net 25))
  (segment (start 78.74 85.344) (end 78.74 84.328) (width 0.7) (layer B.Cu) (net 26))
  (segment (start 72.136 83.312) (end 72.136 87.376) (width 0.7) (layer B.Cu) (net 26) (tstamp 57694DBE))
  (segment (start 73.66 81.788) (end 72.136 83.312) (width 0.7) (layer B.Cu) (net 26) (tstamp 57694DBD))
  (segment (start 76.2 81.788) (end 73.66 81.788) (width 0.7) (layer B.Cu) (net 26) (tstamp 57694DBC))
  (segment (start 78.74 84.328) (end 76.2 81.788) (width 0.7) (layer B.Cu) (net 26) (tstamp 57694DBB))
  (segment (start 79.248 85.344) (end 78.74 85.344) (width 0.7) (layer B.Cu) (net 26) (tstamp 57681116))
  (segment (start 72.644 87.884) (end 72.136 87.376) (width 0.7) (layer B.Cu) (net 26) (tstamp 57681119))
  (segment (start 99.568 144.272) (end 98.044 144.272) (width 0.7) (layer B.Cu) (net 27))
  (segment (start 99.568 100.076) (end 101.092 100.076) (width 0.7) (layer B.Cu) (net 27) (tstamp 57694E3A))
  (segment (start 96.012 103.632) (end 99.568 100.076) (width 0.7) (layer B.Cu) (net 27) (tstamp 57694E39))
  (segment (start 96.012 142.24) (end 96.012 103.632) (width 0.7) (layer B.Cu) (net 27) (tstamp 57694E38))
  (segment (start 98.044 144.272) (end 96.012 142.24) (width 0.7) (layer B.Cu) (net 27) (tstamp 57694E37))
  (segment (start 109.22 95.504) (end 109.22 96.52) (width 0.7) (layer B.Cu) (net 27))
  (segment (start 105.664 100.076) (end 101.092 100.076) (width 0.7) (layer B.Cu) (net 27) (tstamp 57694E1D))
  (segment (start 109.22 96.52) (end 105.664 100.076) (width 0.7) (layer B.Cu) (net 27) (tstamp 57694E1C))
  (segment (start 99.568 141.732) (end 99.06 141.732) (width 0.7) (layer B.Cu) (net 28))
  (segment (start 99.06 141.732) (end 97.028 139.7) (width 0.7) (layer B.Cu) (net 28) (tstamp 57694E28))
  (segment (start 97.028 139.7) (end 97.028 109.728) (width 0.7) (layer B.Cu) (net 28) (tstamp 57694E29))
  (segment (start 97.028 109.728) (end 97.028 104.648) (width 0.7) (layer B.Cu) (net 28) (tstamp 57694E2A))
  (segment (start 97.028 104.648) (end 100.076 101.6) (width 0.7) (layer B.Cu) (net 28) (tstamp 57694E2B))
  (segment (start 100.076 101.6) (end 106.172 101.6) (width 0.7) (layer B.Cu) (net 28) (tstamp 57694E2C))
  (segment (start 106.172 101.6) (end 111.252 96.52) (width 0.7) (layer B.Cu) (net 28) (tstamp 57694E2D))
  (segment (start 111.252 96.52) (end 111.252 93.98) (width 0.7) (layer B.Cu) (net 28) (tstamp 57694E2E))
  (segment (start 111.252 93.98) (end 110.77702 93.50502) (width 0.7) (layer B.Cu) (net 28) (tstamp 57694E2F))
  (segment (start 110.77702 93.50502) (end 109.22 93.50502) (width 0.7) (layer B.Cu) (net 28) (tstamp 57694E30))
  (segment (start 80.264 108.204) (end 80.264 106.934) (width 0.7) (layer B.Cu) (net 29))
  (segment (start 82.042 105.156) (end 87.376 105.156) (width 0.7) (layer B.Cu) (net 29) (tstamp 57702A6E))
  (segment (start 80.264 106.934) (end 82.042 105.156) (width 0.7) (layer B.Cu) (net 29) (tstamp 57702A6D))
  (segment (start 91.948 111.252) (end 90.424 111.252) (width 0.7) (layer B.Cu) (net 29))
  (segment (start 87.376 108.204) (end 87.376 105.156) (width 0.7) (layer B.Cu) (net 29) (tstamp 57694E16))
  (segment (start 90.424 111.252) (end 87.376 108.204) (width 0.7) (layer B.Cu) (net 29) (tstamp 57694E15))
  (segment (start 87.376 105.156) (end 86.868 105.664) (width 0.7) (layer B.Cu) (net 29) (tstamp 57694E18))
  (segment (start 91.948 123.952) (end 92.456 123.952) (width 0.7) (layer B.Cu) (net 30))
  (segment (start 92.456 123.952) (end 94.011996 122.396004) (width 0.7) (layer B.Cu) (net 30) (tstamp 57702A7F))
  (segment (start 94.011996 122.396004) (end 94.011996 103.917996) (width 0.7) (layer B.Cu) (net 30) (tstamp 57702A80))
  (segment (start 94.011996 103.917996) (end 91.186 101.092) (width 0.7) (layer B.Cu) (net 30) (tstamp 57702A81))
  (segment (start 91.186 101.092) (end 75.692 101.092) (width 0.7) (layer B.Cu) (net 30) (tstamp 57702A83))
  (segment (start 75.692 101.092) (end 72.136 97.536) (width 0.7) (layer B.Cu) (net 30) (tstamp 57702A85))

  (zone (net 2) (net_name GND) (layer B.Cu) (tstamp 57695694) (hatch edge 0.508)
    (connect_pads (clearance 0.508))
    (min_thickness 0.254)
    (fill yes (arc_segments 16) (thermal_gap 0.508) (thermal_bridge_width 0.508))
    (polygon
      (pts
        (xy 68.58 79.248) (xy 115.824 79.248) (xy 118.872 82.296) (xy 118.872 146.304) (xy 114.3 150.876)
        (xy 77.216 150.876) (xy 65.532 139.192) (xy 65.532 82.296) (xy 68.58 79.248)
      )
    )
    (filled_polygon
      (pts
        (xy 118.745 82.348606) (xy 118.745 89.507597) (xy 118.5525 89.2195) (xy 112.9645 83.6315) (xy 112.644943 83.417979)
        (xy 112.268 83.343) (xy 100.53258 83.343) (xy 100.510327 83.231125) (xy 100.369979 83.021081) (xy 100.159935 82.880733)
        (xy 99.91217 82.83145) (xy 98.21291 82.83145) (xy 97.965145 82.880733) (xy 97.755101 83.021081) (xy 97.614753 83.231125)
        (xy 97.56547 83.47889) (xy 97.56547 85.17815) (xy 97.614753 85.425915) (xy 97.755101 85.635959) (xy 97.965145 85.776307)
        (xy 98.075 85.798158) (xy 98.075 86.46) (xy 97.636 86.899) (xy 88.000478 86.899) (xy 87.958157 86.686235)
        (xy 87.817809 86.476191) (xy 87.609051 86.336702) (xy 87.702914 86.243003) (xy 87.944724 85.660659) (xy 87.945275 85.030107)
        (xy 87.704481 84.447343) (xy 87.6691 84.4119) (xy 88.8 83.281) (xy 90.016 83.281) (xy 90.82172 84.08672)
        (xy 90.821226 84.651694) (xy 91.069538 85.252655) (xy 91.528927 85.712846) (xy 92.129453 85.962206) (xy 92.779694 85.962774)
        (xy 93.380655 85.714462) (xy 93.840846 85.255073) (xy 94.090206 84.654547) (xy 94.090774 84.004306) (xy 93.842462 83.403345)
        (xy 93.383073 82.943154) (xy 92.782547 82.693794) (xy 92.214298 82.693298) (xy 91.1205 81.5995) (xy 90.800943 81.385979)
        (xy 90.424 81.311) (xy 88.392 81.311) (xy 88.015057 81.385979) (xy 87.6955 81.5995) (xy 85.6635 83.6315)
        (xy 85.449979 83.951057) (xy 85.43464 84.028172) (xy 85.017086 84.444997) (xy 84.775276 85.027341) (xy 84.774725 85.657893)
        (xy 85.015519 86.240657) (xy 85.111218 86.336523) (xy 84.902191 86.476191) (xy 84.761843 86.686235) (xy 84.719522 86.899)
        (xy 80.380478 86.899) (xy 80.338157 86.686235) (xy 80.197809 86.476191) (xy 79.989051 86.336702) (xy 80.082914 86.243003)
        (xy 80.324724 85.660659) (xy 80.325275 85.030107) (xy 80.084481 84.447343) (xy 79.665191 84.027319) (xy 79.650021 83.951057)
        (xy 79.4365 83.6315) (xy 76.8965 81.0915) (xy 76.576943 80.877979) (xy 76.2 80.803) (xy 73.66 80.803)
        (xy 73.283057 80.877979) (xy 72.963499 81.0915) (xy 71.4395 82.6155) (xy 71.225979 82.935057) (xy 71.151 83.312)
        (xy 71.151 86.049778) (xy 70.751154 86.448927) (xy 70.501794 87.049453) (xy 70.501226 87.699694) (xy 70.749538 88.300655)
        (xy 71.208927 88.760846) (xy 71.809453 89.010206) (xy 72.459694 89.010774) (xy 72.95024 88.808085) (xy 73.020943 88.794021)
        (xy 73.3405 88.5805) (xy 73.554021 88.260943) (xy 73.56844 88.188454) (xy 73.770206 87.702547) (xy 73.770774 87.052306)
        (xy 73.522462 86.451345) (xy 73.121 86.049182) (xy 73.121 83.72) (xy 74.068001 82.773) (xy 75.792 82.773)
        (xy 77.430571 84.411571) (xy 77.397086 84.444997) (xy 77.155276 85.027341) (xy 77.154725 85.657893) (xy 77.395519 86.240657)
        (xy 77.491218 86.336523) (xy 77.282191 86.476191) (xy 77.141843 86.686235) (xy 77.099522 86.899) (xy 76.2 86.899)
        (xy 75.823057 86.973979) (xy 75.5035 87.1875) (xy 72.236 90.455) (xy 70.612 90.455) (xy 70.235057 90.529979)
        (xy 69.915499 90.7435) (xy 68.3915 92.2675) (xy 68.177979 92.587057) (xy 68.103 92.964) (xy 68.103 109.040363)
        (xy 68.026729 109.154511) (xy 67.912655 109.728) (xy 68.026729 110.301489) (xy 68.351585 110.78767) (xy 68.666366 110.998)
        (xy 68.351585 111.20833) (xy 68.026729 111.694511) (xy 67.912655 112.268) (xy 68.026729 112.841489) (xy 68.351585 113.32767)
        (xy 68.666366 113.538) (xy 68.351585 113.74833) (xy 68.026729 114.234511) (xy 67.912655 114.808) (xy 68.026729 115.381489)
        (xy 68.351585 115.86767) (xy 68.666366 116.078) (xy 68.351585 116.28833) (xy 68.026729 116.774511) (xy 67.912655 117.348)
        (xy 68.026729 117.921489) (xy 68.351585 118.40767) (xy 68.666366 118.618) (xy 68.351585 118.82833) (xy 68.026729 119.314511)
        (xy 67.912655 119.888) (xy 68.026729 120.461489) (xy 68.351585 120.94767) (xy 68.666366 121.158) (xy 68.351585 121.36833)
        (xy 68.026729 121.854511) (xy 67.912655 122.428) (xy 68.026729 123.001489) (xy 68.351585 123.48767) (xy 68.666366 123.698)
        (xy 68.351585 123.90833) (xy 68.026729 124.394511) (xy 67.912655 124.968) (xy 68.026729 125.541489) (xy 68.351585 126.02767)
        (xy 68.666366 126.238) (xy 68.351585 126.44833) (xy 68.026729 126.934511) (xy 67.912655 127.508) (xy 68.026729 128.081489)
        (xy 68.351585 128.56767) (xy 68.666366 128.778) (xy 68.351585 128.98833) (xy 68.026729 129.474511) (xy 67.912655 130.048)
        (xy 68.026729 130.621489) (xy 68.351585 131.10767) (xy 68.666366 131.318) (xy 68.351585 131.52833) (xy 68.026729 132.014511)
        (xy 67.912655 132.588) (xy 68.026729 133.161489) (xy 68.351585 133.64767) (xy 68.37378 133.6625) (xy 68.220302 133.726073)
        (xy 68.041673 133.904701) (xy 67.945 134.13809) (xy 67.945 134.84225) (xy 68.10375 135.001) (xy 69.469 135.001)
        (xy 69.469 134.981) (xy 69.723 134.981) (xy 69.723 135.001) (xy 71.08825 135.001) (xy 71.247 134.84225)
        (xy 71.247 134.13809) (xy 71.150327 133.904701) (xy 70.971698 133.726073) (xy 70.81822 133.6625) (xy 70.840415 133.64767)
        (xy 70.890308 133.573) (xy 72.744 133.573) (xy 73.691 134.520001) (xy 73.691 137.668) (xy 73.765979 138.044943)
        (xy 73.9795 138.3645) (xy 78.771 143.156) (xy 78.771 147.32) (xy 78.845979 147.696943) (xy 79.0595 148.0165)
        (xy 80.583499 149.5405) (xy 80.903057 149.754021) (xy 81.28 149.829) (xy 99.568 149.829) (xy 99.944943 149.754021)
        (xy 100.2645 149.5405) (xy 103.3125 146.4925) (xy 103.376127 146.397275) (xy 114.560331 146.397275) (xy 114.622169 146.633042)
        (xy 115.123122 146.809419) (xy 115.65344 146.780664) (xy 116.009831 146.633042) (xy 116.071669 146.397275) (xy 115.316 145.641605)
        (xy 114.560331 146.397275) (xy 103.376127 146.397275) (xy 103.526021 146.172943) (xy 103.601 145.796) (xy 103.601 145.679016)
        (xy 106.00059 145.679016) (xy 106.056271 145.909611) (xy 106.539078 146.077622) (xy 107.049428 146.048083) (xy 107.383729 145.909611)
        (xy 107.43941 145.679016) (xy 106.72 144.959605) (xy 106.00059 145.679016) (xy 103.601 145.679016) (xy 103.601 144.599078)
        (xy 105.422378 144.599078) (xy 105.451917 145.109428) (xy 105.590389 145.443729) (xy 105.820984 145.49941) (xy 106.540395 144.78)
        (xy 105.820984 144.06059) (xy 105.590389 144.116271) (xy 105.422378 144.599078) (xy 103.601 144.599078) (xy 103.601 143.880984)
        (xy 106.00059 143.880984) (xy 106.72 144.600395) (xy 107.43941 143.880984) (xy 107.383729 143.650389) (xy 106.900922 143.482378)
        (xy 106.390572 143.511917) (xy 106.056271 143.650389) (xy 106.00059 143.880984) (xy 103.601 143.880984) (xy 103.601 140.716)
        (xy 103.526021 140.339057) (xy 103.3125 140.019499) (xy 101.7885 138.4955) (xy 101.468943 138.281979) (xy 101.092 138.207)
        (xy 100.987512 138.207) (xy 100.967668 138.177302) (xy 100.585582 137.922) (xy 100.967668 137.666698) (xy 100.987512 137.637)
        (xy 103.224 137.637) (xy 104.459499 138.8725) (xy 104.779057 139.086021) (xy 105.156 139.161) (xy 110.490251 139.161)
        (xy 110.551515 139.222371) (xy 111.005266 139.410785) (xy 111.496579 139.411214) (xy 111.950657 139.223592) (xy 112.298371 138.876485)
        (xy 112.486785 138.422734) (xy 112.487214 137.931421) (xy 112.299592 137.477343) (xy 111.952485 137.129629) (xy 111.498734 136.941215)
        (xy 111.007421 136.940786) (xy 110.553343 137.128408) (xy 110.490642 137.191) (xy 105.564001 137.191) (xy 104.3285 135.9555)
        (xy 104.008943 135.741979) (xy 103.632 135.667) (xy 100.987512 135.667) (xy 100.967668 135.637302) (xy 100.589849 135.384851)
        (xy 101.0225 135.036896) (xy 101.292367 134.543819) (xy 101.309904 134.461039) (xy 101.187915 134.239) (xy 99.695 134.239)
        (xy 99.695 134.259) (xy 99.441 134.259) (xy 99.441 134.239) (xy 99.421 134.239) (xy 99.421 133.985)
        (xy 99.441 133.985) (xy 99.441 133.965) (xy 99.695 133.965) (xy 99.695 133.985) (xy 101.187915 133.985)
        (xy 101.240245 133.88975) (xy 104.379 133.88975) (xy 104.379 134.38031) (xy 104.475673 134.613699) (xy 104.654302 134.792327)
        (xy 104.887691 134.889) (xy 105.37825 134.889) (xy 105.537 134.73025) (xy 105.537 133.731) (xy 104.53775 133.731)
        (xy 104.379 133.88975) (xy 101.240245 133.88975) (xy 101.309904 133.762961) (xy 101.292367 133.680181) (xy 101.0225 133.187104)
        (xy 100.589849 132.839149) (xy 100.967668 132.586698) (xy 100.987512 132.557) (xy 104.512974 132.557) (xy 104.475673 132.594301)
        (xy 104.379 132.82769) (xy 104.379 133.31825) (xy 104.53775 133.477) (xy 105.537 133.477) (xy 105.537 133.457)
        (xy 105.791 133.457) (xy 105.791 133.477) (xy 105.811 133.477) (xy 105.811 133.731) (xy 105.791 133.731)
        (xy 105.791 134.73025) (xy 105.94975 134.889) (xy 106.440309 134.889) (xy 106.673698 134.792327) (xy 106.852327 134.613699)
        (xy 106.949 134.38031) (xy 106.949 134.028433) (xy 107.073995 134.330943) (xy 107.435155 134.692735) (xy 107.907276 134.888777)
        (xy 108.418481 134.889223) (xy 108.549915 134.834915) (xy 109.539499 135.8245) (xy 109.789583 135.9916) (xy 109.859057 136.038021)
        (xy 110.236 136.113) (xy 113.676708 136.113) (xy 113.701843 136.239365) (xy 113.842191 136.449409) (xy 114.052235 136.589757)
        (xy 114.3 136.63904) (xy 114.331 136.63904) (xy 114.331 139.188723) (xy 114.158191 139.304191) (xy 114.017843 139.514235)
        (xy 113.96856 139.762) (xy 113.96856 141.162) (xy 114.017843 141.409765) (xy 114.158191 141.619809) (xy 114.331 141.735277)
        (xy 114.331 142.594) (xy 113.638 143.287) (xy 109.728 143.287) (xy 109.351057 143.361979) (xy 109.170594 143.48256)
        (xy 108.57 143.48256) (xy 108.322235 143.531843) (xy 108.112191 143.672191) (xy 107.971843 143.882235) (xy 107.92256 144.13)
        (xy 107.92256 144.292385) (xy 107.849611 144.116271) (xy 107.619016 144.06059) (xy 106.899605 144.78) (xy 107.619016 145.49941)
        (xy 107.849611 145.443729) (xy 107.92256 145.234098) (xy 107.92256 145.43) (xy 107.971843 145.677765) (xy 108.112191 145.887809)
        (xy 108.322235 146.028157) (xy 108.57 146.07744) (xy 109.87 146.07744) (xy 110.117765 146.028157) (xy 110.327809 145.887809)
        (xy 110.468157 145.677765) (xy 110.51744 145.43) (xy 110.51744 145.257) (xy 113.972849 145.257) (xy 113.968581 145.269122)
        (xy 113.997336 145.79944) (xy 114.144958 146.155831) (xy 114.380725 146.217669) (xy 115.136395 145.462) (xy 115.495605 145.462)
        (xy 116.251275 146.217669) (xy 116.487042 146.155831) (xy 116.663419 145.654878) (xy 116.634664 145.12456) (xy 116.487042 144.768169)
        (xy 116.251275 144.706331) (xy 115.495605 145.462) (xy 115.136395 145.462) (xy 115.122253 145.447858) (xy 115.301858 145.268252)
        (xy 115.316 145.282395) (xy 116.071669 144.526725) (xy 116.009831 144.290958) (xy 115.573623 144.137377) (xy 116.0125 143.6985)
        (xy 116.226021 143.378943) (xy 116.301 143.002) (xy 116.301 141.735277) (xy 116.473809 141.619809) (xy 116.614157 141.409765)
        (xy 116.66344 141.162) (xy 116.66344 139.762) (xy 116.614157 139.514235) (xy 116.473809 139.304191) (xy 116.301 139.188723)
        (xy 116.301 136.63904) (xy 116.332 136.63904) (xy 116.579765 136.589757) (xy 116.789809 136.449409) (xy 116.930157 136.239365)
        (xy 116.960042 136.089122) (xy 117.216943 136.038021) (xy 117.5365 135.8245) (xy 118.5525 134.8085) (xy 118.745 134.520403)
        (xy 118.745 146.251394) (xy 114.247394 150.749) (xy 77.268606 150.749) (xy 65.659 139.139394) (xy 65.659 135.41375)
        (xy 67.945 135.41375) (xy 67.945 136.11791) (xy 68.041673 136.351299) (xy 68.220302 136.529927) (xy 68.453691 136.6266)
        (xy 69.31025 136.6266) (xy 69.469 136.46785) (xy 69.469 135.255) (xy 69.723 135.255) (xy 69.723 136.46785)
        (xy 69.88175 136.6266) (xy 70.738309 136.6266) (xy 70.971698 136.529927) (xy 71.150327 136.351299) (xy 71.247 136.11791)
        (xy 71.247 135.41375) (xy 71.08825 135.255) (xy 69.723 135.255) (xy 69.469 135.255) (xy 68.10375 135.255)
        (xy 67.945 135.41375) (xy 65.659 135.41375) (xy 65.659 82.348606) (xy 68.632606 79.375) (xy 115.771394 79.375)
      )
    )
    (filled_polygon
      (pts
        (xy 116.871 90.324) (xy 116.871 109.250015) (xy 116.666732 108.825964) (xy 116.23032 108.436046) (xy 115.677913 108.242816)
        (xy 115.443 108.387076) (xy 115.443 109.601) (xy 115.463 109.601) (xy 115.463 109.855) (xy 115.443 109.855)
        (xy 115.443 109.875) (xy 115.189 109.875) (xy 115.189 109.855) (xy 113.829783 109.855) (xy 113.708642 110.087026)
        (xy 113.711291 110.102791) (xy 113.965268 110.630036) (xy 114.381069 111.001539) (xy 114.071585 111.20833) (xy 114.021692 111.283)
        (xy 111.66 111.283) (xy 110.9325 110.5555) (xy 110.612943 110.341979) (xy 110.236 110.267) (xy 100.987512 110.267)
        (xy 100.967668 110.237302) (xy 100.502121 109.926233) (xy 99.95297 109.817) (xy 99.18303 109.817) (xy 98.633879 109.926233)
        (xy 98.168332 110.237302) (xy 98.013 110.469772) (xy 98.013 109.368974) (xy 113.708642 109.368974) (xy 113.829783 109.601)
        (xy 115.189 109.601) (xy 115.189 108.387076) (xy 114.954087 108.242816) (xy 114.40168 108.436046) (xy 113.965268 108.825964)
        (xy 113.711291 109.353209) (xy 113.708642 109.368974) (xy 98.013 109.368974) (xy 98.013 105.056) (xy 100.484 102.585)
        (xy 106.172 102.585) (xy 106.548943 102.510021) (xy 106.8685 102.2965) (xy 111.9485 97.2165) (xy 112.162021 96.896943)
        (xy 112.237 96.52) (xy 112.237 93.98) (xy 112.162021 93.603057) (xy 111.9485 93.2835) (xy 111.47352 92.80852)
        (xy 111.153963 92.594999) (xy 110.77702 92.52002) (xy 110.210653 92.52002) (xy 110.01237 92.321391) (xy 109.745558 92.210601)
        (xy 112.723484 92.210601) (xy 112.864952 92.51379) (xy 113.601432 92.798747) (xy 114.3909 92.780174) (xy 115.034008 92.51379)
        (xy 115.175476 92.210601) (xy 113.94948 90.984605) (xy 112.723484 92.210601) (xy 109.745558 92.210601) (xy 109.4991 92.108263)
        (xy 108.943339 92.107778) (xy 108.429697 92.32001) (xy 108.036371 92.71265) (xy 107.956605 92.904747) (xy 107.902397 92.773877)
        (xy 107.660213 92.704412) (xy 106.859605 93.50502) (xy 107.660213 94.305628) (xy 107.902397 94.236163) (xy 107.952509 94.095702)
        (xy 108.03499 94.295323) (xy 108.243832 94.50453) (xy 108.036371 94.71163) (xy 107.950051 94.919512) (xy 107.86501 94.713697)
        (xy 107.47237 94.320371) (xy 107.204529 94.209154) (xy 106.68 93.684625) (xy 106.155436 94.209189) (xy 105.889697 94.31899)
        (xy 105.689338 94.519) (xy 100.992 94.519) (xy 100.462878 93.989878) (xy 100.321882 93.648643) (xy 99.971174 93.297322)
        (xy 105.270856 93.297322) (xy 105.298638 93.852388) (xy 105.457603 94.236163) (xy 105.699787 94.305628) (xy 106.500395 93.50502)
        (xy 105.699787 92.704412) (xy 105.457603 92.773877) (xy 105.270856 93.297322) (xy 99.971174 93.297322) (xy 99.904614 93.230646)
        (xy 99.359147 93.004148) (xy 98.768524 93.003632) (xy 98.222663 93.229178) (xy 97.804666 93.646446) (xy 97.578168 94.191913)
        (xy 97.577652 94.782536) (xy 97.803198 95.328397) (xy 98.220466 95.746394) (xy 98.765933 95.972892) (xy 99.356556 95.973408)
        (xy 99.571567 95.884567) (xy 99.8875 96.2005) (xy 100.207057 96.414021) (xy 100.584 96.489) (xy 105.689347 96.489)
        (xy 105.88763 96.687629) (xy 106.4009 96.900757) (xy 106.956661 96.901242) (xy 107.470303 96.68901) (xy 107.863629 96.29637)
        (xy 107.949949 96.088488) (xy 108.03499 96.294303) (xy 108.043836 96.303164) (xy 105.256 99.091) (xy 99.568 99.091)
        (xy 99.191057 99.165979) (xy 98.8715 99.3795) (xy 95.3155 102.9355) (xy 95.101979 103.255057) (xy 95.027 103.632)
        (xy 95.027 142.24) (xy 95.101979 142.616943) (xy 95.3155 142.9365) (xy 97.3475 144.9685) (xy 97.667057 145.182021)
        (xy 98.044 145.257) (xy 98.148488 145.257) (xy 98.168332 145.286698) (xy 98.633879 145.597767) (xy 99.18303 145.707)
        (xy 99.95297 145.707) (xy 100.502121 145.597767) (xy 100.967668 145.286698) (xy 101.278737 144.821151) (xy 101.38797 144.272)
        (xy 101.278737 143.722849) (xy 100.967668 143.257302) (xy 100.585582 143.002) (xy 100.967668 142.746698) (xy 101.278737 142.281151)
        (xy 101.38797 141.732) (xy 101.278737 141.182849) (xy 100.967668 140.717302) (xy 100.585582 140.462) (xy 100.815424 140.308424)
        (xy 101.631 141.124001) (xy 101.631 145.388) (xy 99.16 147.859) (xy 81.688001 147.859) (xy 80.741 146.912)
        (xy 80.741 142.748) (xy 80.733303 142.709303) (xy 80.772 142.717) (xy 84.700975 142.717) (xy 84.663673 142.754302)
        (xy 84.567 142.987691) (xy 84.567 143.47825) (xy 84.72575 143.637) (xy 85.725 143.637) (xy 85.725 143.617)
        (xy 85.979 143.617) (xy 85.979 143.637) (xy 86.97825 143.637) (xy 87.137 143.47825) (xy 87.137 142.987691)
        (xy 87.040327 142.754302) (xy 87.003025 142.717) (xy 90.528488 142.717) (xy 90.548332 142.746698) (xy 90.930418 143.002)
        (xy 90.548332 143.257302) (xy 90.237263 143.722849) (xy 90.12803 144.272) (xy 90.237263 144.821151) (xy 90.348048 144.986952)
        (xy 90.056 145.279) (xy 86.684399 145.279) (xy 86.580845 145.175265) (xy 86.276765 145.049) (xy 86.62831 145.049)
        (xy 86.861699 144.952327) (xy 87.040327 144.773698) (xy 87.137 144.540309) (xy 87.137 144.04975) (xy 86.97825 143.891)
        (xy 85.979 143.891) (xy 85.979 143.911) (xy 85.725 143.911) (xy 85.725 143.891) (xy 84.72575 143.891)
        (xy 84.567 144.04975) (xy 84.567 144.540309) (xy 84.663673 144.773698) (xy 84.842301 144.952327) (xy 85.07569 145.049)
        (xy 85.427567 145.049) (xy 85.125057 145.173995) (xy 84.763265 145.535155) (xy 84.567223 146.007276) (xy 84.566777 146.518481)
        (xy 84.761995 146.990943) (xy 85.123155 147.352735) (xy 85.595276 147.548777) (xy 86.106481 147.549223) (xy 86.578943 147.354005)
        (xy 86.684132 147.249) (xy 90.464 147.249) (xy 90.840943 147.174021) (xy 91.1605 146.9605) (xy 92.43412 145.68688)
        (xy 92.882121 145.597767) (xy 93.347668 145.286698) (xy 93.658737 144.821151) (xy 93.76797 144.272) (xy 93.658737 143.722849)
        (xy 93.347668 143.257302) (xy 92.965582 143.002) (xy 93.347668 142.746698) (xy 93.658737 142.281151) (xy 93.76797 141.732)
        (xy 93.658737 141.182849) (xy 93.347668 140.717302) (xy 92.965582 140.462) (xy 93.347668 140.206698) (xy 93.658737 139.741151)
        (xy 93.76797 139.192) (xy 93.658737 138.642849) (xy 93.347668 138.177302) (xy 92.965582 137.922) (xy 93.347668 137.666698)
        (xy 93.658737 137.201151) (xy 93.76797 136.652) (xy 93.658737 136.102849) (xy 93.347668 135.637302) (xy 92.965582 135.382)
        (xy 93.347668 135.126698) (xy 93.658737 134.661151) (xy 93.76797 134.112) (xy 93.658737 133.562849) (xy 93.347668 133.097302)
        (xy 92.965582 132.842) (xy 93.347668 132.586698) (xy 93.658737 132.121151) (xy 93.76797 131.572) (xy 93.658737 131.022849)
        (xy 93.347668 130.557302) (xy 92.969849 130.304851) (xy 93.4025 129.956896) (xy 93.672367 129.463819) (xy 93.689904 129.381039)
        (xy 93.567915 129.159) (xy 92.075 129.159) (xy 92.075 129.179) (xy 91.821 129.179) (xy 91.821 129.159)
        (xy 90.328085 129.159) (xy 90.206096 129.381039) (xy 90.223633 129.463819) (xy 90.4935 129.956896) (xy 90.926151 130.304851)
        (xy 90.548332 130.557302) (xy 90.528488 130.587) (xy 89.054 130.587) (xy 87.452242 128.985242) (xy 87.452434 128.765399)
        (xy 87.247919 128.270435) (xy 86.869557 127.891412) (xy 86.374951 127.686034) (xy 85.839399 127.685566) (xy 85.344435 127.890081)
        (xy 85.187242 128.047) (xy 81.465335 128.047) (xy 81.49141 127.939016) (xy 80.772 127.219605) (xy 80.05259 127.939016)
        (xy 80.108271 128.169611) (xy 80.317902 128.24256) (xy 80.122 128.24256) (xy 79.874235 128.291843) (xy 79.664191 128.432191)
        (xy 79.523843 128.642235) (xy 79.47456 128.89) (xy 79.47456 130.19) (xy 79.523843 130.437765) (xy 79.664191 130.647809)
        (xy 79.874235 130.788157) (xy 80.122 130.83744) (xy 81.422 130.83744) (xy 81.669765 130.788157) (xy 81.879809 130.647809)
        (xy 82.020157 130.437765) (xy 82.06944 130.19) (xy 82.06944 130.017) (xy 85.187126 130.017) (xy 85.342443 130.172588)
        (xy 85.837049 130.377966) (xy 86.05916 130.37816) (xy 87.9495 132.2685) (xy 88.269057 132.482021) (xy 88.646 132.557)
        (xy 90.528488 132.557) (xy 90.548332 132.586698) (xy 90.930418 132.842) (xy 90.548332 133.097302) (xy 90.528488 133.127)
        (xy 87.024874 133.127) (xy 86.869557 132.971412) (xy 86.374951 132.766034) (xy 85.839399 132.765566) (xy 85.344435 132.970081)
        (xy 84.965412 133.348443) (xy 84.760034 133.843049) (xy 84.75984 134.06516) (xy 84.428 134.397) (xy 81.876856 134.397)
        (xy 81.862005 134.361057) (xy 81.500845 133.999265) (xy 81.196765 133.873) (xy 81.54831 133.873) (xy 81.781699 133.776327)
        (xy 81.960327 133.597698) (xy 82.057 133.364309) (xy 82.057 132.87375) (xy 81.89825 132.715) (xy 80.899 132.715)
        (xy 80.899 132.735) (xy 80.645 132.735) (xy 80.645 132.715) (xy 79.64575 132.715) (xy 79.487 132.87375)
        (xy 79.487 133.364309) (xy 79.583673 133.597698) (xy 79.762301 133.776327) (xy 79.99569 133.873) (xy 80.347567 133.873)
        (xy 80.045057 133.997995) (xy 79.683265 134.359155) (xy 79.487223 134.831276) (xy 79.486777 135.342481) (xy 79.596126 135.607125)
        (xy 78.709 134.72) (xy 78.709 131.811691) (xy 79.487 131.811691) (xy 79.487 132.30225) (xy 79.64575 132.461)
        (xy 80.645 132.461) (xy 80.645 131.46175) (xy 80.899 131.46175) (xy 80.899 132.461) (xy 81.89825 132.461)
        (xy 82.057 132.30225) (xy 82.057 131.811691) (xy 81.960327 131.578302) (xy 81.781699 131.399673) (xy 81.54831 131.303)
        (xy 81.05775 131.303) (xy 80.899 131.46175) (xy 80.645 131.46175) (xy 80.48625 131.303) (xy 79.99569 131.303)
        (xy 79.762301 131.399673) (xy 79.583673 131.578302) (xy 79.487 131.811691) (xy 78.709 131.811691) (xy 78.709 126.859078)
        (xy 79.474378 126.859078) (xy 79.503917 127.369428) (xy 79.642389 127.703729) (xy 79.872984 127.75941) (xy 80.592395 127.04)
        (xy 80.951605 127.04) (xy 81.671016 127.75941) (xy 81.901611 127.703729) (xy 82.069622 127.220922) (xy 82.040083 126.710572)
        (xy 81.901611 126.376271) (xy 81.671016 126.32059) (xy 80.951605 127.04) (xy 80.592395 127.04) (xy 79.872984 126.32059)
        (xy 79.642389 126.376271) (xy 79.474378 126.859078) (xy 78.709 126.859078) (xy 78.709 126.492) (xy 78.639179 126.140984)
        (xy 80.05259 126.140984) (xy 80.772 126.860395) (xy 81.49141 126.140984) (xy 81.435729 125.910389) (xy 80.952922 125.742378)
        (xy 80.442572 125.771917) (xy 80.108271 125.910389) (xy 80.05259 126.140984) (xy 78.639179 126.140984) (xy 78.634021 126.115057)
        (xy 78.575631 126.02767) (xy 78.4205 125.795499) (xy 76.8965 124.2715) (xy 76.576943 124.057979) (xy 76.2 123.983)
        (xy 70.890308 123.983) (xy 70.840415 123.90833) (xy 70.525634 123.698) (xy 70.840415 123.48767) (xy 70.890308 123.413)
        (xy 84.428 123.413) (xy 85.663499 124.6485) (xy 85.945525 124.836943) (xy 85.983057 124.862021) (xy 86.36 124.937)
        (xy 88.423 124.937) (xy 88.423 125.984) (xy 88.497979 126.360943) (xy 88.7115 126.6805) (xy 89.219499 127.1885)
        (xy 89.490278 127.369428) (xy 89.539057 127.402021) (xy 89.916 127.477) (xy 90.528488 127.477) (xy 90.548332 127.506698)
        (xy 90.926151 127.759149) (xy 90.4935 128.107104) (xy 90.223633 128.600181) (xy 90.206096 128.682961) (xy 90.328085 128.905)
        (xy 91.821 128.905) (xy 91.821 128.885) (xy 92.075 128.885) (xy 92.075 128.905) (xy 93.567915 128.905)
        (xy 93.689904 128.682961) (xy 93.672367 128.600181) (xy 93.4025 128.107104) (xy 92.969849 127.759149) (xy 93.347668 127.506698)
        (xy 93.658737 127.041151) (xy 93.76797 126.492) (xy 93.658737 125.942849) (xy 93.347668 125.477302) (xy 92.965582 125.222)
        (xy 93.347668 124.966698) (xy 93.658737 124.501151) (xy 93.74785 124.05315) (xy 94.708496 123.092504) (xy 94.922017 122.772947)
        (xy 94.996996 122.396004) (xy 94.996996 103.917996) (xy 94.922017 103.541053) (xy 94.708496 103.221496) (xy 91.8825 100.3955)
        (xy 91.562943 100.181979) (xy 91.186 100.107) (xy 76.1 100.107) (xy 73.77028 97.77728) (xy 73.770774 97.212306)
        (xy 73.522462 96.611345) (xy 73.063073 96.151154) (xy 72.462547 95.901794) (xy 71.812306 95.901226) (xy 71.211345 96.149538)
        (xy 70.751154 96.608927) (xy 70.501794 97.209453) (xy 70.501226 97.859694) (xy 70.749538 98.460655) (xy 71.208927 98.920846)
        (xy 71.809453 99.170206) (xy 72.377702 99.170702) (xy 74.9955 101.7885) (xy 75.315057 102.002021) (xy 75.692 102.077)
        (xy 90.778 102.077) (xy 93.026996 104.325996) (xy 93.026996 110.023036) (xy 92.882121 109.926233) (xy 92.33297 109.817)
        (xy 91.56303 109.817) (xy 91.013879 109.926233) (xy 90.700576 110.135576) (xy 88.361 107.796) (xy 88.361 106.671083)
        (xy 88.385765 106.666157) (xy 88.595809 106.525809) (xy 88.736157 106.315765) (xy 88.78544 106.068) (xy 88.78544 104.244)
        (xy 88.736157 103.996235) (xy 88.595809 103.786191) (xy 88.385765 103.645843) (xy 88.138 103.59656) (xy 86.614 103.59656)
        (xy 86.366235 103.645843) (xy 86.156191 103.786191) (xy 86.015843 103.996235) (xy 85.98108 104.171) (xy 82.042 104.171)
        (xy 81.665057 104.245979) (xy 81.3455 104.4595) (xy 79.5675 106.2375) (xy 79.353979 106.557057) (xy 79.292954 106.863848)
        (xy 78.879154 107.276927) (xy 78.629794 107.877453) (xy 78.629226 108.527694) (xy 78.877538 109.128655) (xy 79.336927 109.588846)
        (xy 79.937453 109.838206) (xy 80.587694 109.838774) (xy 81.188655 109.590462) (xy 81.648846 109.131073) (xy 81.898206 108.530547)
        (xy 81.898774 107.880306) (xy 81.650462 107.279345) (xy 81.481206 107.109794) (xy 82.45 106.141) (xy 85.98108 106.141)
        (xy 86.015843 106.315765) (xy 86.156191 106.525809) (xy 86.366235 106.666157) (xy 86.391 106.671083) (xy 86.391 108.204)
        (xy 86.465979 108.580943) (xy 86.6795 108.9005) (xy 89.7275 111.9485) (xy 90.047057 112.162021) (xy 90.424 112.237)
        (xy 90.528488 112.237) (xy 90.548332 112.266698) (xy 90.930418 112.522) (xy 90.548332 112.777302) (xy 90.528488 112.807)
        (xy 86.768001 112.807) (xy 85.5325 111.5715) (xy 85.212943 111.357979) (xy 84.836 111.283) (xy 70.890308 111.283)
        (xy 70.840415 111.20833) (xy 70.525634 110.998) (xy 70.840415 110.78767) (xy 71.165271 110.301489) (xy 71.279345 109.728)
        (xy 71.165271 109.154511) (xy 70.840415 108.66833) (xy 70.354234 108.343474) (xy 70.073 108.287533) (xy 70.073 93.372)
        (xy 71.020001 92.425) (xy 72.644 92.425) (xy 73.020943 92.350021) (xy 73.3405 92.1365) (xy 76.608 88.869)
        (xy 77.099522 88.869) (xy 77.141843 89.081765) (xy 77.282191 89.291809) (xy 77.492235 89.432157) (xy 77.74 89.48144)
        (xy 79.74 89.48144) (xy 79.987765 89.432157) (xy 80.197809 89.291809) (xy 80.338157 89.081765) (xy 80.380478 88.869)
        (xy 84.719522 88.869) (xy 84.761843 89.081765) (xy 84.902191 89.291809) (xy 85.112235 89.432157) (xy 85.36 89.48144)
        (xy 85.375 89.48144) (xy 85.375 92.048) (xy 80.889196 96.533804) (xy 80.590547 96.409794) (xy 79.940306 96.409226)
        (xy 79.339345 96.657538) (xy 78.879154 97.116927) (xy 78.629794 97.717453) (xy 78.629226 98.367694) (xy 78.877538 98.968655)
        (xy 79.336927 99.428846) (xy 79.937453 99.678206) (xy 80.587694 99.678774) (xy 81.188655 99.430462) (xy 81.648846 98.971073)
        (xy 81.898206 98.370547) (xy 81.898258 98.310742) (xy 82.327015 97.881985) (xy 85.991571 97.881985) (xy 86.171955 98.396865)
        (xy 86.535644 98.803522) (xy 87.027269 99.040046) (xy 87.03293 99.04022) (xy 87.249 98.91772) (xy 87.249 97.663)
        (xy 87.503 97.663) (xy 87.503 98.91772) (xy 87.71907 99.04022) (xy 87.724731 99.040046) (xy 88.216356 98.803522)
        (xy 88.580045 98.396865) (xy 88.760429 97.881985) (xy 88.615293 97.663) (xy 87.503 97.663) (xy 87.249 97.663)
        (xy 86.136707 97.663) (xy 85.991571 97.881985) (xy 82.327015 97.881985) (xy 83.018985 97.190015) (xy 85.991571 97.190015)
        (xy 86.136707 97.409) (xy 87.249 97.409) (xy 87.249 96.15428) (xy 87.503 96.15428) (xy 87.503 97.409)
        (xy 88.615293 97.409) (xy 88.760429 97.190015) (xy 88.580045 96.675135) (xy 88.216356 96.268478) (xy 87.724731 96.031954)
        (xy 87.71907 96.03178) (xy 87.503 96.15428) (xy 87.249 96.15428) (xy 87.03293 96.03178) (xy 87.027269 96.031954)
        (xy 86.535644 96.268478) (xy 86.171955 96.675135) (xy 85.991571 97.190015) (xy 83.018985 97.190015) (xy 84.568837 95.640163)
        (xy 91.483443 95.640163) (xy 91.582042 95.906965) (xy 92.191582 96.133401) (xy 92.841377 96.109341) (xy 93.329958 95.906965)
        (xy 93.428557 95.640163) (xy 92.456 94.667605) (xy 91.483443 95.640163) (xy 84.568837 95.640163) (xy 85.985418 94.223582)
        (xy 90.810599 94.223582) (xy 90.834659 94.873377) (xy 91.037035 95.361958) (xy 91.303837 95.460557) (xy 92.276395 94.488)
        (xy 92.635605 94.488) (xy 93.608163 95.460557) (xy 93.874965 95.361958) (xy 94.101401 94.752418) (xy 94.077341 94.102623)
        (xy 93.874965 93.614042) (xy 93.608163 93.515443) (xy 92.635605 94.488) (xy 92.276395 94.488) (xy 91.303837 93.515443)
        (xy 91.037035 93.614042) (xy 90.810599 94.223582) (xy 85.985418 94.223582) (xy 86.873163 93.335837) (xy 91.483443 93.335837)
        (xy 92.456 94.308395) (xy 93.428557 93.335837) (xy 93.329958 93.069035) (xy 92.720418 92.842599) (xy 92.070623 92.866659)
        (xy 91.582042 93.069035) (xy 91.483443 93.335837) (xy 86.873163 93.335837) (xy 87.0565 93.1525) (xy 87.270021 92.832943)
        (xy 87.28177 92.773877) (xy 87.345 92.456) (xy 87.345 92.210601) (xy 100.724524 92.210601) (xy 100.865992 92.51379)
        (xy 101.602472 92.798747) (xy 102.39194 92.780174) (xy 103.00845 92.524807) (xy 105.879392 92.524807) (xy 106.68 93.325415)
        (xy 107.480608 92.524807) (xy 107.411143 92.282623) (xy 106.887698 92.095876) (xy 106.332632 92.123658) (xy 105.948857 92.282623)
        (xy 105.879392 92.524807) (xy 103.00845 92.524807) (xy 103.035048 92.51379) (xy 103.176516 92.210601) (xy 101.95052 90.984605)
        (xy 100.724524 92.210601) (xy 87.345 92.210601) (xy 87.345 90.456952) (xy 99.956773 90.456952) (xy 99.975346 91.24642)
        (xy 100.24173 91.889528) (xy 100.544919 92.030996) (xy 101.770915 90.805) (xy 102.130125 90.805) (xy 103.356121 92.030996)
        (xy 103.65931 91.889528) (xy 103.944267 91.153048) (xy 103.927891 90.456952) (xy 111.955733 90.456952) (xy 111.974306 91.24642)
        (xy 112.24069 91.889528) (xy 112.543879 92.030996) (xy 113.769875 90.805) (xy 114.129085 90.805) (xy 115.355081 92.030996)
        (xy 115.65827 91.889528) (xy 115.943227 91.153048) (xy 115.924654 90.36358) (xy 115.65827 89.720472) (xy 115.355081 89.579004)
        (xy 114.129085 90.805) (xy 113.769875 90.805) (xy 112.543879 89.579004) (xy 112.24069 89.720472) (xy 111.955733 90.456952)
        (xy 103.927891 90.456952) (xy 103.925694 90.36358) (xy 103.65931 89.720472) (xy 103.356121 89.579004) (xy 102.130125 90.805)
        (xy 101.770915 90.805) (xy 100.544919 89.579004) (xy 100.24173 89.720472) (xy 99.956773 90.456952) (xy 87.345 90.456952)
        (xy 87.345 89.48144) (xy 87.36 89.48144) (xy 87.607765 89.432157) (xy 87.65679 89.399399) (xy 100.724524 89.399399)
        (xy 101.95052 90.625395) (xy 103.176516 89.399399) (xy 112.723484 89.399399) (xy 113.94948 90.625395) (xy 115.175476 89.399399)
        (xy 115.034008 89.09621) (xy 114.297528 88.811253) (xy 113.50806 88.829826) (xy 112.864952 89.09621) (xy 112.723484 89.399399)
        (xy 103.176516 89.399399) (xy 103.035048 89.09621) (xy 102.298568 88.811253) (xy 101.5091 88.829826) (xy 100.865992 89.09621)
        (xy 100.724524 89.399399) (xy 87.65679 89.399399) (xy 87.817809 89.291809) (xy 87.958157 89.081765) (xy 88.000478 88.869)
        (xy 98.044 88.869) (xy 98.420943 88.794021) (xy 98.7405 88.5805) (xy 99.7565 87.5645) (xy 99.970021 87.244943)
        (xy 100.045 86.868) (xy 100.045 85.799169) (xy 100.159935 85.776307) (xy 100.369979 85.635959) (xy 100.510327 85.425915)
        (xy 100.532787 85.313) (xy 111.86 85.313)
      )
    )
  )
)
